{
    "parent": "item/handheld",
    "textures": {
        "layer0": "futurepack:items/misc/fetter_haxn"
    },
    "display": {
        "thirdperson_righthand": {
            "rotation": [ 0, -90, 55 ],
            "translation": [ 0, 4.0, 0.5 ],
            "scale": [1.35, 1.35, 1.35 ]
        }
    }
}
