{
    "parent": "futurepack:block/radar",
    "display": {
        "gui": {
            "translation": [ 0, -0.5, 0 ],
            "rotation": [ 30, -135, 0 ],
            "scale": [ 0.55, 0.55, 0.55 ]
        }
    }
}
