{
    "variants": {
        "facing=north": { "model": "futurepack:block/assembly_s", "y":0 },
        "facing=east": { "model": "futurepack:block/assembly_s", "y":90 },
        "facing=south": { "model": "futurepack:block/assembly_s", "y":180 },
        "facing=west": { "model": "futurepack:block/assembly_s", "y":270 }
    }
}
