{
  "variants": {
    "age=0": {
      "model": "futurepack:block/blueshroom_0"
    },
    "age=1": {
      "model": "futurepack:block/blueshroom_1"
    },
    "age=2": {
      "model": "futurepack:block/blueshroom_2"
    },
    "age=3": {
      "model": "futurepack:block/blueshroom_3"
    }
  }
}