{
  "variants": {
    "type=bottom": {
      "model": "futurepack:block/color_luftung_slab_cyan_slab"
    },
    "type=top": {
      "model": "futurepack:block/color_luftung_slab_cyan_slab_top"
    },
    "type=double": {
      "model": "futurepack:block/color_luftung_slab_cyan"
    }
  }
}