{
  "variants": {
    "type=bottom": {
      "model": "futurepack:block/color_gitter_slab_orange_slab"
    },
    "type=top": {
      "model": "futurepack:block/color_gitter_slab_orange_slab_top"
    },
    "type=double": {
      "model": "futurepack:block/color_gitter_slab_orange"
    }
  }
}