{
    "variants": {
        "variant=maschine": { "model": "futurepack:block/deep_core_machine"},
        "variant=mainup1": { "model": "futurepack:spacedoor" },
        "variant=mainup2": { "model": "futurepack:spacedoor" },
        "variant=main": { "model": "futurepack:spacedoor" },
		"variant=middle1": { "model": "futurepack:spacedoor" },
        "variant=middle2": { "model": "futurepack:spacedoor" },
        "variant=middle3": { "model": "futurepack:spacedoor" },
        "variant=inv1x": { "model": "futurepack:spacedoor" },
        "variant=inv2x": { "model": "futurepack:spacedoor" },
        "variant=inv3x": { "model": "futurepack:spacedoor" },
        "variant=inv1z": { "model": "futurepack:spacedoor" },
        "variant=inv2z": { "model": "futurepack:spacedoor" },
        "variant=inv3z": { "model": "futurepack:spacedoor" }
    }
}
