{
	 "variants": {
	 "age=0": {"model": "futurepack:block/glowmelo_0", "uvlock": true},
	 "age=1": {"model": "futurepack:block/glowmelo_1", "uvlock": true},
	 "age=2": {"model": "futurepack:block/glowmelo_2", "uvlock": true},
	 "age=3": {"model": "futurepack:block/glowmelo_3", "uvlock": true},
	 "age=4": {"model": "futurepack:block/glowmelo_4", "uvlock": true},
	 "age=5": {"model": "futurepack:block/glowmelo_5", "uvlock": true},
	 "age=6": {"model": "futurepack:block/glowmelo_6", "uvlock": true}
	 }
}
