{
  "variants": {
    "snowy=false": [
      {
        "model": "futurepack:block/grass_t_model"
      },
      {
        "model": "futurepack:block/grass_t_model",
        "y": 90
      },
      {
        "model": "futurepack:block/grass_t_model",
        "y": 180
      },
      {
        "model": "futurepack:block/grass_t_model",
        "y": 270
      }
    ],
    "snowy=true": {
      "model": "minecraft:block/grass_block_snow"
    }
  }
}