{
    "variants": {
        "age=0": { "model": "futurepack:block/mendel_berry_plant_0" },
        "age=1": { "model": "futurepack:block/mendel_berry_plant_1" },
        "age=2": { "model": "futurepack:block/mendel_berry_plant_2" },
        "age=3": { "model": "futurepack:block/mendel_berry_plant_3" },
        "age=4": { "model": "futurepack:block/mendel_berry_plant_4" },
        "age=5": { "model": "futurepack:block/mendel_berry_plant_5" },
        "age=6": { "model": "futurepack:block/mendel_berry_plant_6" },
        "age=7": { "model": "futurepack:block/mendel_berry_plant_7" }
    }
}
