{
    "variants": 
	{
        "shape=north_south":{"model":"futurepack:block/monorail_charger_flat" ,"y": 0},
        "shape=east_west":{"model":"futurepack:block/monorail_charger_flat","y": 90},
        "shape=ascending_east":{"model":"futurepack:block/monorail_charger_raised_ne","y": 90},
        "shape=ascending_west":{"model":"futurepack:block/monorail_charger_raised_sw","y": 90},
        "shape=ascending_north":{"model":"futurepack:block/monorail_charger_raised_ne","y": 0},
        "shape=ascending_south":{"model":"futurepack:block/monorail_charger_raised_sw","y": 0}    
    }
}
