{
  "variants": {
    "type=mycel,facing=down": {      "model": "futurepack:block/mushroom_miner_mycel",      "x": 90    },
    "type=mycel,facing=up": {      "model": "futurepack:block/mushroom_miner_mycel",      "x": 270    },
    "type=mycel,facing=north": {      "model": "futurepack:block/mushroom_miner_mycel"    },
    "type=mycel,facing=south": {      "model": "futurepack:block/mushroom_miner_mycel",      "y": 180    },
    "type=mycel,facing=west": {      "model": "futurepack:block/mushroom_miner_mycel",      "y": 270    },
    "type=mycel,facing=east": {      "model": "futurepack:block/mushroom_miner_mycel",      "y": 90    },
    
    "type=root,facing=down": {      "model": "futurepack:block/mushroom_miner_root",      "x": 90    },
    "type=root,facing=up": {      "model": "futurepack:block/mushroom_miner_root",      "x": 270    },
    "type=root,facing=north": {      "model": "futurepack:block/mushroom_miner_root"    },
    "type=root,facing=south": {      "model": "futurepack:block/mushroom_miner_root",      "y": 180    },
    "type=root,facing=west": {      "model": "futurepack:block/mushroom_miner_root",      "y": 270    },
    "type=root,facing=east": {      "model": "futurepack:block/mushroom_miner_root",      "y": 90    },
    
    "type=death,facing=down": {      "model": "futurepack:block/mushroom_miner_death",      "x": 90    },
    "type=death,facing=up": {      "model": "futurepack:block/mushroom_miner_death",      "x": 270    },
    "type=death,facing=north": {      "model": "futurepack:block/mushroom_miner_death"    },
    "type=death,facing=south": {      "model": "futurepack:block/mushroom_miner_death",      "y": 180    },
    "type=death,facing=west": {      "model": "futurepack:block/mushroom_miner_death",      "y": 270    },
    "type=death,facing=east": {      "model": "futurepack:block/mushroom_miner_death",      "y": 90    }
  }
}