{
    "variants":
    {
        "age=0": {"model": "futurepack:block/oxades_0"},
		"age=1": {"model": "futurepack:block/oxades_1"},
		"age=2": {"model": "futurepack:block/oxades_2"},
		"age=3": {"model": "futurepack:block/oxades_3"},
		"age=4": {"model": "futurepack:block/oxades_4"},
		"age=5": {"model": "futurepack:block/oxades_5"},
		"age=6": {"model": "futurepack:block/oxades_6"},
		"age=7": {"model": "futurepack:block/oxades_7"},
		"age=8": {"model": "futurepack:block/oxades_8"},
		"age=9": {"model": "futurepack:block/oxades_9"},
		"age=10": {"model": "futurepack:block/oxades_10"},
		"age=11": {"model": "futurepack:block/oxades_11"}
    }
}