{
    "parent": "block/upper_slab",
    "textures": {
        "bottom": "futurepack:blocks/gitter_10",
        "top": "futurepack:blocks/gitter_10",
        "side": "futurepack:blocks/gitter_10"
    }
}
