{
    "parent": "block/inner_stairs",
    "textures": {
        "bottom": "futurepack:blocks/gitter_11",
        "top": "futurepack:blocks/gitter_11",
        "side": "futurepack:blocks/gitter_11"
    }
}
