{
    "parent": "block/outer_stairs",
    "textures": {
        "bottom": "futurepack:blocks/color_iron_13",
        "top": "futurepack:blocks/color_iron_13",
        "side": "futurepack:blocks/color_iron_13"
    }
}
