{
    "parent": "block/half_slab",
    "textures": {
        "bottom": "futurepack:blocks/luftung_13",
        "top": "futurepack:blocks/luftung_13",
        "side": "futurepack:blocks/color_iron_13"
    }
}
