{
    "parent": "block/upper_slab",
    "textures": {
        "bottom": "futurepack:blocks/luftung_14",
        "top": "futurepack:blocks/luftung_14",
        "side": "futurepack:blocks/color_iron_14"
    }
}
