{
    "parent": "block/half_slab",
    "textures": {
        "bottom": "futurepack:blocks/gitter_14",
        "top": "futurepack:blocks/gitter_14",
        "side": "futurepack:blocks/gitter_14"
    }
}
