{
    "parent": "block/inner_stairs",
    "textures": {
        "bottom": "futurepack:blocks/gitter_4",
        "top": "futurepack:blocks/gitter_4",
        "side": "futurepack:blocks/gitter_4"
    }
}
