{
    "parent": "block/half_slab",
    "textures": {
        "bottom": "futurepack:blocks/luftung_4",
        "top": "futurepack:blocks/luftung_4",
        "side": "futurepack:blocks/color_iron_4"
    }
}
