{
    "parent": "block/upper_slab",
    "textures": {
        "bottom": "futurepack:blocks/gitter_4",
        "top": "futurepack:blocks/gitter_4",
        "side": "futurepack:blocks/gitter_4"
    }
}
