{
    "parent": "block/half_slab",
    "textures": {
        "bottom": "futurepack:blocks/luftung_5",
        "top": "futurepack:blocks/luftung_5",
        "side": "futurepack:blocks/color_iron_5"
    }
}
