{
    "parent": "block/outer_stairs",
    "textures": {
        "bottom": "futurepack:blocks/color_iron_5",
        "top": "futurepack:blocks/color_iron_5",
        "side": "futurepack:blocks/color_iron_5"
    }
}
