{
    "parent": "block/upper_slab",
    "textures": {
        "bottom": "futurepack:blocks/luftung_6",
        "top": "futurepack:blocks/luftung_6",
        "side": "futurepack:blocks/color_iron_6"
    }
}
