{
    "parent": "block/half_slab",
    "textures": {
        "bottom": "futurepack:blocks/color_iron_9",
        "top": "futurepack:blocks/color_iron_9",
        "side": "futurepack:blocks/color_iron_9"
    }
}
