{
	"parent": "block/block",
	"textures": {
		"texture0": "#cable",
        "particle": "#cable"
	},
	"elements": [
		{
			"from": [ 6.0, 6.0, 6.0 ],
			"to": [ 10.0, 10.0, 10.0 ],
			"faces": {
				"down":	{ "uv": [ 0, 0, 4, 4  ], "texture": "#texture0", "rotation": 270},
				"up":	{ "uv": [ 0, 0, 4, 4  ], "texture": "#texture0", "rotation": 90},
				"north":{ "uv": [ 0, 0, 4, 4  ], "texture": "#texture0"},
				"south":{ "uv": [ 0, 0, 4, 4  ], "texture": "#texture0"},
				"west":	{ "uv": [ 0, 0, 4, 4  ], "texture": "#texture0"},
				"east":	{ "uv": [ 0, 0, 4, 4  ], "texture": "#texture0"}
			}
		}
	]
}
