{
	"parent": "block/block",
	"textures": {
		"texture0": "#cable",
        "particle": "#cable"
	},
	"elements": [
		{
			"from": [ 10.0, 6.0, 6.0 ],
			"to": [ 16.0, 10.0, 10.0 ],
			"faces": {
				"down":	{ "uv": [ 0, 8, 6, 12  ], "texture": "#texture0", "rotation": 0},
				"up":	{ "uv": [ 0, 8, 6, 12  ], "texture": "#texture0", "rotation": 0},
				"north":{ "uv": [ 0, 4, 6, 8  ], "texture": "#texture0"},
				"south":{ "uv": [ 0, 8, 6, 12  ], "texture": "#texture0"},
				"west":	{ "uv": [ 4, 0, 8, 4  ], "texture": "#texture0"},
				"east":	{ "uv": [ 0, 12, 4, 16  ], "texture": "#texture0"}
			}
		}
	]
}
