{
	"parent": "block/cube",
	"textures": {
		"particle":"futurepack:items/not_use",
		"down":"futurepack:blocks/color_iron_15",
		"up":"futurepack:items/not_use",
		"north":"futurepack:items/not_use",
		"east":"futurepack:blocks/color_iron_15",
		"south":"futurepack:items/not_use",
		"west":"futurepack:blocks/color_iron_15"
	}
}
