{
    "parent": "block/cube",
    "textures": {
        "particle": "futurepack:blocks/pilz_top",
        "up": "futurepack:blocks/pilz_top",
		"down": "futurepack:blocks/pilz_top",
		"north": "futurepack:blocks/pilz_top",
		"south": "futurepack:blocks/pilz_top",
		"east": "futurepack:blocks/pilz_top",
		"west": "futurepack:blocks/pilz_top"
    }
}
