{
	"type": "centrifuge",
	"recipes": [
	  {
	    "support": 0,
	    "time": 40,
	    "output": [
	      {
	        "size": 1,
	        "name": "futurepack:kompost"
	      },
	      {
	        "size": 1,
	        "name": "futurepack:fibers"
	      }
	    ],
	    "input": {
	      "size": 1,
	      "name": "futurepack:sapling_mushroom"
	    }
	  },
	  {
	    "support": 0,
	    "time": 150,
	    "output": [
	      {
	        "size": 32,
	        "tag": "forge:gems/quartz"
	      },
	      {
	        "size": 1,
	        "tag": "forge:gems/bitripentium"
	      }
	    ],
	    "input": {
	      "size": 32,
	      "tag": "forge:dusts/neon"
	    }
	  },
	  {
	    "support": 1,
	    "time": 150,
	    "output": [
	      {
	        "size": 26,
	        "tag": "forge:gems/quartz"
	      },
	      {
	        "size": 6,
	        "tag": "forge:dusts/redstone"
	      },
	      {
	        "size": 1,
	        "tag": "forge:gems/bitripentium"
	      }
	    ],
	    "input": {
	      "size": 26,
	      "tag": "forge:dusts/retium"
	    }
	  },
	  {
	    "support": 2,
	    "time": 150,
	    "output": [
	      {
	        "size": 20,
	        "tag": "forge:gems/quartz"
	      },
	      {
	        "size": 5,
	        "tag": "forge:dusts/glowstone"
	      },
	      {
	        "size": 1,
	        "tag": "forge:gems/bitripentium"
	      }
	    ],
	    "input": {
	      "size": 20,
	      "tag": "forge:dusts/glowtite"
	    }
	  },
	  {
	    "support": 4,
	    "time": 150,
	    "output": [
	      {
	        "size": 14,
	        "tag": "forge:gems/quartz"
	      },
	      {
	        "size": 3,
	        "tag": "forge:slimeballs"
	      },
	      {
	        "size": 1,
	        "tag": "forge:gems/bitripentium"
	      }
	    ],
	    "input": {
	      "size": 14,
	      "tag": "forge:dusts/bioterium"
	    }
	  },
	  {
	    "support": 8,
	    "time": 300,
	    "output": [
	      "tag:forge:dusts/iron",
	      {
	        "size": 8,
	        "name": "minecraft:jungle_log"
	      }
	    ],
	    "input": {
	      "size": 8,
	      "name": "futurepack:log_tyros"
	    }
	  },
	  {
	    "support": 0,
	    "time": 600,
	    "output": [
	      {
	        "size": 3,
	        "name": "minecraft:sand"
	      },
	      {
	        "size": 16,
	        "tag": "forge:dusts/neon"
	      }
	    ],
	    "input": {
	      "size": 4,
	      "name": "futurepack:sand_neon"
	    }
	  },
	  {
	    "support": 0,
	    "time": 600,
	    "output": [
	      {
	        "size": 3,
	        "name": "minecraft:sand"
	      },
	      {
	        "size": 16,
	        "tag": "forge:dusts/retium"
	      }
	    ],
	    "input": {
	      "size": 4,
	      "name": "futurepack:sand_retium"
	    }
	  },
	  {
	    "support": 0,
	    "time": 600,
	    "output": [
	      {
	        "size": 3,
	        "name": "minecraft:sand"
	      },
	      {
	        "size": 16,
	        "tag": "forge:dusts/glowtite"
	      }
	    ],
	    "input": {
	      "size": 4,
	      "name": "futurepack:sand_glowtite"
	    }
	  },
	  {
	    "support": 0,
	    "time": 600,
	    "output": [
	      {
	        "size": 3,
	        "name": "minecraft:sand"
	      },
	      {
	        "size": 16,
	        "tag": "forge:dusts/bioterium"
	      }
	    ],
	    "input": {
	      "size": 4,
	      "name": "futurepack:sand_bioterium"
	    }
	  },
	  {
	    "support": 0,
	    "time": 600,
	    "output": [
	      {
	        "size": 3,
	        "name": "minecraft:sand"
	      },
	      {
	        "size": 12,
	        "tag": "forge:dusts/neon"
	      },
	      {
	        "size": 4,
	        "tag": "forge:dusts/aluminum"
	      }
	    ],
	    "input": {
	      "size": 4,
	      "name": "futurepack:sand_alutin"
	    }
	  },
	  {
	    "support": 0,
	    "time": 300,
	    "output": [
	      {
	        "size": 6,
	        "name": "futurepack:kompost"
	      },
	      {
	        "size": 16,
	        "name": "futurepack:fibers"
	      },
	      {
	        "size": 2,
	        "name": "minecraft:brown_mushroom"
	      }
	    ],
	    "input": {
	      "size": 8,
	      "name": "futurepack:log_mushroom"
	    }
	  },
	  {
	    "support": 0,
	    "time": 200,
	    "output": [
	      {
	        "size": 28,
	        "name": "minecraft:gravel"
	      },
	      {
	        "size": 4,
	        "name": "minecraft:andesite"
	      },
	      {
	        "size": 1,
	        "name": "minecraft:coal"
	      }
	    ],
	    "input": {
	      "size": 32,
	      "name": "minecraft:cobblestone"
	    }
	  },
	  {
	    "support": 0,
	    "time": 400,
	    "output": [
	      {
	        "size": 4,
	        "name": "minecraft:gravel"
	      },
	      {
	        "size": 2,
	        "tag": "forge:gems/quartz"
	      },
	      {
	        "size": 2,
	        "tag": "forge:dusts/iron"
	      }
	    ],
	    "input": {
	      "size": 8,
	      "name": "minecraft:granite"
	    }
	  },
	  {
	    "support": 0,
	    "time": 300,
	    "output": [
	      {
	        "size": 3,
	        "name": "minecraft:gravel"
	      },
	      {
	        "size": 4,
	        "tag": "forge:gems/quartz"
	      },
	      {
	        "size": 1,
	        "tag": "forge:dusts/iron"
	      }
	    ],
	    "input": {
	      "size": 8,
	      "name": "minecraft:diorite"
	    }
	  },
	  {
	    "support": 0,
	    "time": 250,
	    "output": [
	      {
	        "size": 5,
	        "name": "minecraft:gravel"
	      },
	      {
	        "size": 1,
	        "tag": "forge:gems/quartz"
	      },
	      {
	        "size": 2,
	        "tag": "forge:dusts/aluminum"
	      }
	    ],
	    "input": {
	      "size": 8,
	      "name": "minecraft:andesite"
	    }
	  },
	  {
	    "support": 0,
	    "time": 300,
	    "output": [
	      {
	        "size": 12,
	        "name": "minecraft:sand"
	      },
	      {
	        "size": 1,
	        "tag": "forge:dusts/tin"
	      },
	      {
	        "size": 1,
	        "tag": "forge:dusts/copper"
	      }
	    ],
	    "input": {
	      "size": 16,
	      "name": "minecraft:gravel"
	    }
	  },
	  {
	    "support": 0,
	    "time": 200,
	    "output": [
	      {
	        "size": 6,
	        "name": "minecraft:sand"
	      },
	      {
	        "size": 2,
	        "tag": "forge:dusts/iron"
	      }
	    ],
	    "input": {
	      "size": 8,
	      "name": "minecraft:red_sand"
	    }
	  },
	  {
	    "support": 16,
	    "time": 300,
	    "output": [
	      {
	        "size": 12,
	        "name": "minecraft:sandstone"
	      },
	      {
	        "size": 1,
	        "name": "minecraft:ender_pearl"
	      }
	    ],
	    "input": {
	      "size": 16,
	      "name": "minecraft:end_stone"
	    }
	  },
	  {
	    "support": 0,
	    "time": 200,
	    "output": [
	      {
	        "size": 6,
	        "name": "minecraft:sand"
	      },
	      {
	        "size": 2,
	        "tag": "forge:dusts/copper"
	      }
	    ],
	    "input": {
	      "size": 8,
	      "name": "futurepack:sand_m"
	    }
	  },
	  {
	    "support": 0,
	    "time": 250,
	    "output": [
	      {
	        "size": 14,
	        "name": "minecraft:gravel"
	      },
	      {
	        "size": 2,
	        "tag": "forge:dusts/copper"
	      }
	    ],
	    "input": {
	      "size": 16,
	      "name": "futurepack:stone_m"
	    }
	  },
	  {
	    "support": 8,
	    "time": 900,
	    "output": [
	      {
	        "size": 5,
	        "tag": "forge:dusts/iron"
	      },
	      {
	        "size": 3,
	        "tag": "forge:dusts/magnetite"
	      }
	    ],
	    "input": {
	      "size": 8,
	      "tag": "forge:dusts/obsidian"
	    }
	  },
	  {
	    "support": 0,
	    "time": 160,
	    "output": [
	      {
	        "size": 4,
	        "name": "minecraft:gravel"
	      },
	      {
	        "size": 3,
	        "name": "minecraft:clay_ball"
	      },
	      {
	        "size": 4,
	        "tag": "forge:ingots/rareearthmetal"
	      }
	    ],
	    "input": {
	      "size": 8,
	      "name": "futurepack:dirt_m"
	    }
	  },
	  {
	    "support": 0,
	    "time": 240,
	    "output": [
	      {
	        "size": 4,
	        "name": "minecraft:gravel"
	      },
	      {
	        "size": 6,
	        "name": "minecraft:clay_ball"
	      },
	      {
	        "size": 12,
	        "tag": "forge:ingots/rareearthmetal"
	      }
	    ],
	    "input": {
	      "size": 8,
	      "name": "futurepack:gravel_m"
	    }
	  },
	  {
	    "support": 0,
	    "time": 240,
	    "output": [
	      {
	        "size": 2,
	        "tag": "forge:ingots/lithium"
	      },
	      {
	        "size": 1,
	        "tag": "forge:ingots/gadolinium"
	      },
	      {
	        "size": 1,
	        "tag": "forge:ingots/neodymium"
	      }
	    ],
	    "input": {
	      "size": 4,
	      "tag": "forge:ingots/rareearthmetal"
	    }
	  },
	  {
	    "support": 0,
	    "time": 100,
	    "output": [
	      {
	        "size": 5,
	        "name": "minecraft:gravel"
	      },
	      {
	        "size": 1,
	        "name": "minecraft:clay_ball"
	      },
	      {
	        "size": 1,
	        "name": "futurepack:kompost"
	      }
	    ],
	    "input": {
	      "size": 8,
	      "name": "minecraft:dirt"
	    }
	  },
	  {
	    "support": 0,
	    "time": 100,
	    "output": [
	      {
	        "size": 6,
	        "name": "minecraft:gravel"
	      },
	      {
	        "size": 2,
	        "name": "minecraft:cobblestone"
	      },
	      {
	        "size": 1,
	        "name": "futurepack:kompost"
	      }
	    ],
	    "input": {
	      "size": 8,
	      "name": "minecraft:coarse_dirt"
	    }
	  },
	  {
	    "support": 0,
	    "time": 100,
	    "output": [
	      {
	        "size": 4,
	        "name": "minecraft:gravel"
	      },
	      {
	        "size": 2,
	        "name": "minecraft:clay_ball"
	      },
	      {
	        "size": 3,
	        "name": "futurepack:kompost"
	      }
	    ],
	    "input": {
	      "size": 8,
	      "name": "minecraft:podzol"
	    }
	  },
	  {
	    "support": 0,
	    "time": 100,
	    "output": [
	      {
	        "size": 4,
	        "name": "minecraft:gravel"
	      },
	      {
	        "size": 2,
	        "name": "minecraft:clay_ball"
	      },
	      {
	        "size": 2,
	        "name": "futurepack:kompost"
	      }
	    ],
	    "input": {
	      "size": 8,
	      "name": "minecraft:grass_block"
	    }
	  },
	  {
	    "support": 0,
	    "time": 200,
	    "output": [
	      {
	        "size": 4,
	        "name": "minecraft:gravel"
	      },
	      {
	        "size": 2,
	        "name": "futurepack:fibers"
	      },
	      {
	        "size": 3,
	        "name": "futurepack:kompost"
	      }
	    ],
	    "input": {
	      "size": 4,
	      "name": "minecraft:mossy_cobblestone"
	    }
	  },
	  {
	    "support": 0,
	    "time": 60,
	    "output": [
	      {
	        "size": 1,
	        "name": "futurepack:wood_chips"
	      },
	      {
	        "size": 1,
	        "name": "futurepack:kompost"
	      }
	    ],
	    "input": {
	      "size": 2,
	      "tag": "forge:tree_saplings"
	    }
	  },
	  {
	    "support": 0,
	    "time": 240,
	    "output": [
	      {
	        "size": 2,
	        "name": "futurepack:wood_chips"
	      },
	      {
	        "size": 5,
	        "name": "futurepack:kompost"
	      },
	      {
	        "size": 1,
	        "name": "futurepack:fibers"
	      }
	    ],
	    "input": {
	      "size": 8,
	      "tag": "forge:tree_leaves"
	    }
	  },
	  {
	    "support": 0,
	    "time": 40,
	    "output": [
	      {
	        "size": 1,
	        "name": "futurepack:kompost"
	      },
	      {
	        "size": 1,
	        "name": "futurepack:fibers"
	      }
	    ],
	    "input": {
	      "size": 1,
	      "name": "minecraft:brown_mushroom"
	    }
	  },
	  {
	    "support": 0,
	    "time": 40,
	    "output": [
	      {
	        "size": 1,
	        "name": "futurepack:kompost"
	      },
	      {
	        "size": 1,
	        "name": "futurepack:fibers"
	      }
	    ],
	    "input": {
	      "size": 1,
	      "name": "minecraft:red_mushroom"
	    }
	  },
	  {
	    "support": 0,
	    "time": 120,
	    "output": [
	      {
	        "size": 10,
	        "name": "minecraft:melon_seeds"
	      },
	      {
	        "size": 3,
	        "name": "futurepack:kompost"
	      },
	      {
	        "size": 1,
	        "name": "futurepack:fibers"
	      }
	    ],
	    "input": {
	      "size": 4,
	      "name": "minecraft:melon"
	    }
	  },
	  {
	    "support": 0,
	    "time": 240,
	    "output": [
	      {
	        "size": 6,
	        "name": "futurepack:fibers"
	      },
	      {
	        "size": 8,
	        "name": "minecraft:sugar"
	      }
	    ],
	    "input": {
	      "size": 6,
	      "name": "minecraft:sugar_cane"
	    }
	  },
	  {
	    "support": 2,
	    "time": 240,
	    "output": [
	      {
	        "size": 2,
	        "name": "futurepack:fibers"
	      },
	      {
	        "size": 12,
	        "name": "minecraft:green_dye"
	      },
	      {
	        "size": 1,
	        "name": "futurepack:kompost"
	      }
	    ],
	    "input": {
	      "size": 6,
	      "name": "minecraft:cactus"
	    }
	  },
	  {
	    "support": 2,
	    "time": 240,
	    "output": [
	      {
	        "size": 4,
	        "name": "futurepack:fibers"
	      },
	      {
	        "size": 4,
	        "name": "minecraft:green_dye"
	      },
	      {
	        "size": 1,
	        "name": "futurepack:kompost"
	      }
	    ],
	    "input": {
	      "size": 6,
	      "name": "minecraft:vine"
	    }
	  },
	  {
	    "support": 2,
	    "time": 240,
	    "output": [
	      {
	        "size": 2,
	        "name": "futurepack:fibers"
	      },
	      {
	        "size": 3,
	        "name": "futurepack:kompost"
	      }
	    ],
	    "input": {
	      "size": 12,
	      "name": "minecraft:lily_pad"
	    }
	  },
	  {
	    "support": 0,
	    "time": 200,
	    "output": [
	      {
	        "size": 3,
	        "name": "minecraft:sand"
	      },
	      {
	        "size": 1,
	        "tag": "forge:dusts/iron"
	      },
	      {
	        "size": 2,
	        "name": "futurepack:kompost"
	      }
	    ],
	    "input": {
	      "size": 16,
	      "name": "minecraft:clay_ball"
	    }
	  },
	  {
	    "support": 0,
	    "time": 200,
	    "output": [
	      {
	        "size": 3,
	        "name": "minecraft:sand"
	      },
	      {
	        "size": 1,
	        "tag": "forge:dusts/iron"
	      },
	      {
	        "size": 2,
	        "name": "futurepack:kompost"
	      }
	    ],
	    "input": {
	      "size": 4,
	      "name": "minecraft:clay"
	    }
	  },
	  {
	    "support": 0,
	    "time": 200,
	    "output": [
	      {
	        "size": 2,
	        "name": "minecraft:sand"
	      },
	      {
	        "size": 2,
	        "name": "minecraft:brick"
	      },
	      {
	        "size": 1,
	        "name": "futurepack:kompost"
	      }
	    ],
	    "input": {
	      "size": 4,
	      "name": "minecraft:terracotta"
	    }
	  },
	  {
	    "support": 0,
	    "time": 200,
	    "output": [
	      {
	        "size": 2,
	        "name": "minecraft:sand"
	      },
	      {
	        "size": 2,
	        "name": "minecraft:brick"
	      },
	      {
	        "size": 1,
	        "name": "futurepack:kompost"
	      }
	    ],
	    "input": {
	      "size": 4,
	      "name": "minecraft:white_terracotta"
	    }
	  },
	  {
	    "support": 0,
	    "time": 150,
	    "output": [
	      {
	        "size": 5,
	        "name": "futurepack:fibers"
	      },
	      {
	        "size": 3,
	        "name": "minecraft:wheat_seeds"
	      },
	      {
	        "size": 1,
	        "name": "futurepack:kompost"
	      }
	    ],
	    "input": {
	      "size": 1,
	      "name": "minecraft:hay_block"
	    }
	  },
	  {
	    "support": 0,
	    "time": 150,
	    "output": [
	      {
	        "size": 5,
	        "name": "futurepack:fibers"
	      },
	      {
	        "size": 3,
	        "name": "minecraft:wheat_seeds"
	      },
	      {
	        "size": 1,
	        "name": "futurepack:kompost"
	      }
	    ],
	    "input": {
	      "size": 9,
	      "name": "minecraft:wheat"
	    }
	  },
	  {
	    "support": 4,
	    "time": 150,
	    "output": [
	      {
	        "size": 1,
	        "name": "futurepack:fibers"
	      },
	      {
	        "size": 1,
	        "name": "futurepack:kompost"
	      },
	      {
	        "size": 4,
	        "name": "minecraft:yellow_dye"
	      }
	    ],
	    "input": {
	      "size": 1,
	      "name": "minecraft:dandelion"
	    }
	  },
	  {
	    "support": 4,
	    "time": 150,
	    "output": [
	      {
	        "size": 1,
	        "name": "futurepack:fibers"
	      },
	      {
	        "size": 1,
	        "name": "futurepack:kompost"
	      },
	      {
	        "size": 4,
	        "name": "minecraft:red_dye"
	      }
	    ],
	    "input": {
	      "size": 1,
	      "name": "minecraft:poppy"
	    }
	  },
	  {
	    "support": 4,
	    "time": 150,
	    "output": [
	      {
	        "size": 1,
	        "name": "futurepack:fibers"
	      },
	      {
	        "size": 1,
	        "name": "futurepack:kompost"
	      },
	      {
	        "size": 4,
	        "name": "minecraft:light_blue_dye"
	      }
	    ],
	    "input": {
	      "size": 1,
	      "name": "minecraft:blue_orchid"
	    }
	  },
	  {
	    "support": 4,
	    "time": 150,
	    "output": [
	      {
	        "size": 1,
	        "name": "futurepack:fibers"
	      },
	      {
	        "size": 1,
	        "name": "futurepack:kompost"
	      },
	      {
	        "size": 4,
	        "name": "minecraft:magenta_dye"
	      }
	    ],
	    "input": {
	      "size": 1,
	      "name": "minecraft:allium"
	    }
	  },
	  {
	    "support": 4,
	    "time": 150,
	    "output": [
	      {
	        "size": 1,
	        "name": "futurepack:fibers"
	      },
	      {
	        "size": 1,
	        "name": "futurepack:kompost"
	      },
	      {
	        "size": 4,
	        "name": "minecraft:light_gray_dye"
	      }
	    ],
	    "input": {
	      "size": 1,
	      "name": "minecraft:azure_bluet"
	    }
	  },
	  {
	    "support": 4,
	    "time": 150,
	    "output": [
	      {
	        "size": 1,
	        "name": "futurepack:fibers"
	      },
	      {
	        "size": 1,
	        "name": "futurepack:kompost"
	      },
	      {
	        "size": 4,
	        "name": "minecraft:red_dye"
	      }
	    ],
	    "input": {
	      "size": 1,
	      "name": "minecraft:red_tulip"
	    }
	  },
	  {
	    "support": 4,
	    "time": 150,
	    "output": [
	      {
	        "size": 1,
	        "name": "futurepack:fibers"
	      },
	      {
	        "size": 1,
	        "name": "futurepack:kompost"
	      },
	      {
	        "size": 4,
	        "name": "minecraft:orange_dye"
	      }
	    ],
	    "input": {
	      "size": 1,
	      "name": "minecraft:orange_tulip"
	    }
	  },
	  {
	    "support": 4,
	    "time": 150,
	    "output": [
	      {
	        "size": 1,
	        "name": "futurepack:fibers"
	      },
	      {
	        "size": 1,
	        "name": "futurepack:kompost"
	      },
	      {
	        "size": 4,
	        "name": "minecraft:light_gray_dye"
	      }
	    ],
	    "input": {
	      "size": 1,
	      "name": "minecraft:white_tulip"
	    }
	  },
	  {
	    "support": 4,
	    "time": 150,
	    "output": [
	      {
	        "size": 1,
	        "name": "futurepack:fibers"
	      },
	      {
	        "size": 1,
	        "name": "futurepack:kompost"
	      },
	      {
	        "size": 4,
	        "name": "minecraft:pink_dye"
	      }
	    ],
	    "input": {
	      "size": 1,
	      "name": "minecraft:pink_tulip"
	    }
	  },
	  {
	    "support": 4,
	    "time": 150,
	    "output": [
	      {
	        "size": 1,
	        "name": "futurepack:fibers"
	      },
	      {
	        "size": 1,
	        "name": "futurepack:kompost"
	      },
	      {
	        "size": 4,
	        "name": "minecraft:light_gray_dye"
	      }
	    ],
	    "input": {
	      "size": 1,
	      "name": "minecraft:oxeye_daisy"
	    }
	  },
	  {
	    "support": 4,
	    "time": 150,
	    "output": [
	      {
	        "size": 1,
	        "name": "futurepack:fibers"
	      },
	      {
	        "size": 1,
	        "name": "futurepack:kompost"
	      },
	      {
	        "size": 4,
	        "name": "minecraft:yellow_dye"
	      }
	    ],
	    "input": {
	      "size": 1,
	      "name": "futurepack:topinambur_flower"
	    }
	  },
	  {
	    "support": 4,
	    "time": 150,
	    "output": [
	      {
	        "size": 1,
	        "name": "futurepack:fibers"
	      },
	      {
	        "size": 1,
	        "name": "futurepack:kompost"
	      },
	      {
	        "size": 4,
	        "name": "minecraft:pink_dye"
	      }
	    ],
	    "input": {
	      "size": 1,
	      "name": "futurepack:mendel_flower"
	    }
	  },
	  {
	    "support": 8,
	    "time": 220,
	    "output": [
	      {
	        "size": 2,
	        "name": "futurepack:fibers"
	      },
	      {
	        "size": 2,
	        "name": "futurepack:kompost"
	      },
	      {
	        "size": 8,
	        "name": "minecraft:yellow_dye"
	      }
	    ],
	    "input": {
	      "size": 1,
	      "name": "minecraft:sunflower"
	    }
	  },
	  {
	    "support": 8,
	    "time": 220,
	    "output": [
	      {
	        "size": 3,
	        "name": "futurepack:fibers"
	      },
	      {
	        "size": 1,
	        "name": "futurepack:kompost"
	      },
	      {
	        "size": 8,
	        "name": "minecraft:magenta_dye"
	      }
	    ],
	    "input": {
	      "size": 1,
	      "name": "minecraft:lilac"
	    }
	  },
	  {
	    "support": 8,
	    "time": 220,
	    "output": [
	      {
	        "size": 3,
	        "name": "futurepack:fibers"
	      },
	      {
	        "size": 1,
	        "name": "futurepack:kompost"
	      },
	      {
	        "size": 8,
	        "name": "minecraft:red_dye"
	      }
	    ],
	    "input": {
	      "size": 1,
	      "name": "minecraft:rose_bush"
	    }
	  },
	  {
	    "support": 8,
	    "time": 220,
	    "output": [
	      {
	        "size": 1,
	        "name": "futurepack:fibers"
	      },
	      {
	        "size": 3,
	        "name": "futurepack:kompost"
	      },
	      {
	        "size": 8,
	        "name": "minecraft:pink_dye"
	      }
	    ],
	    "input": {
	      "size": 1,
	      "name": "minecraft:peony"
	    }
	  },
	  {
	    "support": 1,
	    "time": 200,
	    "output": [
	      {
	        "size": 16,
	        "name": "minecraft:coal"
	      },
	      {
	        "size": 3,
	        "name": "minecraft:cobblestone"
	      },
	      {
	        "size": 1,
	        "tag": "forge:dusts/iron"
	      }
	    ],
	    "input": {
	      "size": 4,
	      "tag": "forge:ores/coal"
	    }
	  },
	  {
	    "support": 1,
	    "time": 200,
	    "output": [
	      {
	        "size": 16,
	        "name": "minecraft:coal"
	      },
	      {
	        "size": 3,
	        "name": "minecraft:cobblestone"
	      },
	      {
	        "size": 1,
	        "tag": "forge:dusts/iron"
	      }
	    ],
	    "input": {
	      "size": 4,
	      "tag": "forge:raw_materials/coal"
	    },
	    "condition": {"type": "tag", "data": "forge:raw_materials/coal"}
	  },
	  {
	    "support": 2,
	    "time": 200,
	    "output": [
	      {
	        "size": 10,
	        "tag": "forge:dusts/iron"
	      },
	      {
	        "size": 3,
	        "name": "minecraft:cobblestone"
	      },
	      {
	        "size": 1,
	        "tag": "forge:dusts/gold"
	      }
	    ],
	    "input": {
	      "size": 4,
	      "tag": "forge:ores/iron"
	    }
	  },
	  {
	    "support": 2,
	    "time": 200,
	    "output": [
	      {
	        "size": 10,
	        "tag": "forge:dusts/iron"
	      },
	      {
	        "size": 3,
	        "name": "minecraft:cobblestone"
	      },
	      {
	        "size": 1,
	        "tag": "forge:dusts/gold"
	      }
	    ],
	    "input": {
	      "size": 4,
	      "tag": "forge:raw_materials/iron"
	    }
	  },
	  {
	    "support": 4,
	    "time": 200,
	    "output": [
	      {
	        "size": 10,
	        "tag": "forge:dusts/gold"
	      },
	      {
	        "size": 3,
	        "name": "minecraft:cobblestone"
	      },
	      {
	        "size": 3,
	        "tag": "forge:dusts/redstone"
	      }
	    ],
	    "input": {
	      "size": 4,
	      "tag": "forge:ores/gold"
	    }
	  },
	  {
	    "support": 4,
	    "time": 200,
	    "output": [
	      {
	        "size": 10,
	        "tag": "forge:dusts/gold"
	      },
	      {
	        "size": 3,
	        "name": "minecraft:cobblestone"
	      },
	      {
	        "size": 3,
	        "tag": "forge:dusts/redstone"
	      }
	    ],
	    "input": {
	      "size": 4,
	      "tag": "forge:raw_materials/gold"
	    }
	  },
	  {
	    "support": 8,
	    "time": 200,
	    "output": [
	      {
	        "size": 24,
	        "tag": "forge:dusts/redstone"
	      },
	      {
	        "size": 3,
	        "name": "minecraft:cobblestone"
	      },
	      {
	        "size": 4,
	        "tag": "forge:dusts/glowstone"
	      }
	    ],
	    "input": {
	      "size": 4,
	      "tag": "forge:raw_materials/redstone"
	    },
	    "condition": {"type": "tag", "data": "forge:raw_materials/redstone"}
	  },
	  {
	    "support": 8,
	    "time": 200,
	    "output": [
	      {
	        "size": 24,
	        "tag": "forge:dusts/redstone"
	      },
	      {
	        "size": 3,
	        "name": "minecraft:cobblestone"
	      },
	      {
	        "size": 4,
	        "tag": "forge:dusts/glowstone"
	      }
	    ],
	    "input": {
	      "size": 4,
	      "tag": "forge:ores/redstone"
	    }
	  },
	  {
	    "support": 8,
	    "time": 200,
	    "output": [
	      {
	        "size": 12,
	        "tag": "forge:gems/diamond"
	      },
	      {
	        "size": 3,
	        "name": "minecraft:cobblestone"
	      },
	      {
	        "size": 6,
	        "tag": "forge:dusts/gold"
	      }
	    ],
	    "input": {
	      "size": 4,
	      "tag": "forge:ores/diamond"
	    }
	  },
	  {
	    "support": 8,
	    "time": 200,
	    "output": [
	      {
	        "size": 12,
	        "tag": "forge:gems/diamond"
	      },
	      {
	        "size": 3,
	        "name": "minecraft:cobblestone"
	      },
	      {
	        "size": 6,
	        "tag": "forge:dusts/gold"
	      }
	    ],
	    "input": {
	      "size": 4,
	      "tag": "forge:raw_materials/diamond"
	    },
	    "condition": {"type": "tag", "data": "forge:raw_materials/diamond"}
	  },
	  {
	    "support": 8,
	    "time": 200,
	    "output": [
	      {
	        "size": 12,
	        "tag": "forge:gems/emerald"
	      },
	      {
	        "size": 3,
	        "name": "minecraft:cobblestone"
	      },
	      {
	        "size": 1,
	        "tag": "forge:gems/diamond"
	      }
	    ],
	    "input": {
	      "size": 4,
	      "tag": "forge:ores/emerald"
	    }
	  },
	  {
	    "support": 8,
	    "time": 200,
	    "output": [
	      {
	        "size": 12,
	        "tag": "forge:gems/emerald"
	      },
	      {
	        "size": 3,
	        "name": "minecraft:cobblestone"
	      },
	      {
	        "size": 1,
	        "tag": "forge:gems/diamond"
	      }
	    ],
	    "input": {
	      "size": 4,
	      "tag": "forge:raw_materials/emerald"
	    },
	    "condition": {"type": "tag", "data": "forge:raw_materials/emerald"}
	  },
	  {
	    "support": 6,
	    "time": 200,
	    "output": [
	      {
	        "size": 52,
	        "tag": "forge:gems/lapis"
	      },
	      {
	        "size": 3,
	        "name": "minecraft:cobblestone"
	      },
	      {
	        "size": 2,
	        "tag": "forge:ingots/neodymium"
	      }
	    ],
	    "input": {
	      "size": 4,
	      "tag": "forge:ores/lapis"
	    }
	  },
	  {
	    "support": 6,
	    "time": 200,
	    "output": [
	      {
	        "size": 52,
	        "tag": "forge:gems/lapis"
	      },
	      {
	        "size": 3,
	        "name": "minecraft:cobblestone"
	      },
	      {
	        "size": 2,
	        "tag": "forge:ingots/neodymium"
	      }
	    ],
	    "input": {
	      "size": 4,
	      "tag": "forge:raw_materials/lapis"
	    },
	    "condition": {"type": "tag", "data": "forge:raw_materials/lapis"}
	  },
	  {
	    "support": 2,
	    "time": 200,
	    "output": [
	      {
	        "size": 16,
	        "tag": "forge:gems/quartz"
	      },
	      {
	        "size": 3,
	        "name": "minecraft:netherrack"
	      },
	      {
	        "size": 1,
	        "name": "minecraft:soul_sand"
	      }
	    ],
	    "input": {
	      "size": 4,
	      "tag": "forge:ores/quartz"
	    }
	  },
	  {
	    "support": 2,
	    "time": 200,
	    "output": [
	      {
	        "size": 16,
	        "tag": "forge:gems/quartz"
	      },
	      {
	        "size": 3,
	        "name": "minecraft:netherrack"
	      },
	      {
	        "size": 1,
	        "name": "minecraft:soul_sand"
	      }
	    ],
	    "input": {
	      "size": 4,
	      "tag": "forge:raw_materials/quartz"
	    },
	    "condition": {"type": "tag", "data": "forge:raw_materials/quartz"}
	  },
	  {
	    "support": 4,
	    "time": 200,
	    "output": [
	      {
	        "size": 10,
	        "tag": "forge:dusts/tin"
	      },
	      {
	        "size": 3,
	        "name": "minecraft:cobblestone"
	      },
	      {
	        "size": 2,
	        "tag": "forge:dusts/copper"
	      }
	    ],
	    "input": {
	      "size": 4,
	      "tag": "forge:ores/tin"
	    }
	  },
	  {
	    "support": 4,
	    "time": 200,
	    "output": [
	      {
	        "size": 10,
	        "tag": "forge:dusts/tin"
	      },
	      {
	        "size": 3,
	        "name": "minecraft:cobblestone"
	      },
	      {
	        "size": 2,
	        "tag": "forge:dusts/copper"
	      }
	    ],
	    "input": {
	      "size": 4,
	      "tag": "forge:raw_materials/tin"
	    },
	    "condition": {"type": "tag", "data": "forge:raw_materials/tin"}
	  },
	  {
	    "support": 4,
	    "time": 200,
	    "output": [
	      {
	        "size": 10,
	        "tag": "forge:dusts/copper"
	      },
	      {
	        "size": 3,
	        "name": "minecraft:cobblestone"
	      },
	      {
	        "size": 2,
	        "tag": "forge:dusts/tin"
	      }
	    ],
	    "input": {
	      "size": 4,
	      "tag": "forge:ores/copper"
	    }
	  },
	   {
	    "support": 4,
	    "time": 200,
	    "output": [
	      {
	        "size": 10,
	        "tag": "forge:dusts/copper"
	      },
	      {
	        "size": 3,
	        "name": "minecraft:cobblestone"
	      },
	      {
	        "size": 2,
	        "tag": "forge:dusts/tin"
	      }
	    ],
	    "input": {
	      "size": 4,
	      "tag": "forge:raw_materials/copper"
	    }
	  },
	  {
	    "support": 32,
	    "time": 400,
	    "output": [
	      {
	        "size": 10,
	        "tag": "forge:dusts/zinc"
	      },
	      {
	        "size": 3,
	        "name": "minecraft:cobblestone"
	      },
	      {
	        "size": 4,
	        "tag": "forge:dusts/sulfur"
	      }
	    ],
	    "input": {
	      "size": 4,
	      "tag": "forge:ores/zinc"
	    }
	  },
	  {
	    "support": 32,
	    "time": 400,
	    "output": [
	      {
	        "size": 10,
	        "tag": "forge:dusts/zinc"
	      },
	      {
	        "size": 3,
	        "name": "minecraft:cobblestone"
	      },
	      {
	        "size": 4,
	        "tag": "forge:dusts/sulfur"
	      }
	    ],
	    "input": {
	      "size": 4,
	      "tag": "forge:raw_materials/zinc"
	    },
	    "condition": {"type": "tag", "data": "forge:raw_materials/zinc"}
	  },
	  {
	    "support": 4,
	    "time": 200,
	    "output": [
	      {
	        "size": 20,
	        "tag": "forge:dusts/aluminum"
	      },
	      {
	        "size": 3,
	        "name": "minecraft:cobblestone"
	      },
	      {
	        "size": 4,
	        "tag": "forge:dusts/iron"
	      }
	    ],
	    "input": {
	      "size": 4,
	      "tag": "forge:ores/bauxite"
	    }
	  },
	  {
	    "support": 4,
	    "time": 200,
	    "output": [
	      {
	        "size": 20,
	        "tag": "forge:dusts/aluminum"
	      },
	      {
	        "size": 3,
	        "name": "minecraft:cobblestone"
	      },
	      {
	        "size": 4,
	        "tag": "forge:dusts/iron"
	      }
	    ],
	    "input": {
	      "size": 4,
	      "tag": "forge:raw_materials/bauxite"
	    },
	    "condition": {"type": "tag", "data": "forge:raw_materials/bauxite"}
	  },
	  {
	    "support": 8,
	    "time": 300,
	    "output": [
	      {
	        "size": 12,
	        "tag": "forge:dusts/magnetite"
	      },
	      {
	        "size": 3,
	        "name": "minecraft:cobblestone"
	      },
	      {
	        "size": 1,
	        "tag": "forge:ingots/neodymium"
	      }
	    ],
	    "input": {
	      "size": 4,
	      "tag": "forge:ores/magnetite"
	    }
	  },
	  {
	    "support": 8,
	    "time": 300,
	    "output": [
	      {
	        "size": 12,
	        "tag": "forge:dusts/magnetite"
	      },
	      {
	        "size": 3,
	        "name": "minecraft:cobblestone"
	      },
	      {
	        "size": 1,
	        "tag": "forge:ingots/neodymium"
	      }
	    ],
	    "input": {
	      "size": 4,
	      "tag": "forge:raw_materials/magnetite"
	    },
	    "condition": {"type": "tag", "data": "forge:raw_materials/magnetite"}
	  },
	  {
	    "support": 6,
	    "time": 200,
	    "output": [
	      {
	        "size": 10,
	        "tag": "forge:dusts/silver"
	      },
	      {
	        "size": 3,
	        "name": "minecraft:cobblestone"
	      },
	      {
	        "size": 3,
	        "tag": "forge:dusts/lead"
	      }
	    ],
	    "input": {
	      "size": 4,
	      "tag": "forge:ores/silver"
	    },
	    "condition": {"type": "tag", "data": "forge:ores/silver"}
	  },
	  {
	    "support": 6,
	    "time": 200,
	    "output": [
	      {
	        "size": 10,
	        "tag": "forge:dusts/silver"
	      },
	      {
	        "size": 3,
	        "name": "minecraft:cobblestone"
	      },
	      {
	        "size": 3,
	        "tag": "forge:dusts/lead"
	      }
	    ],
	    "input": {
	      "size": 4,
	      "tag": "forge:raw_materials/silver"
	    },
	    "condition": {"type": "tag", "data": "forge:raw_materials/silver"}
	  },
	  {
	    "support": 6,
	    "time": 200,
	    "output": [
	      {
	        "size": 10,
	        "tag": "forge:dusts/lead"
	      },
	      {
	        "size": 3,
	        "name": "minecraft:cobblestone"
	      },
	      {
	        "size": 3,
	        "tag": "forge:dusts/silver"
	      }
	    ],
	    "input": {
	      "size": 4,
	      "tag": "forge:ores/lead"
	    },
	    "condition": {"type": "tag", "data": "forge:ores/lead"}
	  },
	  {
	    "support": 6,
	    "time": 200,
	    "output": [
	      {
	        "size": 10,
	        "tag": "forge:dusts/lead"
	      },
	      {
	        "size": 3,
	        "name": "minecraft:cobblestone"
	      },
	      {
	        "size": 3,
	        "tag": "forge:dusts/silver"
	      }
	    ],
	    "input": {
	      "size": 4,
	      "tag": "forge:raw_materials/lead"
	    },
	    "condition": {"type": "tag", "data": "forge:raw_materials/lead"}
	  },
	  {
	    "support": 32,
	    "time": 800,
	    "output": [
	      {
	        "size": 4,
	        "tag": "forge:dusts/iridium"
	      },
	      {
	        "size": 1,
	        "name": "minecraft:cobblestone"
	      },
	      {
	        "size": 8,
	        "tag": "forge:ingots/rareearthmetal"
	      }
	    ],
	    "input": {
	      "size": 1,
	      "tag": "forge:ores/iridium"
	    },
	    "condition": {"type": "tag", "data": "forge:ores/iridium"}
	  },
	   {
	    "support": 32,
	    "time": 800,
	    "output": [
	      {
	        "size": 4,
	        "tag": "forge:dusts/iridium"
	      },
	      {
	        "size": 1,
	        "name": "minecraft:cobblestone"
	      },
	      {
	        "size": 8,
	        "tag": "forge:ingots/rareearthmetal"
	      }
	    ],
	    "input": {
	      "size": 1,
	      "tag": "forge:raw_materials/iridium"
	    },
	    "condition": {"type": "tag", "data": "forge:raw_materials/iridium"}
	  },
	  {
	    "support": 6,
	    "time": 200,
	    "output": [
	      {
	        "size": 10,
	        "tag": "forge:dusts/titanium"
	      },
	      {
	        "size": 3,
	        "name": "minecraft:cobblestone"
	      },
	      {
	        "size": 3,
	        "tag": "forge:dusts/iron"
	      }
	    ],
	    "input": {
	      "size": 4,
	      "tag": "forge:ores/titanium"
	    },
	    "condition": {"type": "tag", "data": "forge:ores/titanium"}
	  },
	  {
	    "support": 6,
	    "time": 200,
	    "output": [
	      {
	        "size": 10,
	        "tag": "forge:dusts/titanium"
	      },
	      {
	        "size": 3,
	        "name": "minecraft:cobblestone"
	      },
	      {
	        "size": 3,
	        "tag": "forge:dusts/iron"
	      }
	    ],
	    "input": {
	      "size": 4,
	      "tag": "forge:raw_materials/titanium"
	    },
	    "condition": {"type": "tag", "data": "forge:raw_materials/titanium"}
	  },
	  {
	    "support": 8,
	    "time": 300,
	    "output": [
	      {
	        "size": 12,
	        "tag": "forge:gems/ruby"
	      },
	      {
	        "size": 3,
	        "name": "minecraft:cobblestone"
	      },
	      {
	        "size": 3,
	        "tag": "forge:gems/sapphire"
	      }
	    ],
	    "input": {
	      "size": 4,
	      "tag": "forge:ores/ruby"
	    },
	    "condition": {"type": "tag", "data": "forge:ores/ruby"}
	  },
	   {
	    "support": 8,
	    "time": 300,
	    "output": [
	      {
	        "size": 12,
	        "tag": "forge:gems/ruby"
	      },
	      {
	        "size": 3,
	        "name": "minecraft:cobblestone"
	      },
	      {
	        "size": 3,
	        "tag": "forge:gems/sapphire"
	      }
	    ],
	    "input": {
	      "size": 4,
	      "tag": "forge:raw_materials/ruby"
	    },
	    "condition": {"type": "tag", "data": "forge:raw_materials/ruby"}
	  },
	  {
	    "support": 8,
	    "time": 300,
	    "output": [
	      {
	        "size": 12,
	        "tag": "forge:gems/amethyst"
	      },
	      {
	        "size": 3,
	        "name": "minecraft:cobblestone"
	      },
	      {
	        "size": 1,
	        "tag": "forge:gems/ruby"
	      }
	    ],
	    "input": {
	      "size": 4,
	      "tag": "forge:ores/amethyst"
	    },
	    "condition": {"type": "tag", "data": "forge:ores/amethyst"}
	  },
	  {
	    "support": 8,
	    "time": 300,
	    "output": [
	      {
	        "size": 12,
	        "tag": "forge:gems/amethyst"
	      },
	      {
	        "size": 3,
	        "name": "minecraft:cobblestone"
	      },
	      {
	        "size": 1,
	        "tag": "forge:gems/ruby"
	      }
	    ],
	    "input": {
	      "size": 4,
	      "tag": "forge:raw_materials/amethyst"
	    },
	    "condition": {"type": "tag", "data": "forge:raw_materials/amethyst"}
	  },
	  {
	    "support": 6,
	    "time": 200,
	    "output": [
	      {
	        "size": 12,
	        "tag": "forge:dusts/pyrite"
	      },
	      {
	        "size": 3,
	        "name": "minecraft:cobblestone"
	      },
	      {
	        "size": 6,
	        "tag": "forge:dusts/sulphur"
	      }
	    ],
	    "input": {
	      "size": 4,
	      "tag": "forge:ores/pyrite"
	    },
	    "condition": {"type": "tag", "data": "forge:ores/pyrite"}
	  },
	  {
	    "support": 6,
	    "time": 200,
	    "output": [
	      {
	        "size": 12,
	        "tag": "forge:dusts/pyrite"
	      },
	      {
	        "size": 3,
	        "name": "minecraft:cobblestone"
	      },
	      {
	        "size": 6,
	        "tag": "forge:dusts/sulphur"
	      }
	    ],
	    "input": {
	      "size": 4,
	      "tag": "forge:raw_materials/pyrite"
	    },
	    "condition": {"type": "tag", "data": "forge:raw_materials/pyrite"}
	  },
	  {
	    "support": 6,
	    "time": 300,
	    "output": [
	      {
	        "size": 10,
	        "tag": "forge:ingots/cinnabar"
	      },
	      {
	        "size": 3,
	        "name": "minecraft:cobblestone"
	      },
	      {
	        "size": 10,
	        "tag": "forge:gems/cinnabar"
	      }
	    ],
	    "input": {
	      "size": 4,
	      "tag": "forge:ores/cinnabar"
	    },
	    "condition": {"type": "tag", "data": "forge:ores/cinnabar"}
	  },
	  {
	    "support": 6,
	    "time": 300,
	    "output": [
	      {
	        "size": 10,
	        "tag": "forge:ingots/cinnabar"
	      },
	      {
	        "size": 3,
	        "name": "minecraft:cobblestone"
	      },
	      {
	        "size": 10,
	        "tag": "forge:gems/cinnabar"
	      }
	    ],
	    "input": {
	      "size": 4,
	      "tag": "forge:raw_materials/cinnabar"
	    },
	    "condition": {"type": "tag", "data": "forge:raw_materials/cinnabar"}
	  },
	  {
	    "support": 6,
	    "time": 200,
	    "output": [
	      {
	        "size": 24,
	        "tag": "forge:dusts/sulphur"
	      },
	      {
	        "size": 3,
	        "name": "minecraft:cobblestone"
	      },
	      {
	        "size": 3,
	        "tag": "forge:dusts/iron"
	      }
	    ],
	    "input": {
	      "size": 4,
	      "tag": "forge:ores/sulphur"
	    },
	    "condition": {"type": "tag", "data": "forge:ores/sulphur"}
	  },
	  {
	    "support": 6,
	    "time": 200,
	    "output": [
	      {
	        "size": 24,
	        "tag": "forge:dusts/sulphur"
	      },
	      {
	        "size": 3,
	        "name": "minecraft:cobblestone"
	      },
	      {
	        "size": 3,
	        "tag": "forge:dusts/iron"
	      }
	    ],
	    "input": {
	      "size": 4,
	      "tag": "forge:raw_materials/sulphur"
	    },
	    "condition": {"type": "tag", "data": "forge:raw_materials/sulphur"}
	  },
	  {
	    "support": 6,
	    "time": 200,
	    "output": [
	      {
	        "size": 24,
	        "tag": "forge:dusts/sulfur"
	      },
	      {
	        "size": 3,
	        "name": "minecraft:cobblestone"
	      },
	      {
	        "size": 3,
	        "tag": "forge:dusts/iron"
	      }
	    ],
	    "input": {
	      "size": 4,
	      "tag": "forge:ores/sulfur"
	    },
	    "condition": {"type": "tag", "data": "forge:ores/sulfur"}
	  },
	   {
	    "support": 6,
	    "time": 200,
	    "output": [
	      {
	        "size": 24,
	        "tag": "forge:dusts/sulfur"
	      },
	      {
	        "size": 3,
	        "name": "minecraft:cobblestone"
	      },
	      {
	        "size": 3,
	        "tag": "forge:dusts/iron"
	      }
	    ],
	    "input": {
	      "size": 4,
	      "tag": "forge:raw_materials/sulfur"
	    },
	    "condition": {"type": "tag", "data": "forge:raw_materials/sulfur"}
	  },
	  {
	    "support": 6,
	    "time": 200,
	    "output": [
	      {
	        "size": 10,
	        "tag": "forge:dusts/unobtainium"
	      },
	      {
	        "size": 3,
	        "name": "minecraft:cobblestone"
	      },
	      {
	        "size": 3,
	        "tag": "forge:gems/diamond"
	      }
	    ],
	    "input": {
	      "size": 4,
	      "tag": "forge:ores/unobtainium"
	    },
	    "condition": {"type": "tag", "data": "forge:ores/unobtanium"}
	  },
	  {
	    "support": 6,
	    "time": 200,
	    "output": [
	      {
	        "size": 10,
	        "tag": "forge:dusts/unobtainium"
	      },
	      {
	        "size": 3,
	        "name": "minecraft:cobblestone"
	      },
	      {
	        "size": 3,
	        "tag": "forge:gems/diamond"
	      }
	    ],
	    "input": {
	      "size": 4,
	      "tag": "forge:raw_materials/unobtainium"
	    },
	    "condition": {"type": "tag", "data": "forge:raw_materials/unobtanium"}
	  },
	  {
	    "support": 6,
	    "time": 200,
	    "output": [
	      {
	        "size": 10,
	        "tag": "forge:dusts/tungsten"
	      },
	      {
	        "size": 3,
	        "name": "minecraft:cobblestone"
	      },
	      {
	        "size": 3,
	        "tag": "forge:dusts/titanium"
	      }
	    ],
	    "input": {
	      "size": 4,
	      "tag": "forge:ores/tungsten"
	    },
	    "condition": {"type": "tag", "data": "forge:ores/tungsten"}
	  },
	   {
	    "support": 6,
	    "time": 200,
	    "output": [
	      {
	        "size": 10,
	        "tag": "forge:dusts/tungsten"
	      },
	      {
	        "size": 3,
	        "name": "minecraft:cobblestone"
	      },
	      {
	        "size": 3,
	        "tag": "forge:dusts/titanium"
	      }
	    ],
	    "input": {
	      "size": 4,
	      "tag": "forge:raw_materials/tungsten"
	    },
	    "condition": {"type": "tag", "data": "forge:raw_materials/tungsten"}
	  },
	  {
	    "support": 6,
	    "time": 200,
	    "output": [
	      {
	        "size": 10,
	        "tag": "forge:dusts/platinum"
	      },
	      {
	        "size": 3,
	        "name": "minecraft:cobblestone"
	      },
	      {
	        "size": 5,
	        "tag": "forge:dusts/gold"
	      }
	    ],
	    "input": {
	      "size": 4,
	      "tag": "forge:ores/platinum"
	    },
	    "condition": {"type": "tag", "data": "forge:ores/platinum"}
	  },
	  {
	    "support": 6,
	    "time": 200,
	    "output": [
	      {
	        "size": 10,
	        "tag": "forge:dusts/platinum"
	      },
	      {
	        "size": 3,
	        "name": "minecraft:cobblestone"
	      },
	      {
	        "size": 5,
	        "tag": "forge:dusts/gold"
	      }
	    ],
	    "input": {
	      "size": 4,
	      "tag": "forge:raw_materials/platinum"
	    },
	    "condition": {"type": "tag", "data": "forge:raw_materials/platinum"}
	  },
	  {
	    "support": 6,
	    "time": 200,
	    "output": [
	      {
	        "size": 10,
	        "tag": "forge:dusts/adrite"
	      },
	      {
	        "size": 3,
	        "name": "minecraft:cobblestone"
	      },
	      {
	        "size": 3,
	        "tag": "forge:dusts/cobalt"
	      }
	    ],
	    "input": {
	      "size": 4,
	      "tag": "forge:ores/adrite"
	    },
	    "condition": {"type": "tag", "data": "forge:ores/adrite"}
	  },
	  {
	    "support": 6,
	    "time": 200,
	    "output": [
	      {
	        "size": 10,
	        "tag": "forge:dusts/adrite"
	      },
	      {
	        "size": 3,
	        "name": "minecraft:cobblestone"
	      },
	      {
	        "size": 3,
	        "tag": "forge:dusts/cobalt"
	      }
	    ],
	    "input": {
	      "size": 4,
	      "tag": "forge:raw_materials/adrite"
	    },
	    "condition": {"type": "tag", "data": "forge:raw_materials/adrite"}
	  },
	  {
	    "support": 6,
	    "time": 200,
	    "output": [
	      {
	        "size": 10,
	        "tag": "forge:dusts/cobalt"
	      },
	      {
	        "size": 3,
	        "name": "minecraft:cobblestone"
	      },
	      {
	        "size": 2,
	        "tag": "forge:gems/lapis"
	      }
	    ],
	    "input": {
	      "size": 4,
	      "tag": "forge:ores/cobalt"
	    },
	    "condition": {"type": "tag", "data": "forge:ores/cobalt"}
	  },
	  {
	    "support": 6,
	    "time": 200,
	    "output": [
	      {
	        "size": 10,
	        "tag": "forge:dusts/cobalt"
	      },
	      {
	        "size": 3,
	        "name": "minecraft:cobblestone"
	      },
	      {
	        "size": 2,
	        "tag": "forge:gems/lapis"
	      }
	    ],
	    "input": {
	      "size": 4,
	      "tag": "forge:raw_materials/cobalt"
	    },
	    "condition": {"type": "tag", "data": "forge:raw_materials/cobalt"}
	  },
	  {
	    "support": 6,
	    "time": 200,
	    "output": [
	      {
	        "size": 10,
	        "tag": "forge:dusts/naquadah"
	      },
	      {
	        "size": 3,
	        "name": "minecraft:cobblestone"
	      },
	      {
	        "size": 3,
	        "tag": "forge:dusts/naquadria"
	      }
	    ],
	    "input": {
	      "size": 4,
	      "tag": "forge:ores/naquadah"
	    },
	    "condition": {"type": "tag", "data": "forge:ores/naquadah"}
	  },
	  {
	    "support": 6,
	    "time": 200,
	    "output": [
	      {
	        "size": 10,
	        "tag": "forge:dusts/naquadah"
	      },
	      {
	        "size": 3,
	        "name": "minecraft:cobblestone"
	      },
	      {
	        "size": 3,
	        "tag": "forge:dusts/naquadria"
	      }
	    ],
	    "input": {
	      "size": 4,
	      "tag": "forge:raw_materials/naquadah"
	    },
	    "condition": {"type": "tag", "data": "forge:raw_materials/naqadah"}
	  },
	  {
	    "support": 6,
	    "time": 200,
	    "output": [
	      {
	        "size": 10,
	        "tag": "forge:dusts/salt"
	      },
	      {
	        "size": 3,
	        "name": "minecraft:cobblestone"
	      },
	      {
	        "size": 3,
	        "name": "minecraft:clay_ball"
	      }
	    ],
	    "input": {
	      "size": 4,
	      "tag": "forge:ores/salt"
	    },
	    "condition": {"type": "tag", "data": "forge:ores/salt"}
	  },
	  {
	    "support": 6,
	    "time": 200,
	    "output": [
	      {
	        "size": 10,
	        "tag": "forge:dusts/salt"
	      },
	      {
	        "size": 3,
	        "name": "minecraft:cobblestone"
	      },
	      {
	        "size": 3,
	        "name": "minecraft:clay_ball"
	      }
	    ],
	    "input": {
	      "size": 4,
	      "tag": "forge:raw_materials/salt"
	    },
	    "condition": {"type": "tag", "data": "forge:raw_materials/salt"}
	  },
	  {
	    "support": 6,
	    "time": 200,
	    "output": [
	      {
	        "size": 10,
	        "tag": "forge:dusts/nickel"
	      },
	      {
	        "size": 3,
	        "name": "minecraft:cobblestone"
	      },
	      {
	        "size": 5,
	        "tag": "forge:dusts/iron"
	      }
	    ],
	    "input": {
	      "size": 4,
	      "tag": "forge:ores/nickel"
	    },
	    "condition": {"type": "tag", "data": "forge:ores/nickel"}
	  },
	  {
	    "support": 6,
	    "time": 200,
	    "output": [
	      {
	        "size": 10,
	        "tag": "forge:dusts/nickel"
	      },
	      {
	        "size": 3,
	        "name": "minecraft:cobblestone"
	      },
	      {
	        "size": 5,
	        "tag": "forge:dusts/iron"
	      }
	    ],
	    "input": {
	      "size": 4,
	      "tag": "forge:raw_materials/nickel"
	    },
	    "condition": {"type": "tag", "data": "forge:raw_materials/nickel"}
	  },
	  {
	    "support": 6,
	    "time": 200,
	    "output": [
	      {
	        "size": 10,
	        "tag": "forge:dusts/molybdenum"
	      },
	      {
	        "size": 3,
	        "name": "minecraft:cobblestone"
	      },
	      {
	        "size": 3,
	        "tag": "forge:dusts/gadolinium"
	      }
	    ],
	    "input": {
	      "size": 4,
	      "tag": "forge:ores/molybdenum"
	    },
	    "condition": {"type": "tag", "data": "forge:ores/molybdenum"}
	  },
	  {
	    "support": 6,
	    "time": 200,
	    "output": [
	      {
	        "size": 10,
	        "tag": "forge:dusts/molybdenum"
	      },
	      {
	        "size": 3,
	        "name": "minecraft:cobblestone"
	      },
	      {
	        "size": 3,
	        "tag": "forge:dusts/gadolinium"
	      }
	    ],
	    "input": {
	      "size": 4,
	      "tag": "forge:raw_materials/molybdenum"
	    },
	    "condition": {"type": "tag", "data": "forge:raw_materials/molybdenum"}
	  },
	  {
	    "support": 6,
	    "time": 200,
	    "output": [
	      {
	        "size": 10,
	        "tag": "forge:dusts/wulfenit"
	      },
	      {
	        "size": 3,
	        "name": "minecraft:cobblestone"
	      },
	      {
	        "size": 3,
	        "tag": "forge:dusts/gadolinium"
	      }
	    ],
	    "input": {
	      "size": 4,
	      "tag": "forge:ores/wulfenit"
	    },
	    "condition": {"type": "tag", "data": "forge:ores/wulfenit"}
	  },
	  {
	    "support": 6,
	    "time": 200,
	    "output": [
	      {
	        "size": 10,
	        "tag": "forge:dusts/wulfenit"
	      },
	      {
	        "size": 3,
	        "name": "minecraft:cobblestone"
	      },
	      {
	        "size": 3,
	        "tag": "forge:dusts/gadolinium"
	      }
	    ],
	    "input": {
	      "size": 4,
	      "tag": "forge:raw_materials/wulfenit"
	    },
	    "condition": {"type": "tag", "data": "forge:raw_materials/wulfenit"}
	  },
	  {
	    "support": 6,
	    "time": 200,
	    "output": [
	      {
	        "size": 64,
	        "tag": "forge:gems/apatite"
	      },
	      {
	        "size": 3,
	        "name": "minecraft:cobblestone"
	      },
	      {
	        "size": 8,
	        "tag": "forge:dusts/sulphur"
	      }
	    ],
	    "input": {
	      "size": 4,
	      "tag": "forge:ores/apatite"
	    },
	    "condition": {"type": "tag", "data": "forge:ores/apatite"}
	  },
	  {
	    "support": 6,
	    "time": 200,
	    "output": [
	      {
	        "size": 64,
	        "tag": "forge:gems/apatite"
	      },
	      {
	        "size": 3,
	        "name": "minecraft:cobblestone"
	      },
	      {
	        "size": 8,
	        "tag": "forge:dusts/sulphur"
	      }
	    ],
	    "input": {
	      "size": 4,
	      "tag": "forge:raw_materials/apatite"
	    },
	    "condition": {"type": "tag", "data": "forge:raw_materials/apatite"}
	  },
	  {
	    "support": 6,
	    "time": 200,
	    "output": [
	      {
	        "size": 10,
	        "tag": "forge:dusts/beryllium"
	      },
	      {
	        "size": 3,
	        "name": "minecraft:cobblestone"
	      },
	      {
	        "size": 2,
	        "tag": "forge:gems/emerald"
	      }
	    ],
	    "input": {
	      "size": 4,
	      "tag": "forge:ores/beryllium"
	    },
	    "condition": {"type": "tag", "data": "forge:ores/beryllium"}
	  },
	  {
	    "support": 6,
	    "time": 200,
	    "output": [
	      {
	        "size": 10,
	        "tag": "forge:dusts/beryllium"
	      },
	      {
	        "size": 3,
	        "name": "minecraft:cobblestone"
	      },
	      {
	        "size": 2,
	        "tag": "forge:gems/emerald"
	      }
	    ],
	    "input": {
	      "size": 4,
	      "tag": "forge:raw_materials/beryllium"
	    },
	    "condition": {"type": "tag", "data": "forge:raw_materials/beryllium"}
	  },
	  {
	    "support": 8,
	    "time": 300,
	    "output": [
	      {
	        "size": 18,
	        "tag": "forge:gems/olivine "
	      },
	      {
	        "size": 3,
	        "name": "minecraft:cobblestone"
	      },
	      {
	        "size": 2,
	        "tag": "forge:gems/emerald"
	      }
	    ],
	    "input": {
	      "size": 4,
	      "tag": "forge:ores/olivine"
	    },
	    "condition": {"type": "tag", "data": "forge:ores/olivine"}
	  },
	  {
	    "support": 8,
	    "time": 300,
	    "output": [
	      {
	        "size": 18,
	        "tag": "forge:gems/olivine "
	      },
	      {
	        "size": 3,
	        "name": "minecraft:cobblestone"
	      },
	      {
	        "size": 2,
	        "tag": "forge:gems/emerald"
	      }
	    ],
	    "input": {
	      "size": 4,
	      "tag": "forge:raw_materials/olivine"
	    },
	    "condition": {"type": "tag", "data": "forge:raw_materials/olivine"}
	  },
	  {
	    "support": 6,
	    "time": 200,
	    "output": [
	      {
	        "size": 10,
	        "tag": "forge:dusts/manganese"
	      },
	      {
	        "size": 3,
	        "name": "minecraft:cobblestone"
	      },
	      {
	        "size": 3,
	        "tag": "forge:dusts/gadolinium"
	      }
	    ],
	    "input": {
	      "size": 4,
	      "tag": "forge:ores/manganese"
	    },
	    "condition": {"type": "tag", "data": "forge:ores/manganese"}
	  },
	  {
	    "support": 6,
	    "time": 200,
	    "output": [
	      {
	        "size": 10,
	        "tag": "forge:dusts/manganese"
	      },
	      {
	        "size": 3,
	        "name": "minecraft:cobblestone"
	      },
	      {
	        "size": 3,
	        "tag": "forge:dusts/gadolinium"
	      }
	    ],
	    "input": {
	      "size": 4,
	      "tag": "forge:raw_materials/manganese"
	    },
	    "condition": {"type": "tag", "data": "forge:raw_materials/manganese"}
	  },
	  {
	    "support": 6,
	    "time": 200,
	    "output": [
	      {
	        "size": 10,
	        "tag": "forge:dusts/magnesium"
	      },
	      {
	        "size": 3,
	        "name": "minecraft:cobblestone"
	      },
	      {
	        "size": 3,
	        "tag": "forge:dusts/aluminum"
	      }
	    ],
	    "input": {
	      "size": 4,
	      "tag": "forge:ores/magnesium"
	    },
	    "condition": "futurepack:ores/magnesium"
	  },
	  {
	    "support": 6,
	    "time": 200,
	    "output": [
	      {
	        "size": 10,
	        "tag": "forge:dusts/magnesium"
	      },
	      {
	        "size": 3,
	        "name": "minecraft:cobblestone"
	      },
	      {
	        "size": 3,
	        "tag": "forge:dusts/aluminum"
	      }
	    ],
	    "input": {
	      "size": 4,
	      "tag": "forge:raw_materials/magnesium"
	    },
	    "condition": "futurepack:raw_materials/magnesium"
	  },
	  {
	    "support": 6,
	    "time": 200,
	    "output": [
	      {
	        "size": 10,
	        "tag": "forge:dusts/devilsiron"
	      },
	      {
	        "size": 3,
	        "name": "minecraft:netherrack"
	      },
	      {
	        "size": 6,
	        "tag": "forge:dusts/sulfur"
	      }
	    ],
	    "input": {
	      "size": 4,
	      "tag": "forge:ores/devilsiron"
	    },
	    "condition": { "type": "tag", "data": "forge:ores/devilsiron" }
	  },
	  {
	    "support": 6,
	    "time": 200,
	    "output": [
	      {
	        "size": 10,
	        "tag": "forge:dusts/devilsiron"
	      },
	      {
	        "size": 3,
	        "name": "minecraft:netherrack"
	      },
	      {
	        "size": 6,
	        "tag": "forge:dusts/sulfur"
	      }
	    ],
	    "input": {
	      "size": 4,
	      "tag": "forge:raw_materials/devilsiron"
	    },
	    "condition": { "type": "tag", "data": "forge:raw_materials/devilsiron" }
	  }
	]
}