{
  "display": {
    "icon": {
      "item": "futurepack:gravel_m"
    },
    "title": {
      "translate": "advancements.futurepack.metalhaltig.title"
    },
    "description": {
      "translate": "advancements.futurepack.metalhaltig.description"
    }
  },
  "parent": "futurepack:menelaus",
  "criteria": {
    "gravel": {
      "trigger": "minecraft:inventory_changed",
      "conditions": {
        "items": [
          {
            "items": [ "futurepack:gravel_m" ]
          }
        ]
      }
    },
    "dirt": {
      "trigger": "minecraft:inventory_changed",
      "conditions": {
        "items": [
          {
            "items": [ "futurepack:dirt_m" ]
          }
        ]
      }
    }
  },
  "requirements": [
    [
      "gravel",
      "dirt"
    ]
  ]
}