{
  "display": {
    "icon": {
      "item": "futurepack:fish_block"
    },
    "title": {
      "translate": "advancements.futurepack.sushi.title"
    },
    "description": {
      "translate": "advancements.futurepack.sushi.description"
    }
  },
  "parent": "futurepack:root",
  "criteria": {
    "fishblock": {
      "trigger": "minecraft:inventory_changed",
      "conditions": {
        "items": [
          {
            "items": [ "futurepack:fish_block" ]
          }
        ]
      }
    }
  },
  "requirements": [
  	["fishblock"]
  ]
}