{
    "pools": 
    [
        {
            "name":"default",
            "rolls": 1,
            "entries": 
            [
                {
                    "type": "loot_table",
                    "name": "futurepack:chests/loots/science_things",
                    "weight": 100
                }
            ]
        },
		{
            "name":"default",
            "rolls": 1,
            "entries": 
            [
                {
                    "type": "loot_table",
                    "name": "futurepack:chests/loots/rare_things",
                    "weight": 100
                }
            ]
        },
		{
            "name":"fragments",
            "rolls": 1,
            "entries": 
            [
                {
                    "type": "loot_table",
                    "name": "futurepack:chests/loots/electronic_fragments",
                    "weight": 100
                }        
            ]
        }
    ]
}