{
  "type": "futurepack:research_shaped",
  "group": "futurepack",
  "pattern": [
    "MMP",
    "IB "
  ],
  "key": {
    "M": {
      "item": "futurepack:composite_metal"
    },
    "I": {
      "tag": "forge:rods/iron"
    },
    "B": {
      "item": "minecraft:stone_button"
    },
    "P": {
      "item": "futurepack:parts_iron"
    }
  },
  "result": {
    "item": "futurepack:airbrush"
  }
}