{
  "type": "futurepack:airbrush",
  "group": "futurepack",
  "ingredients": [
    {
      "item": "futurepack:airbrush"
    },
    [ {
      "tag": "futurepack:uncolor"
    },
    {
      "tag": "futurepack:lack_tanks"
    }
    ]
  ],
  "result": {
    "item": "futurepack:airbrush"
  }
}