{
  "type": "futurepack:research_shaped",
  "group": "futurepack",
  "pattern": [
    " C ",
    "SWS",
    " C "
  ],
  "key": {
    "C": {
      "item": "minecraft:kelp"
    },
    "W": {
      "item": "minecraft:water_bucket"
    },
    "S": {
      "item": "minecraft:sugar"
    }
  },
  "result": {
    "item": "futurepack:chemicals_b",
    "count": 8
  }
}