{
  "type": "futurepack:research_shaped",
  "group": "futurepack",
  "pattern": [
	"CPC"
  ],
  "key": {
    "C": {
      "tag": "forge:ingots/iron"
    },
    "P": {
      "item": "futurepack:coil_core"
    }
  },
  "result": {
    "item": "futurepack:coil_iron",
    "count": 1
  }
}