{
  "type": "futurepack:research_shaped",
  "group": "futurepack",
  "pattern": [
    "PPP",
    "PPP"
  ],
  "key": {
    "P": {
      "item": "futurepack:color_gitter_green"
    }
  },
  "result": {
    "item": "futurepack:color_gitter_pane_green",
    "count": 6
  }
}