{
  "type": "futurepack:research_shaped",
  "group": "futurepack",
  "pattern": [
    " T ",
    "ZWZ",
    "ZOZ"
  ],
  "key": {
    "T": {
      "item": "futurepack:parts_copper"
    },
    "Z": {
      "item": "futurepack:energy_cell"
    },
    "O": {
      "tag": "forge:dusts/obsidian"
    },
    "W": {
      "item": "futurepack:wire_normal"
    }
  },
  "result": {
    "item": "futurepack:compact_energy_cell",
    "nbt": {
      "neon": {
        "maxNE": 40000,
        "ne": 0
      }
    }
  }
}