{
  "type": "minecraft:crafting_shaped",
  "group": "futurepack",
  "pattern": [
    "E"
  ],
  "key": {
    "E": {
      "item": "futurepack:block_crystal_bioterium"
    }
  },
  "result": {
    "item": "futurepack:crystal_bioterium",
    "count": 9
  }
}