{
  "type": "futurepack:maschin_shaped",
  "group": "futurepack",
  "pattern": [
    "QEQ",
    "SMS",
    "CTC"
  ],
  "key": {
    "Q": {
      "tag": "forge:ingots/quantanium"
    },
    "S": {
      "item": "futurepack:coil_quantanium"
    },
    "C": {
      "item": "futurepack:composite_metal"
    },
    "M": {
      "item": "futurepack:maschineboard"
    },
    "T": {
      "item": "futurepack:timemanipulator"
    },
    "E": {
      "item": "futurepack:extern_cooler"
    }
  },
  "result": {
    "item": "futurepack:external_core"
  }
}