{
  "type": "futurepack:research_shaped",
  "group": "futurepack",
  "pattern": [
    "SCS",
    "LFL",
    "SAS"
  ],
  "key": {
    "S": {
      "item": "futurepack:aiflash2"
    },
    "C": {
      "tag": "forge:chests/wooden"
    },
    "L": {
      "item": "futurepack:chip_support"
    },
    "F": {
      "item": "futurepack:color_iron_black"
    },
    "A": {
      "item": "futurepack:wire_support"
    }
  },
  "result": {
    "item": "futurepack:flash_server_black"
  }
}