{
  "type": "futurepack:research_shaped",
  "group": "futurepack",
  "pattern": [
    "IGI",
    "G G",
    "IGI"
  ],
  "key": {
    "I": {
      "item": "futurepack:ceramic"
    },
    "G": {
      "item": "futurepack:quartz_glass"
    }
  },
  "result": {
    "count": 1,
    "item": "futurepack:fluid_tank_mk3"
  }
}