{
  "type": "futurepack:maschin_shaped",
  "group": "futurepack",
  "pattern": [
    "SGS",
    "TFT",
    "IMI"
  ],
  "key": {
    "S": {
      "item": "futurepack:coil_iron"
    },
    "T": {
      "item": "futurepack:fluid_tube"
    },
	"G": {
      "item": "minecraft:iron_bars"
    },
    "I": {
      "item": "futurepack:composite_metal"
    },
    "M": {
      "item": "futurepack:maschineboard"
    },
    "F": {
      "item": "futurepack:color_iron_white"
    }
  },
  "result": {
    "item": "futurepack:gas_turbine_white"
  }
}