{
  "type": "futurepack:research_shaped",
  "group": "futurepack",
  "pattern": [
    "SSS",
    "CBC",
    "I I"
  ],
  "key": {
    "S": {
      "item": "futurepack:ingot_silicon"
    },
    "C": {
      "tag": "forge:ingots/neon"
    },
    "I": {
      "item": "futurepack:composite_metal"
    },
    "B": {
      "tag": "forge:slimeballs"
    }
  },
  "result": {
    "item": "futurepack:modul_solar_helmet"
  }
}