{
  "type": "futurepack:research_shaped",
  "group": "futurepack",
  "pattern": [
    " S ",
    "TGR",
    " S "
  ],
  "key": {
    "S": [
      {
        "item": "futurepack:monorail"
      }
    ],
    "T": [
      {
        "item": "futurepack:chip_transport"
      }
    ],
    "R": [
      {
        "tag": "forge:dusts/redstone"
      }
    ],
    "G": [
      {
        "tag": "forge:ingots/gold"
      }
    ]
  },
  "result": {
    "item": "futurepack:monorail_oneway"
  }
}