{
  "type": "futurepack:research_shaped",
  "group": "futurepack",
  "pattern": [
    " C ",
    "RPR",
    " C "
  ],
  "key": {
    "C": {
      "item": "futurepack:monorail"
    },
    "R": {
      "tag": "forge:dusts/redstone"
    },
    "P": {
      "tag": "forge:ingots/gold"
    }
  },
  "result": {
    "item": "futurepack:monorail_booster"
  }
}