{
  "type": "futurepack:research_shaped",
  "group": "futurepack",
  "pattern": [
    " C ",
    "RPR",
    " C "
  ],
  "key": {
    "C": {
      "item": "futurepack:monorail"
    },
    "R": {
      "tag": "forge:dusts/redstone"
    },
    "P": {
      "item": "minecraft:heavy_weighted_pressure_plate"
    }
  },
  "result": {
    "item": "futurepack:monorail_detector"
  }
}