{
  "type": "minecraft:crafting_shaped",
  "group": "futurepack",
  "pattern": [
    "AAA"
  ],
  "key": {
    "A": {
      "item": "futurepack:huge_mycel"
    }
  },
  "result": {
    "item": "minecraft:paper",
    "count": 3
  }
}