{
  "type": "futurepack:research_shaped",
  "group": "futurepack",
  "pattern": [
    "SMS",
    "SMS"
  ],
  "key": {
    "M": {
      "item": "futurepack:planks_mushroom"
    },
    "S": {
    	"tag": "forge:rods/wooden"
    }
  },
  "result": {
    "item": "futurepack:planks_mushroom_gate",
    "count": 1
  }
}