{
  "type": "futurepack:research_shaped",
  "group": "futurepack",
  "pattern": [
    "  M",
    " MM",
    "MMM"
  ],
  "key": {
    "M": {
      "item": "futurepack:planks_mushroom"
    }
  },
  "result": {
    "item": "futurepack:planks_mushroom_stair",
    "count": 4
  }
}