{
  "type": "futurepack:research_shaped",
  "group": "futurepack",
  "pattern": [
    "W"
  ],
  "key": {
    "W": {
      "item": "futurepack:wire_network"
    }
  },
  "result": {
    "item": "futurepack:space_link"
  }
}