{
  "type": "futurepack:research_shaped",
  "group": "futurepack",
  "pattern": [
    " R ",
    " R ",
    " H "
  ],
  "key": {
    "R": {
      "tag": "forge:ingots/retium"
    },
    "H": {
      "item": "futurepack:sword_handle"
    }
  },
  "result": {
    "item": "futurepack:sword_retium"
  }
}