{
  "type": "futurepack:research_shaped",
  "group": "futurepack",
  "pattern": [
    " B ",
    " B ",
    " H "
  ],
  "key": {
    "B": {
      "tag": "forge:ingots/bioterium"
    },
    "H": {
      "item": "futurepack:sword_handle"
    }
  },
  "result": {
    "item": "futurepack:sword_bioterium"
  }
}