{
  "type": "minecraft:crafting_shaped",
  "group": "wooden_trapdoor",
  "pattern": [
    "###",
    "###"
  ],
  "key": {
    "#": {
      "item": "futurepack:planks_palirie"
    }
  },
  "result": {
    "item": "futurepack:trapdoor_palirie",
    "count": 2
  }
}