{
  "type": "futurepack:research_shaped",
  "group": "futurepack",
  "pattern": [
    "PAP",
    "NRN",
    "PAP"
  ],
  "key": {
    "P": {
      "item": "futurepack:laserdiode"
    },
    "A": {
      "tag": "forge:ingots/aluminum"
    },
    "N": {
      "item": "futurepack:coil_neon"
    },
    "R": {
      "item": "futurepack:chip_tactic"
    }
  },
  "result": {
    "item": "futurepack:upgrade_range",
    "count": 16
  }
}