{
  "type": "futurepack:maschin_shaped",
  "group": "futurepack",
  "pattern": [
    "TST",
    "CFC",
    "GMG"
  ],
  "key": {
    "C": {
      "item": "futurepack:coil_gold"
    },
    "S": {
      "tag": "forge:ingots/magnetite"
    },
    "T": {
      "item": "futurepack:lack_tank_empty"
    },
    "F": {
      "item": "futurepack:color_iron_white"
    },
    "G": {
      "item": "futurepack:metal_gitter_pane"
    },
    "M": {
      "item": "futurepack:maschineboard"
    }
  },
  "result": {
    "item": "futurepack:zentrifuge_white"
  }
}