{
  "replace": false,
  "values": [
    "futurepack:thruster_white_light_blue",
    "futurepack:thruster_white_yellow",
    "futurepack:thruster_white_lime",
    "futurepack:thruster_white_orange",
    "futurepack:thruster_white_purple",
    
    "futurepack:thruster_light_gray_light_blue",
    "futurepack:thruster_light_gray_yellow",
    "futurepack:thruster_light_gray_lime",
    "futurepack:thruster_light_gray_orange",
    "futurepack:thruster_light_gray_purple",
    
    "futurepack:thruster_black_light_blue",
    "futurepack:thruster_black_yellow",
    "futurepack:thruster_black_lime",
    "futurepack:thruster_black_orange",
    "futurepack:thruster_black_purple"
  ]
}