{
    "variants": {
        "color=white,facing=north": { "model": "futurepack:filter_assembler_w", "y":0 },
        "color=white,facing=east": { "model": "futurepack:filter_assembler_w", "y":90 },
        "color=white,facing=south": { "model": "futurepack:filter_assembler_w", "y":180 },
        "color=white,facing=west": { "model": "futurepack:filter_assembler_w", "y":270 },
        "color=silver,facing=north": { "model": "futurepack:filter_assembler_g", "y":0 },
        "color=silver,facing=east": { "model": "futurepack:filter_assembler_g", "y":90 },
        "color=silver,facing=south": { "model": "futurepack:filter_assembler_g", "y":180 },
        "color=silver,facing=west": { "model": "futurepack:filter_assembler_g", "y":270 },
        "color=black,facing=north": { "model": "futurepack:filter_assembler_s", "y":0 },
        "color=black,facing=east": { "model": "futurepack:filter_assembler_s", "y":90 },
        "color=black,facing=south": { "model": "futurepack:filter_assembler_s", "y":180 },
        "color=black,facing=west": { "model": "futurepack:filter_assembler_s", "y":270 }
    }
}
