{
    "variants": {
        "snowy=false": [
            { "model": "futurepack:grass" },
            { "model": "futurepack:grass", "y": 90 },
            { "model": "futurepack:grass", "y": 180 },
            { "model": "futurepack:grass", "y": 270 }
        ],
        "snowy=true":  { "model": "minecraft:grass_snowed" }
    }
}