{
    "type": "botanypots:crop",
    "conditions": [
        {
            "type": "forge:mod_loaded",
            "modid": "botanypots"
        }
    ],
    "seed": {
        "item": "futurepack:mendel_seed"
    },
    "categories": [
        "sand"
    ],
    "growthTicks": 800,
    "display": {
        "block": "futurepack:mendel_berry",
        "properties": {
            "age": 7
        }
    },
     "results": [
        {
            "chance": 0.75,
            "output": {
                "item": "futurepack:mendel_berry"
            },
            "minRolls": 1,
            "maxRolls": 1
        },
        {
            "chance": 0.05,
            "output": {
                "item": "futurepack:mendel_berry"
            },
            "minRolls": 1,
            "maxRolls": 2
        },
        {
            "chance": 0.05,
            "output": {
                "item": "futurepack:mendel_seed"
            },
            "minRolls": 1,
            "maxRolls": 2
        },
         {
            "chance": 0.01,
            "output": {
                "item": "futurepack:mendel_flower"
            },
            "minRolls": 1,
            "maxRolls": 2
        }
    ]
}