[
  {
    "id": "deco.metall",
    "page": "space",
    "x": -4,
    "y": -4,
    "parents": [
      "production.decoration"
    ],
    "aspects": [],
    "level": 0,
    "time": 0,
    "need": [],
    "icon": {
      "name": "futurepack:metal_block"
    },
    "enables": [
      {
        "name": "futurepack:metal_block"
      },
      {
        "name": "futurepack:metal_slab"
      },
      {
        "name": "futurepack:color_iron_slab_white"
      },
      {
        "name": "futurepack:color_iron_slab_orange"
      },
      {
        "name": "futurepack:color_iron_slab_magenta"
      },
      {
        "name": "futurepack:color_iron_slab_light_blue"
      },
      {
        "name": "futurepack:color_iron_slab_yellow"
      },
      {
        "name": "futurepack:color_iron_slab_lime"
      },
      {
        "name": "futurepack:color_iron_slab_pink"
      },
      {
        "name": "futurepack:color_iron_slab_gray"
      },
      {
        "name": "futurepack:color_iron_slab_light_gray"
      },
      {
        "name": "futurepack:color_iron_slab_cyan"
      },
      {
        "name": "futurepack:color_iron_slab_purple"
      },
      {
        "name": "futurepack:color_iron_slab_blue"
      },
      {
        "name": "futurepack:color_iron_slab_brown"
      },
      {
        "name": "futurepack:color_iron_slab_green"
      },
      {
        "name": "futurepack:color_iron_slab_red"
      },
      {
        "name": "futurepack:color_iron_slab_black"
      },
      {
        "name": "futurepack:metal_stair"
      },
      {
        "name": "futurepack:color_iron_stair_white"
      },
      {
        "name": "futurepack:color_iron_stair_orange"
      },
      {
        "name": "futurepack:color_iron_stair_magenta"
      },
      {
        "name": "futurepack:color_iron_stair_light_blue"
      },
      {
        "name": "futurepack:color_iron_stair_yellow"
      },
      {
        "name": "futurepack:color_iron_stair_lime"
      },
      {
        "name": "futurepack:color_iron_stair_pink"
      },
      {
        "name": "futurepack:color_iron_stair_gray"
      },
      {
        "name": "futurepack:color_iron_stair_light_gray"
      },
      {
        "name": "futurepack:color_iron_stair_cyan"
      },
      {
        "name": "futurepack:color_iron_stair_purple"
      },
      {
        "name": "futurepack:color_iron_stair_blue"
      },
      {
        "name": "futurepack:color_iron_stair_brown"
      },
      {
        "name": "futurepack:color_iron_stair_green"
      },
      {
        "name": "futurepack:color_iron_stair_red"
      },
      {
        "name": "futurepack:color_iron_stair_black"
      }
    ]
  },
  {
    "id": "deco.cdoor",
    "page": "space",
    "x": -3,
    "y": -3,
    "parents": [
      "deco.metall"
    ],
    "aspects": [
      "metallurgie",
      "logistik",
      "hydraulic"
    ],
    "level": 0,
    "time": 800,
    "need": [
      {
        "size": 1,
        "name": "minecraft:iron_door"
      }
    ],
    "icon": {
      "name": "futurepack:composite_door"
    },
    "enables": [
      {
        "name": "futurepack:composite_door"
      },
      {
      	"name": "futurepack:composite_trapdoor"
      }
    ],
	"rewards":
	[
	  {
        "size": 1,
        "name": "futurepack:composite_door"
      }
	]
  },
  {
    "id": "deco.rs_utils",
    "page": "space",
    "x": -3,
    "y": -2,
    "parents": [
      "deco.cdoor"
    ],
    "aspects": [
      "energieverbindung",
      "maschinenbau"
    ],
    "level": 0,
    "time": 1600,
    "need": [
      {
        "size": 2,
        "name": "comparator"
      }
    ],
    "icon": {
      "name": "futurepack:rs_timer"
    },
    "enables": [
      {
        "name": "futurepack:rs_timer"
      },
      {
        "name": "futurepack:fp_lever"
      },
      {
        "name": "futurepack:button"
      }
    ],
	"rewards":
	[
	  {
        "size": 2,
        "name": "futurepack:fp_lever"
      },
	  {
        "size": 2,
        "name": "futurepack:button"
      }
	]
  },
  {
    "id": "deco.metallzaun",
    "page": "space",
    "x": -2,
    "y": -3,
    "parents": [
      "deco.metall"
    ],
    "aspects": [
      "metallurgie",
      "tierhaltung"
    ],
    "level": 0,
    "time": 600,
    "need": [
      {
        "size": 6,
        "name": "futurepack:metal_block"
      }
    ],
    "icon": {
      "name": "futurepack:metal_fence"
    },
    "enables": [
      {
        "name": "futurepack:metal_fence"
      },
      {
        "name": "futurepack:color_iron_fence_gate_white"
      },
      {
        "name": "futurepack:color_iron_fence_gate_orange"
      },
      {
        "name": "futurepack:color_iron_fence_gate_magenta"
      },
      {
        "name": "futurepack:color_iron_fence_gate_light_blue"
      },
      {
        "name": "futurepack:color_iron_fence_gate_yellow"
      },
      {
        "name": "futurepack:color_iron_fence_gate_lime"
      },
      {
        "name": "futurepack:color_iron_fence_gate_pink"
      },
      {
        "name": "futurepack:color_iron_fence_gate_gray"
      },
      {
        "name": "futurepack:color_iron_fence_gate_light_gray"
      },
      {
        "name": "futurepack:color_iron_fence_gate_cyan"
      },
      {
        "name": "futurepack:color_iron_fence_gate_purple"
      },
      {
        "name": "futurepack:color_iron_fence_gate_blue"
      },
      {
        "name": "futurepack:color_iron_fence_gate_brown"
      },
      {
        "name": "futurepack:color_iron_fence_gate_green"
      },
      {
        "name": "futurepack:color_iron_fence_gate_red"
      },
      {
        "name": "futurepack:color_iron_fence_gate_black"
      },
      {
        "name": "futurepack:metal_fence_gate"
      }
    ],
	"rewards":
	[
	  {
        "size": 4,
        "name": "futurepack:metal_fence"
      },
	  {
        "size": 4,
        "name": "futurepack:metal_fence_gate"
      }
	]
  },
  {
    "id": "deco.composite_chest",
    "page": "space",
    "x": -1,
    "y": -3,
    "parents": [
      "deco.metall"
    ],
    "aspects": [
      "logistik",
      "maschinenbau"
    ],
    "level": 0,
    "time": 300,
    "need": [
      {
        "size": 8,
        "name": "futurepack:composite_metal"
      }
    ],
    "icon": {
      "name": "futurepack:composite_chest"
    },
    "enables": [
      {
        "name": "futurepack:composite_chest"
      }
    ],
	"rewards":
	[
	  {
        "size": 4,
        "name": "futurepack:composite_chest"
      }
	]
  },
  {
    "id": "deco.wardrobe",
    "page": "space",
    "x": -1,
    "y": -2,
    "parents": [
      "deco.composite_chest",
      "upgradeT1"
    ],
    "aspects": [
      "logistik",
      "maschinenbau"
    ],
    "level": 1,
    "time": 600,
    "neon": 600,
    "need": [
      {
        "size": 1,
        "name": "futurepack:metal_block"
      },
      {
        "size": 6,
        "tag": "forge:ingots/aluminum"
      }
    ],
    "icon": {
      "name": "futurepack:wardrobe_white_normal_1"
    },
    "enables": [
      {
        "name": "futurepack:wardrobe_white_normal_1"
      },
      {
        "name": "futurepack:wardrobe_white_normal_2"
      },
      {
        "name": "futurepack:wardrobe_white_large_1"
      },
      {
        "name": "futurepack:wardrobe_white_large_2"
      },
      {
        "name": "futurepack:wardrobe_light_gray_normal_1"
      },
      {
        "name": "futurepack:wardrobe_light_gray_normal_2"
      },
      {
        "name": "futurepack:wardrobe_light_gray_large_1"
      },
      {
        "name": "futurepack:wardrobe_light_gray_large_2"
      },
      {
        "name": "futurepack:wardrobe_black_normal_1"
      },
      {
        "name": "futurepack:wardrobe_black_normal_2"
      },
      {
        "name": "futurepack:wardrobe_black_large_1"
      },
      {
        "name": "futurepack:wardrobe_black_large_2"
      }
    ],
	"rewards":
	[
	  {
        "size": 1,
        "name": "futurepack:wardrobe_white_large_1"
      },
	  {
        "size": 1,
        "name": "futurepack:wardrobe_white_normal_1"
      }
	]
  },
  {
    "id": "deco.gitter",
    "page": "space",
    "x": -4,
    "y": -1,
    "parents": [
      "deco.metall"
    ],
    "aspects": [
      "metallurgie",
      "hydraulic"
    ],
    "level": 0,
    "time": 1200,
    "need": [
      {
        "size": 10,
        "name": "minecraft:iron_bars"
      }
    ],
    "icon": {
      "name": "futurepack:metal_block_gitter"
    },
    "enables": [
      {
        "name": "futurepack:metal_block_gitter"
      },
      {
        "name": "futurepack:metal_gitter_slab"
      },
      {
        "name": "futurepack:color_gitter_slab_white"
      },
      {
        "name": "futurepack:color_gitter_slab_orange"
      },
      {
        "name": "futurepack:color_gitter_slab_magenta"
      },
      {
        "name": "futurepack:color_gitter_slab_light_blue"
      },
      {
        "name": "futurepack:color_gitter_slab_yellow"
      },
      {
        "name": "futurepack:color_gitter_slab_lime"
      },
      {
        "name": "futurepack:color_gitter_slab_pink"
      },
      {
        "name": "futurepack:color_gitter_slab_gray"
      },
      {
        "name": "futurepack:color_gitter_slab_light_gray"
      },
      {
        "name": "futurepack:color_gitter_slab_cyan"
      },
      {
        "name": "futurepack:color_gitter_slab_purple"
      },
      {
        "name": "futurepack:color_gitter_slab_blue"
      },
      {
        "name": "futurepack:color_gitter_slab_brown"
      },
      {
        "name": "futurepack:color_gitter_slab_green"
      },
      {
        "name": "futurepack:color_gitter_slab_red"
      },
      {
        "name": "futurepack:color_gitter_slab_black"
      },
      {
        "name": "futurepack:metal_stair_gitter"
      },
      {
        "name": "futurepack:color_gitter_stair_orange"
      },
      {
        "name": "futurepack:color_gitter_stair_magenta"
      },
      {
        "name": "futurepack:color_gitter_stair_light_blue"
      },
      {
        "name": "futurepack:color_gitter_stair_yellow"
      },
      {
        "name": "futurepack:color_gitter_stair_lime"
      },
      {
        "name": "futurepack:color_gitter_stair_pink"
      },
      {
        "name": "futurepack:color_gitter_stair_gray"
      },
      {
        "name": "futurepack:color_gitter_stair_light_gray"
      },
      {
        "name": "futurepack:color_gitter_stair_cyan"
      },
      {
        "name": "futurepack:color_gitter_stair_blue"
      },
      {
        "name": "futurepack:color_gitter_stair_brown"
      },
      {
        "name": "futurepack:color_gitter_stair_green"
      },
      {
        "name": "futurepack:color_gitter_stair_red"
      },
      {
        "name": "futurepack:color_gitter_stair_black"
      },
      {
        "name": "futurepack:metal_gitter_pane"
      },
      {
        "name": "futurepack:color_gitter_pane_white"
      },
      {
        "name": "futurepack:color_gitter_pane_orange"
      },
      {
        "name": "futurepack:color_gitter_pane_magenta"
      },
      {
        "name": "futurepack:color_gitter_pane_light_blue"
      },
      {
        "name": "futurepack:color_gitter_pane_yellow"
      },
      {
        "name": "futurepack:color_gitter_pane_lime"
      },
      {
        "name": "futurepack:color_gitter_pane_pink"
      },
      {
        "name": "futurepack:color_gitter_pane_gray"
      },
      {
        "name": "futurepack:color_gitter_pane_light_gray"
      },
      {
        "name": "futurepack:color_gitter_pane_cyan"
      },
      {
        "name": "futurepack:color_gitter_pane_purple"
      },
      {
        "name": "futurepack:color_gitter_pane_blue"
      },
      {
        "name": "futurepack:color_gitter_pane_brown"
      },
      {
        "name": "futurepack:color_gitter_pane_green"
      },
      {
        "name": "futurepack:color_gitter_pane_red"
      },
      {
        "name": "futurepack:color_gitter_pane_black"
      }
    ],
	"rewards":
	[
	  {
        "size": 16,
        "name": "futurepack:metal_block_gitter"
      },
	  {
        "size": 16,
        "name": "futurepack:metal_gitter_pane"
      }
	]
  },
  {
    "id": "deco.eisenleiter",
    "page": "space",
    "x": -2,
    "y": 0,
    "parents": [
      "deco.gitter"
    ],
    "aspects": [
      "logistik"
    ],
    "level": 0,
    "time": 1200,
    "need": [
      {
        "size": 32,
        "name": "futurepack:iron_stick"
      }
    ],
    "icon": {
      "name": "futurepack:ironladder"
    },
    "enables": [
      {
        "name": "futurepack:ironladder"
      }
    ],
	"rewards":
	[
	  {
        "size": 16,
        "name": "futurepack:ironladder"
      }
	]
  },
  {
    "id": "deco.vent",
    "page": "space",
    "x": -3,
    "y": 0,
    "parents": [
      "deco.gitter"
    ],
    "aspects": [
      "metallurgie",
      "thermodynamic"
    ],
    "level": 0,
    "time": 1200,
    "need": [
      {
        "size": 12,
        "name": "minecraft:iron_bars"
      }
    ],
    "icon": {
      "name": "futurepack:metal_block_ventilation"
    },
    "enables": [
      {
        "name": "futurepack:metal_block_ventilation"
      },
      {
        "name": "futurepack:metal_ventilation_slab"
      },
      {
        "name": "futurepack:color_luftung_slab_white"
      },
      {
        "name": "futurepack:color_luftung_slab_orange"
      },
      {
        "name": "futurepack:color_luftung_slab_magenta"
      },
      {
        "name": "futurepack:color_luftung_slab_light_blue"
      },
      {
        "name": "futurepack:color_luftung_slab_yellow"
      },
      {
        "name": "futurepack:color_luftung_slab_lime"
      },
      {
        "name": "futurepack:color_luftung_slab_pink"
      },
      {
        "name": "futurepack:color_luftung_slab_gray"
      },
      {
        "name": "futurepack:color_luftung_slab_light_gray"
      },
      {
        "name": "futurepack:color_luftung_slab_cyan"
      },
      {
        "name": "futurepack:color_luftung_slab_purple"
      },
      {
        "name": "futurepack:color_luftung_slab_blue"
      },
      {
        "name": "futurepack:color_luftung_slab_brown"
      },
      {
        "name": "futurepack:color_luftung_slab_green"
      },
      {
        "name": "futurepack:color_luftung_slab_red"
      },
      {
        "name": "futurepack:color_luftung_slab_black"
      }
    ],
	"rewards":
	[
	  {
        "size": 16,
        "name": "futurepack:metal_block_ventilation"
      }
	]
  },
  {
    "id": "deco.glass",
    "page": "space",
    "x": -4,
    "y": 2,
    "parents": [
      "deco.metall",
      "optik"
    ],
    "aspects": [],
    "level": 0,
    "time": 0,
    "need": [],
    "icon": {
      "name": "futurepack:color_glass_white"
    },
    "enables": [
      {
        "name": "futurepack:color_glass_white"
      },
      {
        "name": "futurepack:color_glass_orange"
      },
      {
        "name": "futurepack:color_glass_magenta"
      },
      {
        "name": "futurepack:color_glass_light_blue"
      },
      {
        "name": "futurepack:color_glass_yellow"
      },
      {
        "name": "futurepack:color_glass_lime"
      },
      {
        "name": "futurepack:color_glass_pink"
      },
      {
        "name": "futurepack:color_glass_gray"
      },
      {
        "name": "futurepack:color_glass_light_gray"
      },
      {
        "name": "futurepack:color_glass_cyan"
      },
      {
        "name": "futurepack:color_glass_purple"
      },
      {
        "name": "futurepack:color_glass_blue"
      },
      {
        "name": "futurepack:color_glass_brown"
      },
      {
        "name": "futurepack:color_glass_green"
      },
      {
        "name": "futurepack:color_glass_red"
      },
      {
        "name": "futurepack:color_glass_black"
      }
    ]
  },
  {
    "id": "deco.neonlamp",
    "page": "space",
    "x": -3,
    "y": 3,
    "parents": [
      "deco.glass"
    ],
    "aspects": [
      "neonenergie",
      "maschinenbau"
    ],
    "level": 1,
    "time": 600,
    "neon": 3600,
    "need": [
      {
        "size": 16,
        "name": "futurepack:composite_metal"
      },
      {
        "size": 8,
        "tag": "forge:ingots/neon"
      }
    ],
    "icon": {
      "name": "futurepack:color_neon_lamp_white"
    },
    "enables": [
      {
        "name": "futurepack:color_neon_lamp_white"
      },
      {
        "name": "futurepack:color_neon_lamp_orange"
      },
      {
        "name": "futurepack:color_neon_lamp_magenta"
      },
      {
        "name": "futurepack:color_neon_lamp_light_blue"
      },
      {
        "name": "futurepack:color_neon_lamp_yellow"
      },
      {
        "name": "futurepack:color_neon_lamp_lime"
      },
      {
        "name": "futurepack:color_neon_lamp_pink"
      },
      {
        "name": "futurepack:color_neon_lamp_gray"
      },
      {
        "name": "futurepack:color_neon_lamp_light_gray"
      },
      {
        "name": "futurepack:color_neon_lamp_cyan"
      },
      {
        "name": "futurepack:color_neon_lamp_purple"
      },
      {
        "name": "futurepack:color_neon_lamp_blue"
      },
      {
        "name": "futurepack:color_neon_lamp_brown"
      },
      {
        "name": "futurepack:color_neon_lamp_green"
      },
      {
        "name": "futurepack:color_neon_lamp_red"
      },
      {
        "name": "futurepack:color_neon_lamp_black"
      }
    ]
  },
  {
    "id": "deco.plasmalamp",
    "page": "space",
    "x": -3,
    "y": 4,
    "parents": [
      "deco.neonlamp",
      "surveyscan.menelaus"
    ],
    "aspects": [
      "metallurgie",
      "thermodynamic"
    ],
    "level": 2,
    "time": 300,
    "neon": 38400,
    "support": 80,
    "need": [
      {
        "size": 8,
        "tag": "forge:ingots/glowtite"
      },
      {
        "size": 16,
        "name": "futurepack:composite_metal"
      },
      {
        "size": 1,
        "name": "futurepack:laserdiode"
      }
    ],
    "icon": {
      "name": "futurepack:color_plasma_lamp_white"
    },
    "enables": [
      {
        "name": "futurepack:color_plasma_lamp_white"
      },
      {
        "name": "futurepack:color_plasma_lamp_orange"
      },
      {
        "name": "futurepack:color_plasma_lamp_magenta"
      },
      {
        "name": "futurepack:color_plasma_lamp_light_blue"
      },
      {
        "name": "futurepack:color_plasma_lamp_yellow"
      },
      {
        "name": "futurepack:color_plasma_lamp_lime"
      },
      {
        "name": "futurepack:color_plasma_lamp_pink"
      },
      {
        "name": "futurepack:color_plasma_lamp_gray"
      },
      {
        "name": "futurepack:color_plasma_lamp_light_gray"
      },
      {
        "name": "futurepack:color_plasma_lamp_cyan"
      },
      {
        "name": "futurepack:color_plasma_lamp_purple"
      },
      {
        "name": "futurepack:color_plasma_lamp_blue"
      },
      {
        "name": "futurepack:color_plasma_lamp_brown"
      },
      {
        "name": "futurepack:color_plasma_lamp_green"
      },
      {
        "name": "futurepack:color_plasma_lamp_red"
      },
      {
        "name": "futurepack:color_plasma_lamp_black"
      }
    ]
  },
  {
    "id": "deco.monitor",
    "page": "space",
    "x": -2,
    "y": 3,
    "parents": [
      "deco.glass"
    ],
    "aspects": [
      "neonenergie",
      "chemie"
    ],
    "level": 1,
    "time": 300,
    "neon": 1200,
    "need": [
      {
        "size": 1,
        "name": "futurepack:chip_logic"
      },
      {
        "size": 8,
        "name": "futurepack:ingot_silicon"
      }
    ],
    "icon": {
      "name": "futurepack:display"
    },
    "enables": [
      {
        "name": "futurepack:display"
      }
    ],
	"rewards":
	[
	  {
        "size": 4,
        "name": "futurepack:display"
      }
	]
  }
]