[
  {
    "id": "get_started",
    "x": -4,
    "y": -4,
    "parents": [
      "futurepack:the_impalpable"
    ],
    "picon": "FP",
    "time": 0,
    "need": [],
    "enables": []
  },
  {
    "id": "forschung",
    "x": -2,
    "y": -4,
    "parents": [
      "story.labor"
    ],
    "picon": "MANUAL",
    "time": 0,
    "need": [],
    "enables": []
  },
  {
    "id": "techtabel",
    "x": -2,
    "y": -2,
    "parents": [
      "forschung"
    ],
    "time": 0,
    "need": [],
    "icon": {
      "name": "futurepack:techtable"
    },
    "enables": [
      {
        "name": "futurepack:techtable"
      }
    ]
  },
  {
    "id": "util",
    "x": -1,
    "y": 0,
    "parents": [
      "techtabel"
    ],
    "time": 0,
    "need": [],
    "icon": {
      "name": "futurepack:iron_stick"
    },
    "enables": [
      {
        "name": "futurepack:iron_stick"
      },
      {
        "name": "futurepack:lack_tank_empty"
      },
      {
        "name": "futurepack:coil_copper"
      },
      {
        "name": "futurepack:coil_iron"
      },
      {
        "name": "futurepack:coil_neon"
      },
      {
        "name": "futurepack:coil_gold"
      },
      {
        "name": "futurepack:coil_quantanium"
      },
      {
        "name": "futurepack:fish_block"
      },
      {
        "name": "futurepack:neon_brick"
      },
      {
        "name": "futurepack:retium_brick"
      },
      {
        "name": "futurepack:glowtite_brick"
      },
      {
        "name": "futurepack:bioterium_brick"
      }
    ]
  },
  {
    "id": "partpress",
    "x": -1,
    "y": 1,
    "parents": [
      "techtabel"
    ],
    "time": 0,
    "need": [],
    "icon": {
      "name": "futurepack:part_press"
    },
    "enables": [
      {
        "name": "futurepack:part_press"
      },
      {
        "name": "futurepack:parts_iron"
      },
      {
        "name": "futurepack:parts_diamond"
      },
      {
        "name": "futurepack:parts_quartz"
      },
      {
        "name": "futurepack:parts_neon"
      },
      {
        "name": "futurepack:parts_copper"
      },
      {
        "name": "futurepack:parts_gold"
      }
    ]
  },
  {
    "id": "scanner",
    "x": -1,
    "y": 2,
    "parents": [
      "techtabel"
    ],
    "time": 0,
    "need": [],
    "icon": {
      "name": "futurepack:scanner_block_white"
    },
    "enables": [
      {
        "name": "futurepack:scanner_block_white"
      },
      {
        "name": "futurepack:scanner_block_gray"
      },
      {
        "name": "futurepack:scanner_block_black"
      }
    ]
  },
  {
    "id": "forscher",
    "x": -1,
    "y": 3,
    "parents": [
      "techtabel"
    ],
    "time": 0,
    "need": [],
    "icon": {
      "name": "futurepack:researcher_white"
    },
    "enables": [
      {
        "name": "futurepack:researcher_white"
      },
      {
        "name": "futurepack:researcher_gray"
      },
      {
        "name": "futurepack:researcher_black"
      }
    ]
  },
  {
    "id": "production",
    "x": 0,
    "y": -2,
    "parents": [
      "techtabel"
    ],
    "picon": "PRODUCTION1",
    "aspects": [
      "thermodynamic"
    ],
    "level": 0,
    "time": 300,
    "need": [
      {
        "size": 3,
        "name": "minecraft:furnace"
      }
    ],
    "enables": [],
	"rewards":
	[
	  {
        "size": 1,
        "name": "futurepack:industrial_furnace"
      }
	]
  },
  {
    "id": "werkzeug",
    "x": 1,
    "y": 0,
    "parents": [
      "production",
      "production.industrieofen"
    ],
    "picon": "WERKZEUGE",
    "aspects": [
      "maschinenbau"
    ],
    "level": 0,
    "time": 300,
    "need": [
      {
        "size": 2,
        "name": "minecraft:iron_ingot"
      }
    ],
    "enables": [],
	"rewards":
	[
	  {
        "size": 1,
        "name": "futurepack:scrench"
      },
	  {
        "size": 1,
        "name": "futurepack:scrench"
      }
	]
  },
  {
    "id": "itemlogistik",
    "x": 1,
    "y": 1,
    "parents": [
      "production",
      "production.industrieofen"
    ],
    "picon": "ITEMLOG",
    "aspects": [
      "logistik"
    ],
    "level": 0,
    "time": 600,
    "need": [
      {
        "size": 2,
        "name": "minecraft:hopper"
      }
    ],
    "enables": [],
	"rewards":
	[
	  {
        "size": 16,
        "name": "futurepack:pipe_normal"
      }
	]
  },
  {
    "id": "energieerzeugung",
    "x": 2,
    "y": -2,
    "parents": [
      "production",
      "production.industrieofen"
    ],
    "picon": "EN_ERZEUGUNG_1",
    "aspects": [
      "neonenergie"
    ],
    "level": 0,
    "time": 600,
    "need": [
      {
        "size": 2,
        "name": "minecraft:piston"
      }
    ],
    "enables": [],
	"rewards":
	[
	  {
        "size": 1,
        "name": "futurepack:t0_generator"
      }
	]
  },
  {
    "id": "fluidlogistik",
    "x": 3,
    "y": 0,
    "parents": [
      "energieerzeugung",
      "energy.generator"
    ],
    "picon": "FLUIDLOG",
    "aspects": [
      "logistik",
      "hydraulic"
    ],
    "level": 0,
    "time": 600,
    "need": [
      {
        "size": 1,
        "name": "minecraft:milk_bucket"
      }
    ],
    "enables": [],
	"rewards":
	[
	  {
        "size": 8,
        "name": "futurepack:fluid_tube"
      }
	]
  },
  {
    "id": "energielogistik",
    "x": 3,
    "y": -4,
    "parents": [
      "forschung",
      "energieerzeugung",
      "energy.generator"
    ],
    "picon": "ENLOGISTIK",
    "aspects": [
      "energieverbindung"
    ],
    "level": 0,
    "time": 800,
    "need": [
      {
        "size": 10,
        "name": "futurepack:parts_neon"
      }
    ],
    "enables": [],
	"rewards":
	[
	  {
        "size": 16,
        "name": "futurepack:wire_normal"
      }
	]
  },
  {
    "id": "upgradeT1",
    "x": 5,
    "y": -4,
    "parents": [
      "energielogistik",
      "log.cable"
    ],
    "aspects": [
      "neonenergie",
      "energieverbindung"
    ],
    "level": 0,
    "time": 2400,
    "need": [
      {
        "size": 8,
        "name": "futurepack:wire_normal"
      }
    ],
    "icon": {
      "name": "futurepack:modul_1_white"
    },
    "enables": [
      {
        "name": "futurepack:modul_1_white"
      },
      {
        "name": "futurepack:modul_1_gray"
      },
      {
        "name": "futurepack:modul_1_black"
      }
    ]
  },
  {
    "id": "assembly",
    "x": 5,
    "y": -2,
    "parents": [
      "upgradeT1"
    ],
    "picon": "CHIP_ASSEMBLY",
    "aspects": [
      "energieverbindung",
      "chemie",
      "metallurgie"
    ],
    "level": 1,
    "time": 1200,
    "neon": 1200,
    "need": [
      {
        "size": 8,
        "tag": "forge:ingots/copper"
      },
      {
        "size": 10,
        "name": "futurepack:ingot_silicon"
      }
    ],
    "enables": [],
	"rewards":
	[
	  {
        "size": 1,
        "name": "futurepack:assembly_table_white"
      }
	]
  },
  {
    "id": "optik",
    "x": 6,
    "y": 0,
    "parents": [
      "assembly",
      "assembly_chip"
    ],
    "picon": "OPTIK",
    "aspects": [
      "thermodynamic",
      "metallurgie"
    ],
    "level": 1,
    "time": 600,
    "neon": 2400,
    "need": [
      {
        "size": 6,
        "name": "minecraft:gold_ingot"
      },
      {
        "size": 15,
        "name": "futurepack:ingot_silicon"
      }
    ],
    "enables": []
  },
  {
    "id": "energiespeicher",
    "x": 6,
    "y": 1,
    "parents": [
      "assembly",
      "assembly_chip"
    ],
    "picon": "ENERGIESPEICHER",
    "aspects": [
      "neonenergie",
      "chemie"
    ],
    "level": 1,
    "time": 600,
    "neon": 2400,
    "need": [
      {
        "size": 13,
        "name": "futurepack:parts_neon"
      },
      {
        "size": 3,
        "name": "futurepack:coil_copper"
      }
    ],
    "enables": [],
	"rewards":
	[
	  {
        "size": 2,
        "name": "futurepack:battery_n"
      }
	]
  },
  {
    "id": "recycling",
    "x": 6,
    "y": 2,
    "parents": [
      "assembly",
      "assembly_chip"
    ],
    "picon": "RECYCLING",
    "aspects": [
      "morphologie",
      "maschinenbau",
      "hydraulic"
    ],
    "level": 1,
    "time": 1200,
    "neon": 3600,
    "need": [
      {
        "size": 1,
        "name": "minecraft:iron_axe"
      },
      {
        "size": 1,
        "name": "futurepack:scrench"
      }
    ],
    "enables": [],
	"rewards":
	[
	  {
        "size": 1,
        "name": "futurepack:recycler_white"
      },
	  {
        "size": 1,
        "name": "futurepack:shredder"
      }
	]
  },
  {
    "id": "production2",
    "x": 7,
    "y": -2,
    "parents": [
      "assembly",
      "assembly_chip"
    ],
    "picon": "PRODUCTION2",
    "aspects": [
      "neonenergie",
      "maschinenbau",
      "hydraulic"
    ],
    "level": 1,
    "time": 1200,
    "neon": 2400,
    "need": [
      {
        "size": 1,
        "name": "futurepack:scrench"
      },
      {
        "size": 10,
        "name": "futurepack:composite_metal"
      }
    ],
    "enables": [],
	"rewards":
	[
	  {
        "size": 1,
        "name": "futurepack:opti_bench_white"
      }
	]
  },
  {
    "id": "magnetismus",
    "x": 8,
    "y": 1,
    "parents": [
      "production2",
      "production.optibench"
    ],
    "picon": "MAGNETISMUS",
    "aspects": [
      "metallurgie",
      "logistik"
    ],
    "level": 1,
    "time": 600,
    "neon": 3600,
    "need": [
      {
        "size": 3,
        "tag": "forge:ores/magnetite"
      },
      {
        "size": 4,
        "name": "futurepack:coil_copper"
      }
    ],
    "enables": [],
	"rewards":
	[
	  {
        "size": 1,
        "name": "futurepack:electro_magnet"
      },
	  {
        "size": 1,
        "name": "futurepack:monocartbox"
      },
	  {
        "size": 32,
        "name": "futurepack:monorail"
      },
	  {
        "size": 1,
        "name": "futurepack:monorail_waypoint"
      },
	  {
        "size": 2,
        "name": "futurepack:monorail_station"
      },
	  {
        "size": 1,
        "name": "futurepack:monorail_charger"
      },
      {
        "size": 3,
        "name": "futurepack:monorail_lift"
      }
    ]
  },
  {
    "id": "thermodynamic",
    "x": 8,
    "y": 0,
    "parents": [
      "production2",
      "production.optibench"
    ],
    "picon": "THERMODYNAMIC",
    "aspects": [
      "thermodynamic",
      "maschinenbau"
    ],
    "level": 1,
    "time": 800,
    "neon": 1200,
    "need": [
      {
        "size": 16,
        "tag": "forge:ingots/copper"
      },
      {
        "size": 8,
        "name": "minecraft:quartz"
      }
    ],
    "enables": [],
	"rewards":
	[
	  {
        "size": 1,
        "name": "futurepack:extern_cooler"
      }
	]
  },
  {
    "id": "hologrammtechnik",
    "x": 8,
    "y": 2,
    "parents": [
      "production2",
      "production.optibench"
    ],
    "picon": "HOLOTECH",
    "aspects": [
      "neonenergie",
      "energieverbindung",
      "maschinenbau",
      "morphologie"
    ],
    "level": 1,
    "time": 800,
    "neon": 1200,
    "need": [
      {
        "size": 4,
        "tag": "forge:dusts/glowstone"
      },
      {
        "size": 2,
        "name": "futurepack:display"
      }
    ],
    "enables": [],
	"rewards":
	[
	  {
        "size": 1,
        "name": "futurepack:hologram_controler"
      }
	]
  },
  {
    "id": "calculation",
    "x": 9,
    "y": -2,
    "parents": [
      "production2",
      "production.optibench"
    ],
    "aspects": [
      "energieverbindung",
      "thermodynamic",
      "maschinenbau"
    ],
    "level": 1,
    "time": 3600,
    "neon": 3600,
    "need": [
      {
        "size": 8,
        "name": "futurepack:parts_quartz"
      },
      {
        "size": 1,
        "name": "futurepack:maschineboard"
      }
    ],
    "icon": {
      "name": "futurepack:modul_1_calculation_white"
    },
    "enables": [
      {
        "name": "futurepack:modul_1_calculation_white"
      },
      {
        "name": "futurepack:modul_1_calculation_gray"
      },
      {
        "name": "futurepack:modul_1_calculation_black"
      },
      {
        "name": "futurepack:double_maschineboard"
      }
    ],
	"rewards":
	[
	  {
        "size": 1,
        "name": "futurepack:modul_1_calculation_white"
      }
	]
  },
  {
    "id": "armor",
    "x": 10,
    "y": 0,
    "parents": [
      "calculation"
    ],
    "picon": "ARMOR",
    "aspects": [
      "metallurgie",
      "chemie"
    ],
    "level": 1,
    "time": 600,
    "neon": 5600,
    "need": [
      {
        "size": 6,
        "name": "futurepack:composite_metal"
      },
      {
        "size": 1,
        "name": "minecraft:golden_helmet"
      }
    ],
    "enables": []
  },
  {
    "id": "waffentechnik1",
    "x": 10,
    "y": 1,
    "parents": [
      "calculation"
    ],
    "picon": "WAFFENTECH",
    "aspects": [
      "thermodynamic",
      "maschinenbau"
    ],
    "level": 1,
    "time": 600,
    "neon": 5600,
    "need": [
      {
        "size": 1,
        "name": "futurepack:chip_logic"
      },
      {
        "size": 4,
        "name": "futurepack:pipe_redstone"
      }
    ],
    "enables": [],
	"rewards":
	[
	  {
        "size": 1,
        "name": "futurepack:rocket_launcher"
      },
	  {
        "size": 4,
        "name": "futurepack:rocket_plasma"
      }
	]
  },
  {
    "id": "ai",
    "x": 10,
    "y": -4,
    "parents": [
      "upgradeT1",
      "calculation"
    ],
    "picon": "KI",
    "aspects": [
      "energieverbindung",
      "metallurgie"
    ],
    "level": 1,
    "time": 2400,
    "neon": 12000,
    "need": [
      {
        "size": 1,
        "name": "futurepack:core_standart"
      },
      {
        "size": 1,
        "name": "futurepack:chip_logic"
      }
    ],
    "enables": [],
	"rewards":
	[
	  {
        "size": 1,
        "name": "futurepack:aiflash0"
      },
	  {
        "size": 1,
        "name": "futurepack:aiflash0"
      }
	]
  },
  {
    "id": "upgradeT2",
    "x": 12,
    "y": -4,
    "parents": [
      "ai",
      "log.flash.1"
    ],
    "aspects": [
      "logistik",
      "energieverbindung"
    ],
    "level": 1,
    "time": 6000,
    "neon": 18000,
    "need": [
      [{
        "size": 1,
        "name": "futurepack:modul_1_white"
      },
      {
        "size": 1,
        "name": "futurepack:modul_1_gray"
      },
      {
        "size": 1,
        "name": "futurepack:modul_1_black"
      }
      ],
      [{
        "size": 1,
        "name": "futurepack:opti_bench_white"
      },
      {
        "size": 1,
        "name": "futurepack:opti_bench_gray"
      },
      {
        "size": 1,
        "name": "futurepack:opti_bench_black"
      }]
    ],
    "icon": {
      "name": "futurepack:modul_2_white"
    },
    "enables": [
      {
        "name": "futurepack:modul_2_white"
      },
      {
        "name": "futurepack:modul_2_gray"
      },
      {
        "name": "futurepack:modul_2_black"
      }
    ]
  },
  {
    "id": "production3",
    "x": 14,
    "y": -4,
    "parents": [
      "upgradeT2"
    ],
    "picon": "PRODUCTION3",
    "aspects": [
      "maschinenbau",
      "thermodynamic",
      "metallurgie"
    ],
    "level": 2,
    "time": 4800,
    "neon": 48000,
    "support": 120,
    "need": [
      {
        "size": 1,
        "name": "futurepack:chip_industrie"
      },
      {
        "size": 1,
        "name": "futurepack:industrial_furnace"
      },
      {
        "size": 4,
        "name": "futurepack:coil_gold"
      }
    ],
    "enables": [],
	"rewards":
	[
	  {
        "size": 4,
        "tag": "forge:ingots/wakurium"
      }
	]
  },
  {
    "id": "raumfahrt",
    "x": 17,
    "y": -4,
    "parents": [
      "production3",
      "production.neonind"
    ],
    "picon": "RAUMFAHRT",
    "aspects": [
      "metallurgie",
      "thermodynamic",
      "hydraulic",
      "neonenergie",
      "chemie",
      "maschinenbau",
      "energieverbindung",
      "biologie"
    ],
    "level": 2,
    "time": 6000,
    "neon": 57600,
    "support": 160,
    "need": [
      {
        "size": 4,
        "name": "minecraft:ender_eye"
      },
      {
        "size": 1,
        "name": "futurepack:chip_navigation"
      },
      {
        "size": 1,
        "name": "futurepack:industrial_furnace"
      }
    ],
    "enables": [],
	"rewards":
	[
	  {
        "size": 1,
        "name": "futurepack:record_futurepack"
      }
	]
  },
  {
    "id": "erneuerbare",
    "x": 12,
    "y": -2,
    "parents": [
      "upgradeT2"
    ],
    "picon": "ER_ENERGIE",
    "aspects": [
      "neonenergie",
      "hydraulic",
      "maschinenbau"
    ],
    "level": 2,
    "time": 600,
    "neon": 4800,
    "support": 20,
    "need": [
      {
        "size": 16,
        "name": "futurepack:wire_normal"
      },
      {
        "size": 4,
        "name": "futurepack:pipe_normal"
      },
      {
        "size": 1,
        "name": "minecraft:water_bucket"
      }
    ],
    "enables": [],
	"rewards":
	[
	  {
        "size": 1,
        "name": "futurepack:water_turbine_white"
      }
	]
  },
  {
    "id": "aispeicher",
    "x": 13,
    "y": 0,
    "parents": [
      "erneuerbare",
      "energy.wasser_turbine"
    ],
    "picon": "SUPPORTSPEICHER",
    "aspects": [
      "logistik",
      "energieverbindung",
      "metallurgie"
    ],
    "level": 2,
    "time": 1200,
    "neon": 9600,
    "support": 40,
    "need": [
      {
        "size": 8,
        "tag": "forge:ingots/zinc"
      },
      {
        "size": 8,
        "name": "minecraft:gold_ingot"
      },
      {
        "size": 16,
        "name": "minecraft:redstone"
      }
    ],
    "enables": [],
	"rewards":
	[
	  {
        "size": 1,
        "name": "futurepack:aiflash1"
      },
	  {
        "size": 1,
        "name": "futurepack:aiflash1"
      },
	  {
        "size": 1,
        "name": "futurepack:aiflash1"
      }
	]
  },
  {
    "id": "energietools",
    "x": 13,
    "y": 1,
    "parents": [
      "erneuerbare",
      "energy.wasser_turbine"
    ],
    "picon": "ENTOOLS",
    "aspects": [
      "neonenergie",
      "maschinenbau"
    ],
    "level": 2,
    "time": 2400,
    "neon": 9600,
    "support": 40,
    "need": [
      {
        "size": 8,
        "name": "futurepack:wire_normal"
      },
      {
        "size": 1,
        "name": "futurepack:scrench"
      },
      {
        "size": 1,
        "name": "futurepack:battery_n"
      }
    ],
    "enables": [],
	"rewards":
	[
      {
		 "size": 1,
		 "name": "futurepack:plasma_cutter"
      }
	]

  },
  {
    "id": "netzwerke",
    "x": 14,
    "y": -2,
    "parents": [
      "production3",
      "production.nind.wakurum",
      "production.neonind",
      "erneuerbare",
      "energy.wasser_turbine"
    ],
    "picon": "NETZWERK",
    "aspects": [
      "logistik",
      "morphologie",
      "energieverbindung"
    ],
    "level": 2,
    "time": 3000,
    "neon": 96000,
    "support": 160,
    "need": [
      {
        "size": 8,
        "tag": "forge:ingots/wakurium"
      },
      {
        "size": 1,
        "name": "futurepack:chip_logic"
      },
      {
        "size": 8,
        "name": "futurepack:wire_normal"
      }
    ],
    "enables": [
      {
        "name": "futurepack:shared_researcher_white"
      },
      {
        "name": "futurepack:shared_researcher_gray"
      },
      {
        "name": "futurepack:shared_researcher_black"
      }
    ],
	"rewards":
	[
	  {
        "size": 8,
        "name": "futurepack:wire_network"
      }
	]
  },
  {
    "id": "drones",
    "x": 16,
    "y": -2,
    "parents": [
      "netzwerke",
      "chip.ai",
      "log.networkcable"
    ],
    "picon": "DRONES",
    "aspects": [
      "neonenergie",
      "maschinenbau",
      "logistik",
      "energieverbindung"
    ],
    "level": 2,
    "time": 1200,
    "neon": 76800,
    "support": 160,
    "need": [
      {
        "size": 1,
        "name": "futurepack:chip_ai"
      },
      {
        "size": 1,
        "name": "futurepack:battery_n"
      },
      {
        "size": 1,
        "name": "futurepack:maschineboard"
      }
    ],
    "enables": [],
	"rewards":
	[
	  {
        "size": 1,
        "name": "futurepack:drone_station"
      },
	  {
        "size": 2,
        "name": "futurepack:drone_engine"
      },
	  {
        "size": 1,
        "name": "futurepack:claime"
      }
	]
  },
  {
    "id": "lasertechnik",
    "x": 18,
    "y": -2,
    "parents": [
      "drones",
      "space.dronestation"
    ],
    "picon": "LASERTECHNIK1",
    "aspects": [
      "neonenergie",
      "thermodynamic",
      "chemie"
    ],
    "level": 2,
    "time": 1200,
    "neon": 48000,
    "support": 80,
    "need": [
      {
        "size": 32,
        "name": "minecraft:glass_pane"
      },
      {
        "size": 8,
        "name": "minecraft:redstone_lamp"
      },
      {
        "size": 13,
        "tag": "forge:ingots/aluminum"
      }
    ],
    "enables": [
      {
        "name": "futurepack:laserdiode"
      },
      {
        "name": "futurepack:lense_white"
      }
    ],
	"rewards":
	[
	  {
        "size": 8,
        "name": "minecraft:glass_pane"
      },
	  {
        "size": 4,
        "name": "minecraft:red_stained_glass_pane"
      },
	  {
        "size": 4,
        "name": "futurepack:laserdiode"
      }
	]
  },
  {
    "id": "bergbau",
    "x": 19,
    "y": 0,
    "parents": [
      "lasertechnik"
    ],
    "picon": "BERGBAU",
    "aspects": [
      "geologie",
      "energieverbindung",
      "logistik"
    ],
    "level": 2,
    "time": 1200,
    "neon": 24000,
    "support": 320,
    "need": [
      {
        "size": 1,
        "name": "futurepack:core_p2"
      },
      {
        "size": 1,
        "name": "minecraft:iron_pickaxe"
      },
      {
        "size": 1,
        "name": "minecraft:iron_shovel"
      }
    ],
    "enables": [],
	"rewards":
	[
	  {
        "size": 1,
        "name": "futurepack:minerbox"
      }
	]
  },
  {
    "id": "waffentechnik2",
    "x": 19,
    "y": 1,
    "parents": [
      "lasertechnik"
    ],
    "picon": "WAFFENTECH2",
    "aspects": [
      "neonenergie",
      "biologie",
      "thermodynamic"
    ],
    "level": 2,
    "time": 6000,
    "neon": 48000,
    "support": 80,
    "need": [
      {
        "size": 2,
        "name": "futurepack:laserdiode"
      },
      {
        "size": 16,
        "name": "futurepack:composite_metal"
      },
      {
        "size": 1,
        "name": "futurepack:battery_l"
      }
    ],
    "enables": []
  },
  {
    "id": "menelaus",
    "x": 19,
    "y": -6,
    "parents": [
      "futurepack:menelaus"
    ],
    "picon": "PLANET_MENELAUS",
    "aspects": [],
    "level": 0,
    "time": 0,
    "need": [],
    "enables": []
  },
  {
    "id": "surveyscan.menelaus",
    "x": 19,
    "y": -4,
    "parents": [
      "raumfahrt",
      "menelaus",
      "space.computer",
      "lasertechnik",
      "story.menelaus"
    ],
    "picon": "MENRESULT",
    "aspects": [],
    "level": 0,
    "time": 0,
    "need": [],
    "enables": [
      {
        "name": "futurepack:crystal_retium"
      },
      {
        "name": "futurepack:crystal_glowtite"
      }
    ]
  },
  {
    "id": "upgradeT3",
    "x": 21,
    "y": -4,
    "parents": [
      "surveyscan.menelaus"
    ],
    "aspects": [],
    "level": 0,
    "time": 0,
    "need": [],
    "icon": {
      "name": "futurepack:modul_3_white"
    },
    "enables": [
      {
        "name": "futurepack:modul_3_white"
      },
      {
        "name": "futurepack:modul_3_gray"
      },
      {
        "name": "futurepack:modul_3_black"
      }
    ],
	"rewards":
	[
	  {
        "size": 8,
        "name": "minecraft:experience_bottle"
      }
	]
  },
  {
    "id": "quantentechnik",
    "x": 21,
    "y": -2,
    "parents": [
      "upgradeT3"
    ],
    "picon": "QUANTENTECH",
    "aspects": [
      "neonenergie",
      "morphologie",
      "metallurgie",
      "logistik"
    ],
    "level": 3,
    "time": 6000,
    "neon": 307200,
    "support": 640,
    "expLvl": 100,
    "need": [
      {
        "size": 1,
        "name": "futurepack:core_tct"
      },
      {
        "size": 1,
        "name": "futurepack:ram_tct"
      },
      {
        "size": 6,
        "name": "minecraft:ender_eye"
      },
      {
        "size": 2,
        "tag": "forge:gems/diamond"
      }
    ],
    "enables": [],
	"rewards":
	[
	  {
        "size": 8,
        "name": "futurepack:ingot_quantanium"
      }
	]
  },
  {
    "id": "ionentechnik",
    "x": 22,
    "y": 0,
    "parents": [
      "quantentechnik",
      "production.nind.quantanium"
    ],
    "picon": "IONTECH",
    "aspects": [
      "neonenergie",
      "metallurgie"
    ],
    "level": 3,
    "time": 2400,
    "neon": 1000000,
    "support": 640,
    "expLvl": 600,
    "need": [
      {
        "size": 1,
        "name": "futurepack:chip_industrie"
      },
      {
        "size": 4,
        "name": "futurepack:metal_block_gitter"
      },
      {
        "size": 6,
        "name": "futurepack:coil_neon"
      },
      {
        "size": 4,
        "tag": "forge:ingots/neodymium"
      }
    ],
    "enables": []
  },
  {
    "id": "bergbau2",
    "x": 22,
    "y": 1,
    "parents": [
      "quantentechnik",
      "production.nind.quantanium"
    ],
    "picon": "BERGBAU2",
    "aspects": [
      "neonenergie",
      "thermodynamic",
      "maschinenbau",
      "logistik",
      "geologie"
    ],
    "level": 3,
    "time": 2400,
    "neon": 307200,
    "support": 320,
    "expLvl": 600,
    "need": [
      {
        "size": 1,
        "name": "futurepack:minerbox"
      },
      {
        "size": 4,
        "name": "futurepack:ceramic"
      },
      {
        "size": 1,
        "name": "futurepack:lense_red"
      },
      {
        "size": 4,
        "name": "futurepack:pipe_neon"
      }
    ],
    "enables": [],
	"rewards":
	[
	  {
        "size": 16,
        "name": "futurepack:lense_red"
      }
	]
  },
  {
    "id": "astronomie1",
    "x": 23,
    "y": -2,
    "parents": [
      "quantentechnik",
      "log.battery.compact",
      "production.nind.quantanium"
    ],
    "picon": "ASTRONOMIE",
    "aspects": [
      "neonenergie",
      "energieverbindung",
      "maschinenbau",
      "logistik"
    ],
    "level": 3,
    "time": 4800,
    "neon": 1152000,
    "support": 2048,
    "expLvl": 1200,
    "need": [
      {
        "size": 1,
        "name": "futurepack:compact_energy_cell"
      },
      {
        "size": 1,
        "name": "futurepack:core_master"
      },
      {
        "size": 8,
        "name": "minecraft:ender_pearl"
      },
      {
        "size": 4,
        "name": "futurepack:coil_quantanium"
      }
    ],
    "enables": [],
	"rewards":
	[
	  {
        "size": 1,
        "name": "futurepack:compact_energy_cell"
      }, 
	  {
        "size": 1,
        "name": "futurepack:compact_energy_cell"
      }, 
	  {
        "size": 2,
        "name": "futurepack:coil_quantanium"
      }
	]
  },
  {
    "id": "tyros",
    "x": -4,
    "y": 5,
    "parents": [
      "futurepack:tyros"
    ],
    "picon": "PLANET_TYROS",
    "aspects": [],
    "level": 0,
    "time": 0,
    "need": [],
    "enables": []
  },
  {
    "id": "surveyscan.tyros",
    "x": -2,
    "y": 5,
    "parents": [
      "tyros",
      "story.tyros"
    ],
    "picon": "TYROSRESULT",
    "aspects": [],
    "level": 0,
    "time": 0,
    "need": [],
    "enables": [
      {
        "name": "futurepack:crystal_bioterium"
      },
      {
        "name": "futurepack:prismide"
      }
    ]
  },
  {
    "id": "nanomanip",
    "x": -1,
    "y": 7,
    "parents": [
      "surveyscan.tyros"
    ],
    "picon": "NANOMANIP",
    "aspects": [
      "neonenergie",
      "morphologie",
      "thermodynamic"
    ],
    "level": 3,
    "time": 2400,
    "neon": 307200,
    "support": 320,
    "expLvl": 600,
    "need": [
      {
        "size": 8,
        "tag": "forge:ingots/quantanium"
      },
      {
        "size": 4,
        "name": "futurepack:polymer"
      },
      {
        "size": 1,
        "name": "futurepack:core_master"
      },
      {
        "size": 1,
        "tag": "forge:gems/emerald"
      }
    ],
    "enables": []
  },
  {
    "id": "lasertechnik2",
    "x": -1,
    "y": 8,
    "parents": [
      "surveyscan.tyros"
    ],
    "picon": "LASERTECHNIK2",
    "aspects": [
      "neonenergie",
      "thermodynamic",
      "chemie"
    ],
    "level": 3,
    "time": 2400,
    "neon": 307200,
    "support": 320,
    "expLvl": 600,
    "need": [
      {
        "size": 8,
        "tag": "forge:ingots/quantanium"
      },
      {
        "size": 2,
        "tag": "forge:gems/prismide"
      },
      {
        "size": 1,
        "name": "futurepack:lense_white"
      },
      {
        "size": 1,
        "name": "futurepack:chip_ultimate"
      }
    ],
    "enables": []
  }
]