{
	"texture": "futurepack:textures/gui/planet_envia.png",
	"name": "Envia",
	"upgrades": [
		"lifesupport"
	],
	"breathable_atmosphere": false,
	"oxygen_gravity_velocity": 0.4,
	"oxygen_spread_velocity": 0.2
}