{
  "type": "tconstruct:damagable_melting",
  "conditions": [
        {
            "type": "forge:mod_loaded",
            "modid": "tconstruct"
        }
    ],
    
  "ingredient": [ {
    "item": "futurepack:composite_axe"
  },
  {
    "item": "futurepack:composite_pickaxe"
  }],
  "result": {
    "fluid": "futurepack:molten_composite_metal",
    "amount": 432
  },
  "temperature": 1450,
  "time": 137
}