{
  "type": "futurepack:maschin_shaped",
  "group": "futurepack",
  "pattern": [
    "SGS",
    "TFT",
    "IMI"
  ],
  "key": {
    "S": {
      "constant": "futurepack:ironcoil"
    },
    "T": {
      "constant": "futurepack:fluid_tube"
    },
    "G": {
      "constant": "futurepack:iron_bars"
    },
    "I": {
      "constant": "futurepack:compositemetal"
    },
    "M": {
      "constant": "futurepack:machineboard"
    },
    "F": {
      "constant": "futurepack:black_metal"
    }
  },
  "result": {
    "item": "futurepack:gas_turbine_black"
  }
}