{
  "replace": false,
  "values": [
    "futurepack:log_tyros",
    "futurepack:log_mushroom",
    "futurepack:log_palirie",
    "futurepack:leaves_mushroom",
    "futurepack:door_menelaus_mushroom",
    "futurepack:trapdoor_menelaus_mushroom",
    "futurepack:door_tyros",
    "futurepack:trapdoor_tyros",
    "futurepack:door_palirie",
    "futurepack:trapdoor_palirie",
    "futurepack:planks_mushroom",
    "futurepack:planks_mushroom_slab",
    "futurepack:planks_mushroom_stair",
    "futurepack:planks_mushroom_fence",
    "futurepack:planks_mushroom_gate",
    "futurepack:planks_tyros",
    "futurepack:planks_tyros_slab",
    "futurepack:planks_tyros_stair",
    "futurepack:planks_tyros_fence",
    "futurepack:planks_tyros_gate",
    "futurepack:planks_palirie",
    "futurepack:planks_palirie_slab",
    "futurepack:planks_palirie_stair",
    "futurepack:planks_palirie_fence",
    "futurepack:planks_palirie_gate",
    "futurepack:peakhead",
    "futurepack:hyticus",
    "futurepack:bubbleshroom",
    "futurepack:blueshroom"
  ]
}