{
  "config": {
    "feature": {
      "config": {
        "feature": "futurepack:patch_crawler_hive",
        "decorator": {
          "config": {
            "outer": {
              "config": {},
              "type": "minecraft:square"
            },
            "inner": {
              "config": {
                  "heightmap": "OCEAN_FLOOR_WG"
              },
              "type": "minecraft:heightmap_spread_double"
            }
          },
          "type": "minecraft:decorated"
        }
      },
      "type": "minecraft:decorated"
    },
    "decorator": {
      "config": {
        "chance": 32
      },
      "type": "minecraft:chance"
    }
  },
  "type": "minecraft:decorated"
}