{
	"precipitation": "none",
	"category": "none",
	"depth": 2.1,
	"scale": 0.4,
	"temperature": 0.0,
	"downfall": 0.0,
	"temperature_modifier": "none",
	"effects": {
		"fog_color": 14588311,
		"-foliage_color": "will be calculated",
		"-grass_color": "will be calculated",
		"sky_color": 0,
		"water_color": 0,
		"water_fog_color": 14588311,
		"grass_color_modifier": "none",
		"-particle": {
		},
		"-ambient_sound": "",
		"-additions_sound": {
		},
		"-music": {
		},
		"mood_sound": {
			"sound": "minecraft:ambient.cave",
			"tick_delay": 6000,
			"block_search_extent": 8,
			"offset": 2.0
		}
	},
	"_surface_builder": "futurepack:asteroid_belt_rock_rock_rock",
	"carvers": {
		"air": [
		],
		"liquid": [
		]
	},
	"features": [
		[		],
		[
			"minecraft:lake_lava_underground","minecraft:lake_lava_surface"
		],
		[
			"futurepack:crater"
		],
		[
			"minecraft:monster_room",
			"futurepack:asteroid_belt_ice_clumbs"
		],
		[		],
		[		],
		[
			"futurepack:asteroid_belt_large_particles",
						
			"minecraft:ore_coal_upper", "minecraft:ore_coal_lower",,
			"minecraft:ore_iron_upper","minecraft:ore_iron_middle","minecraft:ore_iron_small",
			"minecraft:ore_gold",
			"minecraft:ore_redstone",

			"minecraft:ore_lapis",
			"minecraft:ore_copper"
		],
		[		],
		[		],
		[
			
		]
	],
	"starts": [
	],
	"spawners": {
		"monster": [
		],
		"creature": [
		],
		"ambient": [
		],
		"water_creature": [
		],
		"water_ambient": [
		],
		"misc": [
		]
	},
	"player_spawn_friendly": false,
	"-parent": "",
	"spawn_costs": {}
}
