{
    "coolDown":300,
    "entrys":
	[
		{ "id":"minecraft:stray", "count":4, "data":"{HandItems:[{id:\"minecraft:bow\",tag:{ench:[{id:48,lvl:3}]},Count:1},{}]}" }
    ],
    "message":{"translate":"dungeon.message.sniper","text":"Snipers!"}
}