{
    "coolDown":100,
    "entrys":
	[
		{ 
		"id":"futurepack:evil_robot",
		 "count":1,
		  "data":		{
			"CustomName":"\"The Emperor\"",
			"CustomNameVisible":1,
			"Attributes":[
				{"Name":"generic.followRange","Base":44},
				{"Name":"generic.attackDamage","Base":11}
			],
			"HandItems":[
				{"id":"futurepack:sword_neon","Count":1},
				{"id":"futurepack:crystalenergycell","Count":1}
			],
			"ArmorItems":[
				{"id":"futurepack:dungeon_boots","Count":1},
				{"id":"futurepack:dungeon_leggings","Count":1},
				{"id":"futurepack:dungeon_chestplate","Count":1},
				{"id":"futurepack:dungeon_helmet","Count":1}
			],
			"HandDropChances":[0.5,2.0], 
			"ArmorDropChances":[0.5,0.5,0.5,0.5]
			} 
		}
    ],
    "message":{"translate":"dungeon.message.the_emperor","text":"The ultimate Emperor!"}
}