{
    "textures": {
        "particle": "futurepack:blocks/misc/fisch_block_vorne",
        "topdown": "futurepack:blocks/misc/fisch_block_vorne",
		"side": "futurepack:blocks/misc/fisch_block"
    },
    "elements": [
        {   "from": [ 0, 0, 0 ],
            "to": [ 16, 4, 16 ],
            "faces": {
                "down":  { "uv": [ 0, 0, 16, 16 ], "texture": "#topdown", "cullface": "down" },
                "up":    { "uv": [ 0, 0, 16, 16 ], "texture": "#topdown" },
                "north": { "uv": [ 0, 12, 16, 16 ], "texture": "#side", "cullface": "north" },
                "south": { "uv": [ 0, 12, 16, 16 ], "texture": "#side", "cullface": "south" },
                "west":  { "uv": [ 0, 12, 16, 16 ], "texture": "#side", "cullface": "west" },
                "east":  { "uv": [ 0, 12, 16, 16 ], "texture": "#side", "cullface": "east" }
            }
        }
    ]
}
