{
	"parent": "block/cube",
	"textures": {
	"particle":"futurepack:blocks/inventory/a_bc_w",
	"down":"futurepack:blocks/inventory/a_bc_w_unten",
	"up":"futurepack:blocks/inventory/a_bc_w_oben",
	"north":"futurepack:blocks/inventory/a_bc_w",
	"east":"futurepack:blocks/inventory/a_bc_w_seite",
	"south":"futurepack:blocks/inventory/a_bc_w_hinten",
	"west":"futurepack:blocks/inventory/a_bc_w_seite"
	}
}
