{
  "parent": "block/slab_top",
  "textures": {
    "bottom": "futurepack:blocks/deko/luftung_blue",
    "top": "futurepack:blocks/deko/luftung_blue",
    "side": "futurepack:blocks/deko/luftung_blue"
  }
}