{
  "parent": "block/slab_top",
  "textures": {
    "bottom": "futurepack:blocks/deko/color_iron_green",
    "top": "futurepack:blocks/deko/color_iron_green",
    "side": "futurepack:blocks/deko/color_iron_green"
  }
}