{
  "parent": "block/inner_stairs",
  "textures": {
    "bottom": "futurepack:blocks/deko/gitter_light_blue",
    "top": "futurepack:blocks/deko/gitter_light_blue",
    "side": "futurepack:blocks/deko/gitter_light_blue"
  }
}