{
  "parent": "block/slab_top",
  "textures": {
    "bottom": "futurepack:blocks/deko/gitter_light_gray",
    "top": "futurepack:blocks/deko/gitter_light_gray",
    "side": "futurepack:blocks/deko/gitter_light_gray"
  }
}