{
  "parent": "block/slab",
  "textures": {
    "bottom": "futurepack:blocks/deko/gitter_orange",
    "top": "futurepack:blocks/deko/gitter_orange",
    "side": "futurepack:blocks/deko/gitter_orange"
  }
}