{
  "parent": "block/slab",
  "textures": {
    "bottom": "futurepack:blocks/deko/luftung_green",
    "top": "futurepack:blocks/deko/luftung_green",
    "side": "futurepack:blocks/deko/luftung_green"
  }
}