{
	"textures": {
		"texture0": "futurepack:blocks/misc/dungeon_spawner0",
		"texture1": "futurepack:blocks/misc/dungeon_spawner1",
		"texture2": "futurepack:blocks/misc/dungeon_spawner2",
		"texture3": "futurepack:blocks/misc/dungeon_spawner3",
		"texture4": "futurepack:blocks/misc/dungeon_spawner4",
		"texture5": "futurepack:blocks/misc/dungeon_spawner5",
		"particle": "futurepack:blocks/misc/dungeon_spawner0"
	},
	"elements": [
		{
			"from": [ 1.0, 11.0, 1.0 ],
			"to": [ 15.0, 13.0, 15.0 ],
			"rotation": { "origin": [ 8, 12, 8 ], "axis": "z", "angle": -45, "rescale": false },
			"faces": {
				"down":	{ "uv": [ 0, 0, 14, 14  ], "texture": "#texture1", "rotation": 270},
				"up":	{ "uv": [ 0, 2, 14, 16  ], "texture": "#texture0", "rotation": 90},
				"north":{ "uv": [ 0, 0, 14, 2  ], "texture": "#texture0"},
				"south":{ "uv": [ 0, 0, 14, 2  ], "texture": "#texture0"},
				"west":	{ "uv": [ 0, 0, 14, 2  ], "texture": "#texture0"},
				"east":	{ "uv": [ 0, 0, 14, 2  ], "texture": "#texture0"}
			}
		},
		{
			"from": [ 7.0, 3.0, 9.0 ],
			"to": [ 9.0, 12.0, 10.0 ],
			"faces": {
				"down":	{ "uv": [ 14, 9, 15, 11  ], "texture": "#texture0", "rotation": 270},
				"up":	{ "uv": [ 14, 9, 15, 11  ], "texture": "#texture0", "rotation": 90},
				"north":{ "uv": [ 0, 0, 2, 9  ], "texture": "#texture2"},
				"south":{ "uv": [ 14, 0, 16, 9  ], "texture": "#texture1"},
				"west":	{ "uv": [ 15, 0, 16, 9  ], "texture": "#texture0"},
				"east":	{ "uv": [ 14, 0, 15, 9  ], "texture": "#texture0"}
			}
		},
		{
			"from": [ 7.0, 3.0, 6.0 ],
			"to": [ 9.0, 12.0, 7.0 ],
			"faces": {
				"down":	{ "uv": [ 14, 9, 15, 11  ], "texture": "#texture0", "rotation": 270},
				"up":	{ "uv": [ 14, 9, 15, 11  ], "texture": "#texture0", "rotation": 90},
				"north":{ "uv": [ 14, 0, 16, 9  ], "texture": "#texture1"},
				"south":{ "uv": [ 0, 0, 2, 9  ], "texture": "#texture2"},
				"west":	{ "uv": [ 14, 0, 15, 9  ], "texture": "#texture0"},
				"east":	{ "uv": [ 15, 0, 16, 9  ], "texture": "#texture0"}
			}
		},
		{
			"from": [ 7.5, 3.0, 7.0 ],
			"to": [ 8.5, 12.0, 9.0 ],
			"faces": {
				"down":	{ "uv": [ 14, 13, 15, 15  ], "texture": "#texture0", "rotation": 270},
				"up":	{ "uv": [ 14, 11, 15, 13  ], "texture": "#texture0", "rotation": 90},
				"north":{ "uv": [ 2, 0, 3, 9  ], "texture": "#texture2"},
				"south":{ "uv": [ 2, 0, 3, 9  ], "texture": "#texture2"},
				"west":	{ "uv": [ 3, 0, 5, 9  ], "texture": "#texture2"},
				"east":	{ "uv": [ 5, 0, 7, 9  ], "texture": "#texture2"}
			}
		},
		{
			"from": [ 0.0, 0.0, 0.0 ],
			"to": [ 16.0, 3.0, 16.0 ],
			"faces": {
				"down":	{ "uv": [ 0, 0, 16, 16  ], "texture": "#texture5", "rotation": 270},
				"up":	{ "uv": [ 0, 0, 16, 16  ], "texture": "#texture4", "rotation": 90},
				"north":{ "uv": [ 0, 3, 16, 6  ], "texture": "#texture3"},
				"south":{ "uv": [ 0, 0, 16, 3  ], "texture": "#texture3"},
				"west":	{ "uv": [ 0, 12, 16, 15  ], "texture": "#texture2"},
				"east":	{ "uv": [ 0, 9, 16, 12  ], "texture": "#texture2"}
			}
		}
	]
}