{
	"parent": "block/cube",
	"textures": 
	{
		"particle": "futurepack:blocks/inventory/fermentation_barrel_side",
		"down": "minecraft:block/iron_block",
		"up": "futurepack:blocks/inventory/fermentation_barrel_top",
		"north": "#change",
		"south": "minecraft:block/iron_block",
		"west": "futurepack:blocks/inventory/fermentation_barrel_side",
		"east": "futurepack:blocks/inventory/fermentation_barrel_side"
	}
}
