{
    "parent": "block/block",
	"textures":
	{
		"slot1":"futurepack:blocks/machines/flash_server_slot1_on"
	},	
	"elements":
	[
		{
			"from": [ 5.0, 12.0, 0.0 ],
			"to": [ 14.0, 14.0, 2.0 ],
			"faces": {
				"north":{ "uv": [ 2, 2, 11, 4  ], "texture": "#slot1"},
				"down":	{ "uv": [ 11, 3, 2, 4  ], "texture": "#slot1"},
				"up":	{ "uv": [ 11, 2, 2, 3  ], "texture": "#slot1"},
				"west":	{ "uv": [ 10, 2, 11, 4  ], "texture": "#slot1"},
				"east":	{ "uv": [ 2, 2, 3, 4  ], "texture": "#slot1"}
			}
		},
		{
			"from": [ 2.0, 13.0, 0.5 ],
			"to": [ 4.0, 14.0, 1.5 ],
			"faces": {
				"north":{ "uv": [ 12, 2, 14, 3  ], "texture": "#slot1"},
				
				"down":	{ "uv": [ 14, 2, 12, 3  ], "texture": "#slot1"},
				"up":	{ "uv": [ 14, 2, 12, 3  ], "texture": "#slot1"},
				"west":	{ "uv": [ 13, 2, 14, 3  ], "texture": "#slot1"},
				"east":	{ "uv": [ 12, 2, 13, 3  ], "texture": "#slot1"}
			}
		}
	]
}
