{
	"parent": "futurepack:block/flash_server_base",
	"textures": {
	"side":"futurepack:blocks/deko/color_iron_white",
	"front":"futurepack:blocks/machines/flash_server_w",
	"back":"futurepack:blocks/deko/luftung_white"
	}
}
