{
	"parent": "block/cube",
	"textures": {
	"particle":"futurepack:blocks/machines/improve_components_front_black",
	"down":"futurepack:blocks/deko/color_iron_black",
	"up":"futurepack:blocks/machines/improve_components_top_black",
	"north":"futurepack:blocks/machines/improve_components_front_black",
	"east":"futurepack:blocks/machines/improve_components_left_black",
	"south":"futurepack:blocks/deko/color_iron_black",
	"west":"futurepack:blocks/machines/improve_components_rechts_black"
	}
}
