{
	"parent": "block/cube",
	"textures": {
	"particle":"futurepack:blocks/machines/improve_components_front_white",
	"down":"futurepack:blocks/deko/color_iron_white",
	"up":"futurepack:blocks/machines/improve_components_top_white",
	"north":"futurepack:blocks/machines/improve_components_front_white",
	"east":"futurepack:blocks/machines/improve_components_left_white",
	"south":"futurepack:blocks/deko/color_iron_white",
	"west":"futurepack:blocks/machines/improve_components_rechts_white"
	}
}
