{
	"parent": "block/cube",
	"textures": {
		"particle":"futurepack:blocks/machines/neon_furnace_vorn_g_off",
		"down":"futurepack:blocks/deko/color_iron_light_gray",
		"up":"futurepack:blocks/machines/wasserturbine_top_g",
		"north":"futurepack:blocks/machines/neon_furnace_vorn_g_off",
		"east":"futurepack:blocks/machines/neon_furnace_seite_g",
		"south":"futurepack:blocks/machines/neon_furnace_seite_g",
		"west":"futurepack:blocks/machines/neon_furnace_seite_g"
	}
}