{
    "parent": "block/block",
	"textures": {
		"texture0": "futurepack:blocks/logistic/lasertransmitter0",
		"texture1": "futurepack:blocks/logistic/lasertransmitter1",
		"texture2": "futurepack:blocks/logistic/lasertransmitter2",
		"texture3": "futurepack:blocks/logistic/lasertransmitter3",
		"particle": "futurepack:blocks/logistic/lasertransmitter1"
	},
	"elements": [
		{
			"from": [ 0.0, 0.0, 0.0 ],
			"to": [ 16.0, 8.0, 16.0 ],
			"faces": {
				"down":	{ "uv": [ 0, 0, 16, 16  ], "texture": "#texture1"},
				"up":	{ "uv": [ 0, 0, 16, 16  ], "texture": "#texture1"},
				"north":{ "uv": [ 0, 1, 16, 9  ], "texture": "#texture0"},
				"south":{ "uv": [ 0, 1, 16, 9  ], "texture": "#texture0"},
				"west":	{ "uv": [ 0, 1, 16, 9  ], "texture": "#texture0"},
				"east":	{ "uv": [ 0, 1, 16, 9  ], "texture": "#texture0"}
			}
		},
		{
			"from": [ 6.0, 8.0, 6.0 ],
			"to": [ 10.0, 11.0, 10.0 ],
			"faces": {
				"down":	{ "uv": [ 7, 1, 11, 5  ], "texture": "#texture2"},
				"up":	{ "uv": [ 1, 11, 5, 15  ], "texture": "#texture2"},
				"north":{ "uv": [ 1, 11, 5, 14  ], "texture": "#texture0"},
				"south":{ "uv": [ 7, 11, 11, 14  ], "texture": "#texture0"},
				"west":	{ "uv": [ 1, 6, 5, 9  ], "texture": "#texture2"},
				"east":	{ "uv": [ 1, 1, 5, 4  ], "texture": "#texture2"}
			}
		},
		{
			"from": [ 5.0, 8.0, 6.0 ],
			"to": [ 11.0, 10.0, 10.0 ],
			"faces": {
				"down":	{ "uv": [ 1, 1, 7, 5  ], "texture": "#texture3"},
				"up":	{ "uv": [ 1, 1, 7, 5  ], "texture": "#texture3"},
				"north":{ "uv": [ 7, 7, 13, 9  ], "texture": "#texture2"},
				"south":{ "uv": [ 7, 7, 13, 9  ], "texture": "#texture2"},
				"west":	{ "uv": [ 7, 11, 11, 13  ], "texture": "#texture2"},
				"east":	{ "uv": [ 7, 11, 11, 13  ], "texture": "#texture2"}
			}
		},
		{
			"from": [ 6.0, 8.0, 5.0 ],
			"to": [ 10.0, 10.0, 11.0 ],
			"faces": {
				"down":	{ "uv": [ 1, 1, 7, 5  ], "texture": "#texture3", "rotation": 270},
				"up":	{ "uv": [ 1, 1, 7, 5  ], "texture": "#texture3", "rotation": 90},
				"north":{ "uv": [ 7, 11, 11, 13  ], "texture": "#texture2"},
				"south":{ "uv": [ 7, 11, 11, 13  ], "texture": "#texture2"},
				"west":	{ "uv": [ 7, 7, 13, 9  ], "texture": "#texture2"},
				"east":	{ "uv": [ 7, 7, 13, 9  ], "texture": "#texture2"}
			}
		},
		{
			"from": [ 10.0, 8.0, 2.0 ],
			"to": [ 14.0, 10.0, 6.0 ],
			"faces": {
				"down":	{ "uv": [ 7, 7, 11, 11  ], "texture": "#texture3"},
				"up":	{ "uv": [ 1, 7, 5, 11  ], "texture": "#texture3"},
				"north":{ "uv": [ 7, 11, 11, 13  ], "texture": "#texture2"},
				"south":{ "uv": [ 7, 11, 11, 13  ], "texture": "#texture2"},
				"west":	{ "uv": [ 7, 11, 11, 13  ], "texture": "#texture2"},
				"east":	{ "uv": [ 7, 11, 11, 13  ], "texture": "#texture2"}
			}
		}
	]
}