{
  "parent": "block/slab",
  "textures": {
    "bottom": "futurepack:blocks/deko/metal_block_gitter",
    "top": "futurepack:blocks/deko/metal_block_gitter",
    "side": "futurepack:blocks/deko/metal_block_gitter"
  }
}