{
  "parent": "block/inner_stairs",
  "textures": {
    "bottom": "futurepack:blocks/deko/metal_block",
    "top": "futurepack:blocks/deko/metal_block",
    "side": "futurepack:blocks/deko/metal_block"
  }
}