{
	"parent": "futurepack:block/modul_base",
	"textures":
	{
		"metal":"futurepack:blocks/deko/color_iron_light_gray",
		"server":"futurepack:blocks/inventory/server_front_g",
		"modul":"futurepack:blocks/inventory/modul_2_g",
		"lufter":"futurepack:blocks/machines/luftung_g"
	}
}
