{
	"parent": "futurepack:block/modul_base",
	"textures":
	{
		"metal":"futurepack:blocks/deko/color_iron_black",
		"server":"futurepack:blocks/inventory/server_front_s",
		"modul":"futurepack:blocks/inventory/modul_1_s",
		"lufter":"futurepack:blocks/machines/luftung_s"
	}
}
