{
    "parent": "block/cube",
    "textures": {
    "particle":"futurepack:blocks/misc/gate_side_flip",
    "down":"futurepack:blocks/deko/color_iron_white",
    "up":"futurepack:blocks/misc/gate_front",
    "north":"futurepack:blocks/misc/gate_side",
    "east":"futurepack:blocks/misc/gate_side",
    "south":"futurepack:blocks/misc/gate_side",
    "west":"futurepack:blocks/misc/gate_side"
    }
}
