{
	"parent": "block/cube",
	"textures": {
	"particle":"futurepack:blocks/machines/opti_bench_front_2",
	"down":"futurepack:blocks/deko/color_iron_black",
	"up":"futurepack:blocks/machines/opti_sempler_top_2",
	"north":"futurepack:blocks/machines/opti_sempler_vorne_2",
    "east":"futurepack:blocks/machines/assembler_links_3",
    "south":"futurepack:blocks/machines/opti_bench_side_2",
    "west":"futurepack:blocks/machines/assembler_rechts_3"
	}
}
