{
	"parent": "block/cube",
	"textures": {
	"particle":"futurepack:blocks/machines/opti_bench_top_0",
	"down":"futurepack:blocks/machines/luftung_w",
	"up":"futurepack:blocks/machines/push_unten",
	"north":"futurepack:blocks/machines/opti_bench_top_0",
	"east":"futurepack:blocks/machines/opti_bench_top_0",
	"south":"futurepack:blocks/machines/opti_bench_top_0",
	"west":"futurepack:blocks/machines/opti_bench_top_0"
	}
}
