{
  "parent": "block/inner_stairs",
  "textures": {
    "bottom": "futurepack:blocks/terrain/planks_parlirie",
    "top": "futurepack:blocks/terrain/planks_parlirie",
    "side": "futurepack:blocks/terrain/planks_parlirie"
  }
}