{
	"parent": "block/cube",
	"textures": {
	"particle":"futurepack:blocks/machines/plasma_gen_front_s_1",
	"down":"futurepack:blocks/deko/color_iron_black",
	"up":"futurepack:blocks/machines/plasma_gen_top_s_0",
	"north":"futurepack:blocks/machines/plasma_gen_front_s_1",
	"east":"futurepack:blocks/deko/color_iron_black",
	"south":"futurepack:blocks/machines/plasma_gen_back_s",
	"west":"futurepack:blocks/deko/color_iron_black"
	}
}
