{
	"parent": "block/cube",
	"textures": {
	"particle":"futurepack:blocks/machines/push_seite_flip",
	"down":"futurepack:blocks/machines/push_unten",
	"up":"futurepack:blocks/machines/push_oben",
	"north":"futurepack:blocks/machines/push_seite_redstone",
	"east":"futurepack:blocks/machines/push_seite_redstone",
	"south":"futurepack:blocks/machines/push_seite_redstone",
	"west":"futurepack:blocks/machines/push_seite_redstone"
	}
}
