{
	"parent": "block/cube",
	"textures": {
		"particle":"futurepack:blocks/machines/desintegrator_b_front_off",
		"down":"futurepack:blocks/deko/color_iron_black",
		"up":"futurepack:blocks/machines/desintegrator_top_b_off",
		"north":"futurepack:blocks/machines/desintegrator_b_front_off",
		"east":"futurepack:blocks/deko/color_iron_black",
		"south":"futurepack:blocks/deko/luftung_black",
		"west":"futurepack:blocks/deko/color_iron_black"
	}
}