{
  "parent": "block/cube_bottom_top",
  "textures": {
    "bottom": "futurepack:blocks/terrain/stone_sandstone_m_bottom",
    "top": "futurepack:blocks/terrain/stone_sandstone_m_top",
    "side": "futurepack:blocks/terrain/stone_smoothsand_m"
  }
}