{
    "parent": "block/cube",
    "textures": {
    "particle":"futurepack:blocks/misc/saplingsand",
    "down":"futurepack:blocks/misc/saplingsand",
    "up":"futurepack:blocks/misc/saplingsand_full",
    "north":"futurepack:blocks/misc/saplingsand",
    "east":"futurepack:blocks/misc/saplingsand",
    "south":"futurepack:blocks/misc/saplingsand",
    "west":"futurepack:blocks/misc/saplingsand"
    }
}
