{
	"parent": "block/cube",
	"textures": {
	"particle":"futurepack:blocks/machines/shared_researcher_front_w",
	"down":"futurepack:blocks/deko/color_iron_white",
	"up":"futurepack:blocks/machines/shared_researcher_top_w",
	"north":"futurepack:blocks/machines/shared_researcher_front_w",
	"east":"futurepack:blocks/deko/color_iron_white",
	"south":"futurepack:blocks/machines/forscherhinten_w",
	"west":"futurepack:blocks/deko/color_iron_white"
	}
}