{
	"parent": "block/cube",
	"textures": {
	"particle":"futurepack:blocks/machines/shared_researcher_front_s",
	"down":"futurepack:blocks/deko/color_iron_black",
	"up":"futurepack:blocks/machines/shared_researcher_top_s",
	"north":"futurepack:blocks/machines/shared_researcher_front_s",
	"east":"futurepack:blocks/deko/color_iron_black",
	"south":"futurepack:blocks/machines/forscherhinten_s",
	"west":"futurepack:blocks/deko/color_iron_black"
	}
}