{
  "parent": "block/stairs",
  "textures": {
    "bottom": "futurepack:blocks/terrain/stone_brick_m",
    "top": "futurepack:blocks/terrain/stone_brick_m",
    "side": "futurepack:blocks/terrain/stone_brick_m"
  }
}