{
	"parent": "block/cube",
	"textures": {
	"particle":"futurepack:blocks/machines/push_unten",
	"down":"futurepack:blocks/machines/push_unten",
	"up":"futurepack:blocks/machines/sorter_out",
	"north":"futurepack:blocks/machines/push_unten",
	"east":"futurepack:blocks/machines/push_unten",
	"south":"futurepack:blocks/machines/push_unten",
	"west":"futurepack:blocks/machines/push_unten"
	}
}
