{
	"parent": "block/cube",
	"textures":
	{
		"particle":"futurepack:blocks/machines/industrieofen",
		"down"    :"futurepack:blocks/machines/industrieofen",
		"up"      :"futurepack:blocks/machines/techcraftingtable_top",
		"north"   :"futurepack:blocks/machines/techcraftingtable_front",
		"east"    :"futurepack:blocks/machines/techcraftingtable_links",
		"south"   :"futurepack:blocks/machines/techcraftingtable_hinten",
		"west"    :"futurepack:blocks/machines/techcraftingtable_rechts"       
	}
}
