{
  "parent": "block/orientable",
  "textures": {
    "top": "futurepack:blocks/deko/color_iron_black",
    "front": "futurepack:blocks/deko/thruster_black_lime",
    "side": "futurepack:blocks/deko/color_iron_black"
  }
}