{
    "parent": "block/block",
    "__createdwith": "opl's Model Creator",
    "ambientocclusion": false,
    "textures": {
        "base": "futurepack:blocks/logistic/fluid_tube",
		"particle": "futurepack:blocks/logistic/fluid_tube_p"
    },
    "elements": [
        {
            "from": [6,0.02,6],
            "to": [10,6,10],
            "faces": {
                "west": {
                    "texture": "#base"
                },
                "east": {
                    "texture": "#base"
                },
                "north": {
                    "texture": "#base"
                },
                "south": {
                    "texture": "#base"
                }
            }
        },
        {
            "from": [5,0.02,5],
            "to": [11,2,11],
            "faces": {
                "up": {
                    "uv": [0,0,6,6],
                    "texture": "#base"
                },
                "west": {
                    "uv": [0,12,6,14],
                    "texture": "#base"
                },
                "east": {
                    "uv": [0,12,6,14],
                    "texture": "#base"
                },
                "north": {
                    "uv": [0,12,6,14],
                    "texture": "#base"
                },
                "south": {
                    "uv": [0,12,6,14],
                    "texture": "#base"
                },
                "down": {
                    "uv": [0,0,6,6],
                    "texture": "#base"
                }
            }
        }
    ]
}