{
    "parent": "block/block",
	"textures": {
		"texture0": "futurepack:blocks/inventory/water_cooler0",
		"texture1": "futurepack:blocks/inventory/water_cooler1",
		"texture2": "futurepack:blocks/inventory/water_cooler2",
		"texture3": "futurepack:blocks/inventory/water_cooler3",
		"texture4": "futurepack:blocks/inventory/water_cooler4",
		"texture5": "futurepack:blocks/inventory/water_cooler5",
		"texture6": "futurepack:blocks/inventory/water_cooler6",
		"transparent": "futurepack:blocks/transparent",
		"particle": "futurepack:blocks/inventory/water_cooler0"
	},
	"elements": [
		{
			"from": [ 0.0, 0.0, 0.0 ],
			"to": [ 16.0, 3.0, 16.0 ],
			"faces": {
				"down":	{ "uv": [ 0, 0, 16, 16  ], "texture": "#texture2"},
				"up":	{ "uv": [ 0, 0, 16, 16  ], "texture": "#texture1"},
				"north":{ "uv": [ 0, 1, 16, 4  ], "texture": "#texture0"},
				"south":{ "uv": [ 0, 1, 16, 4  ], "texture": "#texture0"},
				"west":	{ "uv": [ 0, 1, 16, 4  ], "texture": "#texture0"},
				"east":	{ "uv": [ 0, 1, 16, 4  ], "texture": "#texture0"}
			}
		},
		{
			"from": [ 2.0, 3.0, 2.0 ],
			"to": [ 14.0, 15.0, 14.0 ],
			"faces": {
				"down":	{ "texture": "#transparent" },
				"up":	{ "uv": [ 1, 1, 13, 13  ], "texture": "#texture4"},
				"north":{ "uv": [ 1, 1, 13, 13  ], "texture": "#texture3"},
				"south":{ "uv": [ 1, 1, 13, 13  ], "texture": "#texture3"},
				"west":	{ "uv": [ 1, 1, 13, 13  ], "texture": "#texture3"},
				"east":	{ "uv": [ 1, 1, 13, 13  ], "texture": "#texture3"}
			}
		},
		{
			"from": [ 4.0, 3.0, 14.0 ],
			"to": [ 6.0, 13.0, 16.0 ],
			"faces": {
				"down":	{ "texture": "#transparent" },
				"up":	{ "uv": [ 1, 6, 3, 8  ], "texture": "#texture0"},
				"north":{ "texture": "#transparent" },
				"south":{ "uv": [ 1, 1, 3, 11  ], "texture": "#texture5"},
				"west":	{ "uv": [ 1, 1, 3, 11  ], "texture": "#texture5"},
				"east":	{ "uv": [ 1, 1, 3, 11  ], "texture": "#texture5"}
			}
		},
		{
			"from": [ 10.0, 3.0, 14.0 ],
			"to": [ 12.0, 13.0, 16.0 ],
			"faces": {
				"down":	{ "texture": "#transparent" },
				"up":	{ "uv": [ 1, 6, 3, 8  ], "texture": "#texture0"},
				"north":{ "texture": "#transparent" },
				"south":{ "uv": [ 1, 1, 3, 11  ], "texture": "#texture5"},
				"west":	{ "uv": [ 1, 1, 3, 11  ], "texture": "#texture5"},
				"east":	{ "uv": [ 1, 1, 3, 11  ], "texture": "#texture5"}
			}
		},
		{
			"from": [ 0.0, 3.0, 4.0 ],
			"to": [ 2.0, 13.0, 6.0 ],
			"faces": {
				"down":	{ "texture": "#transparent" },
				"up":	{ "uv": [ 1, 6, 3, 8  ], "texture": "#texture0", "rotation": 90},
				"north":{ "uv": [ 1, 1, 3, 11  ], "texture": "#texture5"},
				"south":{ "uv": [ 1, 1, 3, 11  ], "texture": "#texture5"},
				"west":	{ "uv": [ 1, 1, 3, 11  ], "texture": "#texture5"},
				"east":	{ "texture": "#transparent" }
			}
		},
		{
			"from": [ 0.0, 3.0, 10.0 ],
			"to": [ 2.0, 13.0, 12.0 ],
			"faces": {
				"down":	{ "texture": "#transparent" },
				"up":	{ "uv": [ 1, 6, 3, 8  ], "texture": "#texture0", "rotation": 90},
				"north":{ "uv": [ 1, 1, 3, 11  ], "texture": "#texture5"},
				"south":{ "uv": [ 1, 1, 3, 11  ], "texture": "#texture5"},
				"west":	{ "uv": [ 1, 1, 3, 11  ], "texture": "#texture5"},
				"east":	{ "texture": "#transparent" }
			}
		},
		{
			"from": [ 10.0, 3.0, 0.0 ],
			"to": [ 12.0, 13.0, 2.0 ],
			"faces": {
				"down":	{ "texture": "#transparent" },
				"up":	{ "uv": [ 1, 6, 3, 8  ], "texture": "#texture0", "rotation": 180},
				"north":{ "uv": [ 1, 1, 3, 11  ], "texture": "#texture5"},
				"south":{ "texture": "#transparent" },
				"west":	{ "uv": [ 1, 1, 3, 11  ], "texture": "#texture5"},
				"east":	{ "uv": [ 1, 1, 3, 11  ], "texture": "#texture5"}
			}
		},
		{
			"from": [ 4.0, 3.0, 0.0 ],
			"to": [ 6.0, 13.0, 2.0 ],
			"faces": {
				"down":	{ "texture": "#transparent" },
				"up":	{ "uv": [ 1, 6, 3, 8  ], "texture": "#texture0", "rotation": 180},
				"north":{ "uv": [ 1, 1, 3, 11  ], "texture": "#texture5"},
				"south":{ "texture": "#transparent" },
				"west":	{ "uv": [ 1, 1, 3, 11  ], "texture": "#texture5"},
				"east":	{ "uv": [ 1, 1, 3, 11  ], "texture": "#texture5"}
			}
		},
		{
			"from": [ 14.0, 3.0, 4.0 ],
			"to": [ 16.0, 13.0, 6.0 ],
			"faces": {
				"down":	{ "texture": "#transparent" },
				"up":	{ "uv": [ 1, 6, 3, 8  ], "texture": "#texture0", "rotation": 270},
				"north":{ "uv": [ 1, 1, 3, 11  ], "texture": "#texture5"},
				"south":{ "uv": [ 1, 1, 3, 11  ], "texture": "#texture5"},
				"west":	{ "texture": "#transparent" },
				"east":	{ "uv": [ 1, 1, 3, 11  ], "texture": "#texture5"}
			}
		},
		{
			"from": [ 14.0, 3.0, 10.0 ],
			"to": [ 16.0, 13.0, 12.0 ],
			"faces": {
				"down":	{ "texture": "#transparent" },
				"up":	{ "uv": [ 1, 6, 3, 8  ], "texture": "#texture0", "rotation": 270},
				"north":{ "uv": [ 1, 1, 3, 11  ], "texture": "#texture5"},
				"south":{ "uv": [ 1, 1, 3, 11  ], "texture": "#texture5"},
				"west":	{ "texture": "#transparent" },
				"east":	{ "uv": [ 1, 1, 3, 11  ], "texture": "#texture5"}
			}
		},
		{
			"from": [ 6.0, 6.0, 14.0 ],
			"to": [ 10.0, 10.0, 16.0 ],
			"faces": {
				"down":	{ "uv": [ 7, 10, 11, 12  ], "texture": "#texture0"},
				"up":	{ "uv": [ 5, 6, 9, 8  ], "texture": "#texture0"},
				"north":{ "texture": "#transparent" },
				"south":{ "uv": [ 1, 10, 5, 14  ], "texture": "#texture0"},
				"west":	{ "texture": "#transparent" },
				"east":	{ "texture": "#transparent" }
			}
		},
		{
			"from": [ 0.0, 6.0, 6.0 ],
			"to": [ 2.0, 10.0, 10.0 ],
			"faces": {
				"down":	{ "uv": [ 7, 10, 11, 12  ], "texture": "#texture0", "rotation": 270},
				"up":	{ "uv": [ 5, 6, 9, 8  ], "texture": "#texture0", "rotation": 90},
				"north":{ "texture": "#transparent" },
				"south":{ "texture": "#transparent" },
				"west":	{ "uv": [ 1, 10, 5, 14  ], "texture": "#texture0"},
				"east":	{ "texture": "#transparent" }
			}
		},
		{
			"from": [ 6.0, 6.0, 0.0 ],
			"to": [ 10.0, 10.0, 2.0 ],
			"faces": {
				"down":	{ "uv": [ 7, 10, 11, 12  ], "texture": "#texture0", "rotation": 180},
				"up":	{ "uv": [ 5, 6, 9, 8  ], "texture": "#texture0", "rotation": 180},
				"north":{ "uv": [ 1, 10, 5, 14  ], "texture": "#texture0"},
				"south":{ "texture": "#transparent" },
				"west":	{ "texture": "#transparent" },
				"east":	{ "texture": "#transparent" }
			}
		},
		{
			"from": [ 14.0, 6.0, 6.0 ],
			"to": [ 16.0, 10.0, 10.0 ],
			"faces": {
				"down":	{ "uv": [ 7, 10, 11, 12  ], "texture": "#texture0", "rotation": 90},
				"up":	{ "uv": [ 5, 6, 9, 8  ], "texture": "#texture0", "rotation": 270},
				"north":{ "texture": "#transparent" },
				"south":{ "texture": "#transparent" },
				"west":	{ "texture": "#transparent" },
				"east":	{ "uv": [ 1, 10, 5, 14  ], "texture": "#texture0"}
			}
		},
		{
			"from": [ 3.0, 15.0, 3.0 ],
			"to": [ 13.0, 16.0, 13.0 ],
			"faces": {
				"down":	{ "texture": "#transparent" },
				"up":	{ "uv": [ 1, 1, 11, 11  ], "texture": "#texture6"},
				"north":{ "uv": [ 1, 13, 11, 14  ], "texture": "#texture5"},
				"south":{ "uv": [ 5, 1, 15, 2  ], "texture": "#texture5"},
				"west":	{ "uv": [ 5, 7, 15, 8  ], "texture": "#texture5"},
				"east":	{ "uv": [ 5, 4, 15, 5  ], "texture": "#texture5"}
			}
		}
	]
}