{
	"parent": "block/cube",
	"textures": {
		"particle":"futurepack:blocks/machines/zent_forne_s",
		"down":"futurepack:blocks/deko/color_iron_black",
		"up":"futurepack:blocks/machines/zent_oben",
		"north":"futurepack:blocks/machines/zent_forne_s",
		"east":"futurepack:blocks/machines/zent_seiten_s_an",
		"south":"futurepack:blocks/machines/zent_seiten_s_an",
		"west":"futurepack:blocks/machines/zent_seiten_s_an"
	}
}