{
  "stats": {
    "tconstruct:extra": {
    	"durability": 0.5
    },
    "tconstruct:handle": {
      "durability": 1.2,
      "miningSpeed": 1.21,
      "attackSpeed": 0.9,
      "attackDamage": 1.2
    },
    "tconstruct:head": {
      "durability": 600,
      "miningSpeed": 2.0,
      "harvestLevel": 3,
      "attack": 2.35
    }
  }
}