{
	"precipitation": "none",
	"category": "none",
	"depth": 2.1,
	"scale": 0.4,
	"temperature": 0.0,
	"downfall": 0.3,
	"temperature_modifier": "none",
	"effects": {
		"fog_color": 8642270,
		"-foliage_color": "will be calculated",
		"-grass_color": "will be calculated",
		"sky_color": 15623748,
		"water_color": 8913151,
		"water_fog_color": 8913151,
		"grass_color_modifier": "none",
		"-particle": {
		},
		"-ambient_sound": "",
		"-additions_sound": {
		},
		"-music": {
		},
		"mood_sound": {
			"sound": "minecraft:ambient.cave",
			"tick_delay": 6000,
			"block_search_extent": 8,
			"offset": 2.0
		}
	},
	"surface_builder": "futurepack:envia_stone_stone_gravel",
	"carvers": {
		"air": [
			"futurepack:envia_crater"
		],
		"liquid": [
		]
	},
	"features": [
		[		],
		[
			"minecraft:lake_lava_underground","minecraft:lake_lava_surface"
		],
		[
			"futurepack:crater"
		],
		[
			"minecraft:monster_room"
		],
		[		],
		[		],
		[		],
		[		],
		[		],
		[
			
		]
	],
	"starts": [
	],
	"spawners": {
		"monster": [
		],
		"creature": [
		],
		"ambient": [
		],
		"water_creature": [
		],
		"water_ambient": [
		],
		"misc": [
		]
	},
	"player_spawn_friendly": false,
	"-parent": "",
	"spawn_costs": {}
}
