{
  "inventorys": [],
  "doors": [
    {
      "facing": 4,
      "w": 1,
      "h": 3,
      "d": 3,
      "start": "0,1,1"
    },
    {
      "facing": 4,
      "w": 1,
      "h": 3,
      "d": 3,
      "start": "0,6,1"
    }
  ],
  "data": {
    "0-0-0": 0,
    "0-0-1": 1,
    "0-0-2": 2,
    "0-0-3": 1,
    "0-0-4": 0,
    "0-1-0": 0,
    "0-1-1": 1,
    "0-1-2": 3,
    "0-1-3": 1,
    "0-1-4": 0,
    "0-2-0": 4,
    "0-2-1": 1,
    "0-2-2": 3,
    "0-2-3": 1,
    "0-2-4": 4,
    "0-3-0": 0,
    "0-3-1": 1,
    "0-3-2": 3,
    "0-3-3": 1,
    "0-3-4": 0,
    "0-4-0": 0,
    "0-4-1": 1,
    "0-4-2": 3,
    "0-4-3": 1,
    "0-4-4": 0,
    "0-5-0": 0,
    "0-5-1": 1,
    "0-5-2": 3,
    "0-5-3": 1,
    "0-5-4": 0,
    "0-6-0": 0,
    "0-6-1": 1,
    "0-6-2": 3,
    "0-6-3": 1,
    "0-6-4": 0,
    "0-7-0": 4,
    "0-7-1": 1,
    "0-7-2": 3,
    "0-7-3": 1,
    "0-7-4": 4,
    "0-8-0": 0,
    "0-8-1": 1,
    "0-8-2": 5,
    "0-8-3": 1,
    "0-8-4": 0,
    "0-9-0": 0,
    "0-9-1": 1,
    "0-9-2": 2,
    "0-9-3": 1,
    "0-9-4": 0,
    "1-0-0": 0,
    "1-0-1": 0,
    "1-0-2": 0,
    "1-0-3": 0,
    "1-0-4": 0,
    "1-1-0": 0,
    "1-1-1": 0,
    "1-1-2": 0,
    "1-1-3": 0,
    "1-1-4": 0,
    "1-2-0": 4,
    "1-2-1": 4,
    "1-2-2": 4,
    "1-2-3": 4,
    "1-2-4": 4,
    "1-3-0": 0,
    "1-3-1": 0,
    "1-3-2": 0,
    "1-3-3": 0,
    "1-3-4": 0,
    "1-4-0": 0,
    "1-4-1": 0,
    "1-4-2": 0,
    "1-4-3": 0,
    "1-4-4": 0,
    "1-5-0": 0,
    "1-5-1": 0,
    "1-5-2": 0,
    "1-5-3": 0,
    "1-5-4": 0,
    "1-6-0": 0,
    "1-6-1": 0,
    "1-6-2": 0,
    "1-6-3": 0,
    "1-6-4": 0,
    "1-7-0": 4,
    "1-7-1": 4,
    "1-7-2": 4,
    "1-7-3": 4,
    "1-7-4": 4,
    "1-8-0": 0,
    "1-8-1": 0,
    "1-8-2": 0,
    "1-8-3": 0,
    "1-8-4": 0,
    "1-9-0": 0,
    "1-9-1": 0,
    "1-9-2": 0,
    "1-9-3": 0,
    "1-9-4": 0
  },
  "stateMap": {
    "0": "futurepack:color_iron_gray:",
    "1": "futurepack:quantanium:down\u003dtrue;east\u003dtrue;north\u003dtrue;south\u003dtrue;up\u003dtrue;west\u003dtrue",
    "2": "futurepack:color_iron_black:",
    "3": "futurepack:ironladder:facing\u003dwest;waterlogged\u003dfalse",
    "4": "futurepack:color_iron_purple:",
    "5": "minecraft:air:"
  }
}