{
  "inventorys": [],
  "doors": [
    {
      "facing": 3,
      "w": 3,
      "h": 3,
      "d": 1,
      "start": "1,1,7"
    },
    {
      "facing": 3,
      "w": 3,
      "h": 3,
      "d": 1,
      "start": "1,6,7"
    }
  ],
  "data": {
    "0-0-0": 0,
    "0-0-1": 0,
    "0-0-2": 0,
    "0-0-3": 0,
    "0-0-4": 0,
    "0-0-5": 0,
    "0-0-6": 0,
    "0-0-7": 0,
    "0-1-0": 0,
    "0-1-1": 0,
    "0-1-2": 0,
    "0-1-3": 0,
    "0-1-4": 0,
    "0-1-5": 0,
    "0-1-6": 0,
    "0-1-7": 0,
    "0-2-0": 1,
    "0-2-1": 1,
    "0-2-2": 1,
    "0-2-3": 1,
    "0-2-4": 1,
    "0-2-5": 1,
    "0-2-6": 1,
    "0-2-7": 1,
    "0-3-0": 0,
    "0-3-1": 0,
    "0-3-2": 0,
    "0-3-3": 0,
    "0-3-4": 0,
    "0-3-5": 0,
    "0-3-6": 0,
    "0-3-7": 0,
    "0-4-0": 0,
    "0-4-1": 0,
    "0-4-2": 0,
    "0-4-3": 0,
    "0-4-4": 0,
    "0-4-5": 0,
    "0-4-6": 0,
    "0-4-7": 0,
    "0-5-0": 0,
    "0-5-1": 0,
    "0-5-2": 0,
    "0-5-3": 0,
    "0-5-4": 0,
    "0-5-5": 0,
    "0-5-6": 0,
    "0-5-7": 0,
    "0-6-0": 0,
    "0-6-1": 0,
    "0-6-2": 0,
    "0-6-3": 0,
    "0-6-4": 0,
    "0-6-5": 0,
    "0-6-6": 0,
    "0-6-7": 0,
    "0-7-0": 1,
    "0-7-1": 1,
    "0-7-2": 1,
    "0-7-3": 1,
    "0-7-4": 1,
    "0-7-5": 1,
    "0-7-6": 1,
    "0-7-7": 1,
    "0-8-0": 0,
    "0-8-1": 0,
    "0-8-2": 0,
    "0-8-3": 0,
    "0-8-4": 0,
    "0-8-5": 0,
    "0-8-6": 0,
    "0-8-7": 0,
    "0-9-0": 0,
    "0-9-1": 0,
    "0-9-2": 0,
    "0-9-3": 0,
    "0-9-4": 0,
    "0-9-5": 0,
    "0-9-6": 0,
    "0-9-7": 0,
    "1-0-0": 0,
    "1-0-1": 2,
    "1-0-2": 2,
    "1-0-3": 2,
    "1-0-4": 2,
    "1-0-5": 2,
    "1-0-6": 2,
    "1-0-7": 2,
    "1-1-0": 0,
    "1-1-1": 2,
    "1-1-2": 3,
    "1-1-3": 3,
    "1-1-4": 3,
    "1-1-5": 3,
    "1-1-6": 3,
    "1-1-7": 3,
    "1-2-0": 1,
    "1-2-1": 2,
    "1-2-2": 3,
    "1-2-3": 3,
    "1-2-4": 3,
    "1-2-5": 3,
    "1-2-6": 3,
    "1-2-7": 3,
    "1-3-0": 0,
    "1-3-1": 2,
    "1-3-2": 3,
    "1-3-3": 3,
    "1-3-4": 3,
    "1-3-5": 3,
    "1-3-6": 3,
    "1-3-7": 3,
    "1-4-0": 0,
    "1-4-1": 2,
    "1-4-2": 2,
    "1-4-3": 2,
    "1-4-4": 2,
    "1-4-5": 2,
    "1-4-6": 2,
    "1-4-7": 2,
    "1-5-0": 0,
    "1-5-1": 2,
    "1-5-2": 2,
    "1-5-3": 2,
    "1-5-4": 2,
    "1-5-5": 2,
    "1-5-6": 2,
    "1-5-7": 2,
    "1-6-0": 0,
    "1-6-1": 2,
    "1-6-2": 3,
    "1-6-3": 3,
    "1-6-4": 3,
    "1-6-5": 3,
    "1-6-6": 3,
    "1-6-7": 3,
    "1-7-0": 1,
    "1-7-1": 2,
    "1-7-2": 3,
    "1-7-3": 3,
    "1-7-4": 3,
    "1-7-5": 3,
    "1-7-6": 3,
    "1-7-7": 3,
    "1-8-0": 0,
    "1-8-1": 2,
    "1-8-2": 3,
    "1-8-3": 3,
    "1-8-4": 3,
    "1-8-5": 3,
    "1-8-6": 3,
    "1-8-7": 3,
    "1-9-0": 0,
    "1-9-1": 2,
    "1-9-2": 2,
    "1-9-3": 2,
    "1-9-4": 2,
    "1-9-5": 2,
    "1-9-6": 2,
    "1-9-7": 2,
    "2-0-0": 0,
    "2-0-1": 2,
    "2-0-2": 4,
    "2-0-3": 4,
    "2-0-4": 4,
    "2-0-5": 4,
    "2-0-6": 4,
    "2-0-7": 4,
    "2-1-0": 0,
    "2-1-1": 5,
    "2-1-2": 3,
    "2-1-3": 3,
    "2-1-4": 3,
    "2-1-5": 3,
    "2-1-6": 3,
    "2-1-7": 3,
    "2-2-0": 1,
    "2-2-1": 5,
    "2-2-2": 3,
    "2-2-3": 3,
    "2-2-4": 3,
    "2-2-5": 3,
    "2-2-6": 3,
    "2-2-7": 3,
    "2-3-0": 0,
    "2-3-1": 5,
    "2-3-2": 3,
    "2-3-3": 3,
    "2-3-4": 3,
    "2-3-5": 3,
    "2-3-6": 3,
    "2-3-7": 3,
    "2-4-0": 0,
    "2-4-1": 5,
    "2-4-2": 4,
    "2-4-3": 4,
    "2-4-4": 4,
    "2-4-5": 4,
    "2-4-6": 4,
    "2-4-7": 4,
    "2-5-0": 0,
    "2-5-1": 5,
    "2-5-2": 4,
    "2-5-3": 4,
    "2-5-4": 4,
    "2-5-5": 4,
    "2-5-6": 4,
    "2-5-7": 4,
    "2-6-0": 0,
    "2-6-1": 5,
    "2-6-2": 3,
    "2-6-3": 3,
    "2-6-4": 3,
    "2-6-5": 3,
    "2-6-6": 3,
    "2-6-7": 3,
    "2-7-0": 1,
    "2-7-1": 5,
    "2-7-2": 3,
    "2-7-3": 3,
    "2-7-4": 3,
    "2-7-5": 3,
    "2-7-6": 3,
    "2-7-7": 3,
    "2-8-0": 0,
    "2-8-1": 5,
    "2-8-2": 3,
    "2-8-3": 3,
    "2-8-4": 3,
    "2-8-5": 3,
    "2-8-6": 3,
    "2-8-7": 3,
    "2-9-0": 0,
    "2-9-1": 4,
    "2-9-2": 4,
    "2-9-3": 4,
    "2-9-4": 4,
    "2-9-5": 4,
    "2-9-6": 4,
    "2-9-7": 4,
    "3-0-0": 0,
    "3-0-1": 2,
    "3-0-2": 2,
    "3-0-3": 2,
    "3-0-4": 2,
    "3-0-5": 2,
    "3-0-6": 2,
    "3-0-7": 2,
    "3-1-0": 0,
    "3-1-1": 2,
    "3-1-2": 3,
    "3-1-3": 3,
    "3-1-4": 3,
    "3-1-5": 3,
    "3-1-6": 3,
    "3-1-7": 3,
    "3-2-0": 1,
    "3-2-1": 2,
    "3-2-2": 3,
    "3-2-3": 3,
    "3-2-4": 3,
    "3-2-5": 3,
    "3-2-6": 3,
    "3-2-7": 3,
    "3-3-0": 0,
    "3-3-1": 2,
    "3-3-2": 3,
    "3-3-3": 3,
    "3-3-4": 3,
    "3-3-5": 3,
    "3-3-6": 3,
    "3-3-7": 3,
    "3-4-0": 0,
    "3-4-1": 2,
    "3-4-2": 2,
    "3-4-3": 2,
    "3-4-4": 2,
    "3-4-5": 2,
    "3-4-6": 2,
    "3-4-7": 2,
    "3-5-0": 0,
    "3-5-1": 2,
    "3-5-2": 2,
    "3-5-3": 2,
    "3-5-4": 2,
    "3-5-5": 2,
    "3-5-6": 2,
    "3-5-7": 2,
    "3-6-0": 0,
    "3-6-1": 2,
    "3-6-2": 3,
    "3-6-3": 3,
    "3-6-4": 3,
    "3-6-5": 3,
    "3-6-6": 3,
    "3-6-7": 3,
    "3-7-0": 1,
    "3-7-1": 2,
    "3-7-2": 3,
    "3-7-3": 3,
    "3-7-4": 3,
    "3-7-5": 3,
    "3-7-6": 3,
    "3-7-7": 3,
    "3-8-0": 0,
    "3-8-1": 2,
    "3-8-2": 3,
    "3-8-3": 3,
    "3-8-4": 3,
    "3-8-5": 3,
    "3-8-6": 3,
    "3-8-7": 3,
    "3-9-0": 0,
    "3-9-1": 2,
    "3-9-2": 2,
    "3-9-3": 2,
    "3-9-4": 2,
    "3-9-5": 2,
    "3-9-6": 2,
    "3-9-7": 2,
    "4-0-0": 0,
    "4-0-1": 0,
    "4-0-2": 0,
    "4-0-3": 0,
    "4-0-4": 0,
    "4-0-5": 0,
    "4-0-6": 0,
    "4-0-7": 0,
    "4-1-0": 0,
    "4-1-1": 0,
    "4-1-2": 0,
    "4-1-3": 0,
    "4-1-4": 0,
    "4-1-5": 0,
    "4-1-6": 0,
    "4-1-7": 0,
    "4-2-0": 1,
    "4-2-1": 1,
    "4-2-2": 1,
    "4-2-3": 1,
    "4-2-4": 1,
    "4-2-5": 1,
    "4-2-6": 1,
    "4-2-7": 1,
    "4-3-0": 0,
    "4-3-1": 0,
    "4-3-2": 0,
    "4-3-3": 0,
    "4-3-4": 0,
    "4-3-5": 0,
    "4-3-6": 0,
    "4-3-7": 0,
    "4-4-0": 0,
    "4-4-1": 0,
    "4-4-2": 0,
    "4-4-3": 0,
    "4-4-4": 0,
    "4-4-5": 0,
    "4-4-6": 0,
    "4-4-7": 0,
    "4-5-0": 0,
    "4-5-1": 0,
    "4-5-2": 0,
    "4-5-3": 0,
    "4-5-4": 0,
    "4-5-5": 0,
    "4-5-6": 0,
    "4-5-7": 0,
    "4-6-0": 0,
    "4-6-1": 0,
    "4-6-2": 0,
    "4-6-3": 0,
    "4-6-4": 0,
    "4-6-5": 0,
    "4-6-6": 0,
    "4-6-7": 0,
    "4-7-0": 1,
    "4-7-1": 1,
    "4-7-2": 1,
    "4-7-3": 1,
    "4-7-4": 1,
    "4-7-5": 1,
    "4-7-6": 1,
    "4-7-7": 1,
    "4-8-0": 0,
    "4-8-1": 0,
    "4-8-2": 0,
    "4-8-3": 0,
    "4-8-4": 0,
    "4-8-5": 0,
    "4-8-6": 0,
    "4-8-7": 0,
    "4-9-0": 0,
    "4-9-1": 0,
    "4-9-2": 0,
    "4-9-3": 0,
    "4-9-4": 0,
    "4-9-5": 0,
    "4-9-6": 0,
    "4-9-7": 0
  },
  "stateMap": {
    "0": "futurepack:color_iron_gray:",
    "1": "futurepack:color_iron_purple:",
    "2": "futurepack:quantanium:down\u003dtrue;east\u003dtrue;north\u003dtrue;south\u003dtrue;up\u003dtrue;west\u003dtrue",
    "3": "minecraft:air:",
    "4": "futurepack:color_iron_black:",
    "5": "futurepack:ironladder:facing\u003dsouth;waterlogged\u003dfalse"
  }
}