{
  "data": {
    "0-0-0": "0",
    "0-0-1": "1",
    "0-0-2": "2",
    "0-0-3": "1",
    "0-0-4": "0",
    "0-1-0": "0",
    "0-1-1": "8",
    "0-1-2": "8",
    "0-1-3": "8",
    "0-1-4": "0",
    "0-2-0": "4",
    "0-2-1": "8",
    "0-2-2": "8",
    "0-2-3": "8",
    "0-2-4": "4",
    "0-3-0": "0",
    "0-3-1": "8",
    "0-3-2": "8",
    "0-3-3": "8",
    "0-3-4": "0",
    "0-4-0": "0",
    "0-4-1": "5",
    "0-4-2": "2",
    "0-4-3": "5",
    "0-4-4": "0",
    "0-5-0": "0",
    "0-5-1": "6",
    "0-5-2": "2",
    "0-5-3": "6",
    "0-5-4": "0",
    "0-6-0": "0",
    "0-6-1": "8",
    "0-6-2": "8",
    "0-6-3": "8",
    "0-6-4": "0",
    "0-7-0": "4",
    "0-7-1": "8",
    "0-7-2": "8",
    "0-7-3": "8",
    "0-7-4": "4",
    "0-8-0": "0",
    "0-8-1": "8",
    "0-8-2": "8",
    "0-8-3": "8",
    "0-8-4": "0",
    "0-9-0": "0",
    "0-9-1": "1",
    "0-9-2": "2",
    "0-9-3": "1",
    "0-9-4": "0",
    "1-0-0": "0",
    "1-0-1": "7",
    "1-0-2": "2",
    "1-0-3": "7",
    "1-0-4": "0",
    "1-1-0": "0",
    "1-1-1": "8",
    "1-1-2": "8",
    "1-1-3": "8",
    "1-1-4": "0",
    "1-2-0": "4",
    "1-2-1": "8",
    "1-2-2": "8",
    "1-2-3": "8",
    "1-2-4": "4",
    "1-3-0": "0",
    "1-3-1": "8",
    "1-3-2": "8",
    "1-3-3": "8",
    "1-3-4": "0",
    "1-4-0": "0",
    "1-4-1": "9",
    "1-4-2": "2",
    "1-4-3": "9",
    "1-4-4": "0",
    "1-5-0": "0",
    "1-5-1": "a",
    "1-5-2": "2",
    "1-5-3": "a",
    "1-5-4": "0",
    "1-6-0": "0",
    "1-6-1": "8",
    "1-6-2": "8",
    "1-6-3": "b",
    "1-6-4": "0",
    "1-7-0": "4",
    "1-7-1": "8",
    "1-7-2": "8",
    "1-7-3": "8",
    "1-7-4": "4",
    "1-8-0": "0",
    "1-8-1": "8",
    "1-8-2": "8",
    "1-8-3": "8",
    "1-8-4": "0",
    "1-9-0": "0",
    "1-9-1": "7",
    "1-9-2": "2",
    "1-9-3": "7",
    "1-9-4": "0",
    "2-0-0": "0",
    "2-0-1": "7",
    "2-0-2": "2",
    "2-0-3": "7",
    "2-0-4": "0",
    "2-1-0": "0",
    "2-1-1": "8",
    "2-1-2": "8",
    "2-1-3": "8",
    "2-1-4": "0",
    "2-2-0": "4",
    "2-2-1": "8",
    "2-2-2": "8",
    "2-2-3": "8",
    "2-2-4": "4",
    "2-3-0": "0",
    "2-3-1": "8",
    "2-3-2": "8",
    "2-3-3": "8",
    "2-3-4": "0",
    "2-4-0": "0",
    "2-4-1": "9",
    "2-4-2": "2",
    "2-4-3": "9",
    "2-4-4": "0",
    "2-5-0": "0",
    "2-5-1": "a",
    "2-5-2": "2",
    "2-5-3": "a",
    "2-5-4": "0",
    "2-6-0": "0",
    "2-6-1": "8",
    "2-6-2": "8",
    "2-6-3": "b",
    "2-6-4": "0",
    "2-7-0": "4",
    "2-7-1": "8",
    "2-7-2": "8",
    "2-7-3": "8",
    "2-7-4": "4",
    "2-8-0": "0",
    "2-8-1": "8",
    "2-8-2": "8",
    "2-8-3": "8",
    "2-8-4": "0",
    "2-9-0": "0",
    "2-9-1": "7",
    "2-9-2": "2",
    "2-9-3": "7",
    "2-9-4": "0",
    "3-0-0": "0",
    "3-0-1": "c",
    "3-0-2": "2",
    "3-0-3": "c",
    "3-0-4": "0",
    "3-1-0": "0",
    "3-1-1": "d",
    "3-1-2": "e",
    "3-1-3": "d",
    "3-1-4": "0",
    "3-2-0": "4",
    "3-2-1": "d",
    "3-2-2": "e",
    "3-2-3": "d",
    "3-2-4": "4",
    "3-3-0": "0",
    "3-3-1": "d",
    "3-3-2": "e",
    "3-3-3": "d",
    "3-3-4": "0",
    "3-4-0": "0",
    "3-4-1": "f",
    "3-4-2": "e",
    "3-4-3": "f",
    "3-4-4": "0",
    "3-5-0": "0",
    "3-5-1": "f",
    "3-5-2": "e",
    "3-5-3": "f",
    "3-5-4": "0",
    "3-6-0": "0",
    "3-6-1": "d",
    "3-6-2": "e",
    "3-6-3": "d",
    "3-6-4": "0",
    "3-7-0": "4",
    "3-7-1": "d",
    "3-7-2": "8",
    "3-7-3": "d",
    "3-7-4": "4",
    "3-8-0": "0",
    "3-8-1": "d",
    "3-8-2": "8",
    "3-8-3": "d",
    "3-8-4": "0",
    "3-9-0": "0",
    "3-9-1": "10",
    "3-9-2": "2",
    "3-9-3": "10",
    "3-9-4": "0",
    "4-0-0": "0",
    "4-0-1": "0",
    "4-0-2": "0",
    "4-0-3": "0",
    "4-0-4": "0",
    "4-1-0": "0",
    "4-1-1": "0",
    "4-1-2": "11",
    "4-1-3": "0",
    "4-1-4": "0",
    "4-2-0": "4",
    "4-2-1": "4",
    "4-2-2": "d",
    "4-2-3": "4",
    "4-2-4": "4",
    "4-3-0": "0",
    "4-3-1": "0",
    "4-3-2": "d",
    "4-3-3": "0",
    "4-3-4": "0",
    "4-4-0": "0",
    "4-4-1": "0",
    "4-4-2": "d",
    "4-4-3": "0",
    "4-4-4": "0",
    "4-5-0": "0",
    "4-5-1": "0",
    "4-5-2": "d",
    "4-5-3": "0",
    "4-5-4": "0",
    "4-6-0": "0",
    "4-6-1": "0",
    "4-6-2": "d",
    "4-6-3": "0",
    "4-6-4": "0",
    "4-7-0": "4",
    "4-7-1": "4",
    "4-7-2": "d",
    "4-7-3": "4",
    "4-7-4": "4",
    "4-8-0": "0",
    "4-8-1": "0",
    "4-8-2": "12",
    "4-8-3": "0",
    "4-8-4": "0",
    "4-9-0": "0",
    "4-9-1": "0",
    "4-9-2": "0",
    "4-9-3": "0",
    "4-9-4": "0"
  },
  "inventorys": [],
  "doors": [
    {
      "facing": 4,
      "w": 1,
      "h": 3,
      "d": 3,
      "start": "0,1,1",
      "type": "water"
    },
    {
      "facing": 4,
      "w": 1,
      "h": 3,
      "d": 3,
      "start": "0,6,1",
      "type": "water"
    }
  ],
  "stateMap": {
    "0": "futurepack:color_iron_gray:",
    "1": "futurepack:quantanium:down\u003dfalse;east\u003dtrue;glowing\u003dfalse;north\u003dfalse;south\u003dfalse;up\u003dfalse;west\u003dfalse",
    "10": "futurepack:quantanium:down\u003dtrue;east\u003dfalse;glowing\u003dfalse;north\u003dfalse;south\u003dfalse;up\u003dfalse;west\u003dtrue",
    "11": "futurepack:quantanium:down\u003dfalse;east\u003dfalse;glowing\u003dfalse;north\u003dfalse;south\u003dfalse;up\u003dtrue;west\u003dfalse",
    "12": "futurepack:quantanium:down\u003dtrue;east\u003dfalse;glowing\u003dfalse;north\u003dfalse;south\u003dfalse;up\u003dfalse;west\u003dfalse",
    "2": "futurepack:color_iron_black:",
    "3": "minecraft:air:",
    "4": "futurepack:color_iron_purple:",
    "5": "futurepack:quantanium:down\u003dfalse;east\u003dtrue;glowing\u003dfalse;north\u003dfalse;south\u003dfalse;up\u003dtrue;west\u003dfalse",
    "6": "futurepack:quantanium:down\u003dtrue;east\u003dtrue;glowing\u003dfalse;north\u003dfalse;south\u003dfalse;up\u003dfalse;west\u003dfalse",
    "7": "futurepack:quantanium:down\u003dfalse;east\u003dtrue;glowing\u003dfalse;north\u003dfalse;south\u003dfalse;up\u003dfalse;west\u003dtrue",
    "8": "minecraft:water:level\u003d0",
    "9": "futurepack:quantanium:down\u003dfalse;east\u003dtrue;glowing\u003dfalse;north\u003dfalse;south\u003dfalse;up\u003dtrue;west\u003dtrue",
    "a": "futurepack:quantanium:down\u003dtrue;east\u003dtrue;glowing\u003dfalse;north\u003dfalse;south\u003dfalse;up\u003dfalse;west\u003dtrue",
    "b": "minecraft:water:level\u003d8",
    "c": "futurepack:quantanium:down\u003dfalse;east\u003dfalse;glowing\u003dfalse;north\u003dfalse;south\u003dfalse;up\u003dtrue;west\u003dtrue",
    "d": "futurepack:quantanium:down\u003dtrue;east\u003dfalse;glowing\u003dfalse;north\u003dfalse;south\u003dfalse;up\u003dtrue;west\u003dfalse",
    "e": "futurepack:ironladder:facing\u003dwest;waterlogged\u003dtrue",
    "f": "futurepack:quantanium:down\u003dtrue;east\u003dfalse;glowing\u003dfalse;north\u003dfalse;south\u003dfalse;up\u003dtrue;west\u003dtrue"
  }
}