{
  "inventorys": [
    {
      "pos": "1-1-1",
      "loot": "futurepack:chests/ld_flash"
    },
    {
      "pos": "1-2-1",
      "loot": "futurepack:chests/ld_flash"
    },
    {
      "pos": "1-3-1",
      "loot": "futurepack:chests/ld_flash"
    },
    {
      "pos": "3-1-1",
      "loot": "futurepack:chests/ld_flash"
    },
    {
      "pos": "3-2-1",
      "loot": "futurepack:chests/ld_flash"
    },
    {
      "pos": "3-3-1",
      "loot": "futurepack:chests/ld_flash"
    }
  ],
  "doors": [
    {
      "facing": 2,
      "w": 3,
      "h": 3,
      "d": 1,
      "start": "1,1,0"
    }
  ],
  "data": {
    "0-0-0": 0,
    "0-0-1": 0,
    "0-1-0": 0,
    "0-1-1": 0,
    "0-2-0": 1,
    "0-2-1": 1,
    "0-3-0": 0,
    "0-3-1": 0,
    "0-4-0": 0,
    "0-4-1": 0,
    "1-0-0": 2,
    "1-0-1": 2,
    "1-1-0": 3,
    "1-1-1": 4,
    "1-2-0": 3,
    "1-2-1": 4,
    "1-3-0": 3,
    "1-3-1": 4,
    "1-4-0": 2,
    "1-4-1": 2,
    "2-0-0": 5,
    "2-0-1": 5,
    "2-1-0": 3,
    "2-1-1": 6,
    "2-2-0": 3,
    "2-2-1": 6,
    "2-3-0": 3,
    "2-3-1": 6,
    "2-4-0": 5,
    "2-4-1": 5,
    "3-0-0": 2,
    "3-0-1": 2,
    "3-1-0": 3,
    "3-1-1": 4,
    "3-2-0": 3,
    "3-2-1": 4,
    "3-3-0": 3,
    "3-3-1": 4,
    "3-4-0": 2,
    "3-4-1": 2,
    "4-0-0": 0,
    "4-0-1": 0,
    "4-1-0": 0,
    "4-1-1": 0,
    "4-2-0": 1,
    "4-2-1": 1,
    "4-3-0": 0,
    "4-3-1": 0,
    "4-4-0": 0,
    "4-4-1": 0
  },
  "stateMap": {
    "0": "futurepack:color_iron_gray:",
    "1": "futurepack:color_iron_purple:",
    "2": "futurepack:quantanium:down\u003dtrue;east\u003dtrue;north\u003dtrue;south\u003dtrue;up\u003dtrue;west\u003dtrue",
    "3": "minecraft:air:",
    "4": "futurepack:flash_server_gray:facing\u003dnorth;slot1\u003dtrue;slot2\u003dtrue;slot3\u003dtrue;slot4\u003dtrue",
    "5": "futurepack:color_iron_black:",
    "6": "futurepack:color_luftung_light_gray:"
  }
}