{
  "data": {
    "0-0-5": "0",
    "0-0-6": "1",
    "0-0-7": "2",
    "0-0-8": "1",
    "0-0-9": "0",
    "0-1-5": "0",
    "0-1-6": "3",
    "0-1-7": "3",
    "0-1-8": "3",
    "0-1-9": "0",
    "0-2-5": "4",
    "0-2-6": "3",
    "0-2-7": "3",
    "0-2-8": "3",
    "0-2-9": "4",
    "0-3-5": "0",
    "0-3-6": "3",
    "0-3-7": "3",
    "0-3-8": "3",
    "0-3-9": "0",
    "0-4-5": "0",
    "0-4-6": "5",
    "0-4-7": "2",
    "0-4-8": "6",
    "0-4-9": "0",
    "0-5-5": "0",
    "0-5-6": "7",
    "0-5-7": "2",
    "0-5-8": "8",
    "0-5-9": "0",
    "0-6-5": "0",
    "0-6-6": "3",
    "0-6-7": "3",
    "0-6-8": "3",
    "0-6-9": "0",
    "0-7-5": "4",
    "0-7-6": "3",
    "0-7-7": "3",
    "0-7-8": "3",
    "0-7-9": "4",
    "0-8-5": "0",
    "0-8-6": "3",
    "0-8-7": "3",
    "0-8-8": "3",
    "0-8-9": "0",
    "0-9-5": "0",
    "0-9-6": "1",
    "0-9-7": "2",
    "0-9-8": "1",
    "0-9-9": "0",
    "1-0-5": "0",
    "1-0-6": "9",
    "1-0-7": "2",
    "1-0-8": "9",
    "1-0-9": "0",
    "1-1-5": "0",
    "1-1-6": "3",
    "1-1-7": "3",
    "1-1-8": "a",
    "1-1-9": "0",
    "1-2-5": "4",
    "1-2-6": "3",
    "1-2-7": "3",
    "1-2-8": "a",
    "1-2-9": "4",
    "1-3-5": "0",
    "1-3-6": "3",
    "1-3-7": "3",
    "1-3-8": "a",
    "1-3-9": "0",
    "1-4-5": "0",
    "1-4-6": "b",
    "1-4-7": "2",
    "1-4-8": "a",
    "1-4-9": "0",
    "1-5-1": "3",
    "1-5-5": "0",
    "1-5-6": "c",
    "1-5-7": "2",
    "1-5-8": "a",
    "1-5-9": "0",
    "1-6-5": "0",
    "1-6-6": "3",
    "1-6-7": "3",
    "1-6-8": "a",
    "1-6-9": "0",
    "1-7-5": "4",
    "1-7-6": "3",
    "1-7-7": "3",
    "1-7-8": "3",
    "1-7-9": "4",
    "1-8-5": "0",
    "1-8-6": "3",
    "1-8-7": "3",
    "1-8-8": "3",
    "1-8-9": "0",
    "1-9-5": "0",
    "1-9-6": "9",
    "1-9-7": "2",
    "1-9-8": "9",
    "1-9-9": "0",
    "2-0-5": "0",
    "2-0-6": "9",
    "2-0-7": "2",
    "2-0-8": "9",
    "2-0-9": "0",
    "2-1-5": "0",
    "2-1-6": "3",
    "2-1-7": "3",
    "2-1-8": "3",
    "2-1-9": "0",
    "2-2-5": "4",
    "2-2-6": "3",
    "2-2-7": "3",
    "2-2-8": "3",
    "2-2-9": "4",
    "2-3-5": "0",
    "2-3-6": "3",
    "2-3-7": "3",
    "2-3-8": "3",
    "2-3-9": "0",
    "2-4-5": "0",
    "2-4-6": "b",
    "2-4-7": "2",
    "2-4-8": "5",
    "2-4-9": "0",
    "2-5-5": "0",
    "2-5-6": "c",
    "2-5-7": "2",
    "2-5-8": "7",
    "2-5-9": "0",
    "2-6-5": "0",
    "2-6-6": "3",
    "2-6-7": "3",
    "2-6-8": "3",
    "2-6-9": "0",
    "2-7-5": "4",
    "2-7-6": "3",
    "2-7-7": "3",
    "2-7-8": "3",
    "2-7-9": "4",
    "2-8-5": "0",
    "2-8-6": "3",
    "2-8-7": "3",
    "2-8-8": "3",
    "2-8-9": "0",
    "2-9-5": "0",
    "2-9-6": "9",
    "2-9-7": "2",
    "2-9-8": "9",
    "2-9-9": "0",
    "3-0-3": "0",
    "3-0-4": "0",
    "3-0-5": "0",
    "3-0-6": "d",
    "3-0-7": "2",
    "3-0-8": "d",
    "3-0-9": "0",
    "3-0-10": "0",
    "3-0-11": "0",
    "3-1-3": "0",
    "3-1-4": "0",
    "3-1-5": "0",
    "3-1-6": "3",
    "3-1-7": "3",
    "3-1-8": "3",
    "3-1-9": "0",
    "3-1-10": "0",
    "3-1-11": "0",
    "3-2-3": "4",
    "3-2-4": "4",
    "3-2-5": "4",
    "3-2-6": "3",
    "3-2-7": "3",
    "3-2-8": "3",
    "3-2-9": "4",
    "3-2-10": "4",
    "3-2-11": "4",
    "3-3-3": "0",
    "3-3-4": "0",
    "3-3-5": "0",
    "3-3-6": "3",
    "3-3-7": "3",
    "3-3-8": "3",
    "3-3-9": "0",
    "3-3-10": "0",
    "3-3-11": "0",
    "3-4-3": "0",
    "3-4-4": "0",
    "3-4-5": "0",
    "3-4-6": "e",
    "3-4-7": "2",
    "3-4-8": "e",
    "3-4-9": "0",
    "3-4-10": "0",
    "3-4-11": "0",
    "3-5-3": "0",
    "3-5-4": "0",
    "3-5-5": "0",
    "3-5-6": "f",
    "3-5-7": "2",
    "3-5-8": "f",
    "3-5-9": "0",
    "3-5-10": "0",
    "3-5-11": "0",
    "3-6-5": "0",
    "3-6-6": "10",
    "3-6-7": "11",
    "3-6-8": "10",
    "3-6-9": "0",
    "3-7-5": "4",
    "3-7-6": "12",
    "3-7-7": "13",
    "3-7-8": "12",
    "3-7-9": "4",
    "3-8-5": "0",
    "3-8-6": "0",
    "3-8-7": "14",
    "3-8-8": "0",
    "3-8-9": "0",
    "3-9-5": "0",
    "3-9-6": "d",
    "3-9-7": "2",
    "3-9-8": "d",
    "3-9-9": "0",
    "4-0-2": "0",
    "4-0-3": "0",
    "4-0-4": "15",
    "4-0-5": "16",
    "4-0-6": "2",
    "4-0-7": "2",
    "4-0-8": "2",
    "4-0-9": "15",
    "4-0-10": "16",
    "4-0-11": "0",
    "4-0-12": "0",
    "4-1-2": "0",
    "4-1-3": "0",
    "4-1-4": "3",
    "4-1-5": "3",
    "4-1-6": "3",
    "4-1-7": "3",
    "4-1-8": "3",
    "4-1-9": "3",
    "4-1-10": "3",
    "4-1-11": "0",
    "4-1-12": "0",
    "4-2-2": "4",
    "4-2-3": "4",
    "4-2-4": "3",
    "4-2-5": "3",
    "4-2-6": "3",
    "4-2-7": "3",
    "4-2-8": "3",
    "4-2-9": "3",
    "4-2-10": "3",
    "4-2-11": "4",
    "4-2-12": "4",
    "4-3-2": "0",
    "4-3-3": "0",
    "4-3-4": "3",
    "4-3-5": "3",
    "4-3-6": "3",
    "4-3-7": "3",
    "4-3-8": "3",
    "4-3-9": "3",
    "4-3-10": "3",
    "4-3-11": "0",
    "4-3-12": "0",
    "4-4-2": "0",
    "4-4-3": "0",
    "4-4-4": "17",
    "4-4-5": "18",
    "4-4-6": "2",
    "4-4-7": "2",
    "4-4-8": "2",
    "4-4-9": "17",
    "4-4-10": "18",
    "4-4-11": "0",
    "4-4-12": "0",
    "4-5-2": "0",
    "4-5-3": "0",
    "4-5-4": "19",
    "4-5-5": "1a",
    "4-5-6": "2",
    "4-5-7": "2",
    "4-5-8": "2",
    "4-5-9": "19",
    "4-5-10": "1a",
    "4-5-11": "0",
    "4-5-12": "0",
    "4-6-2": "0",
    "4-6-3": "0",
    "4-6-4": "0",
    "4-6-5": "0",
    "4-6-6": "3",
    "4-6-7": "1b",
    "4-6-8": "3",
    "4-6-9": "0",
    "4-6-10": "0",
    "4-6-11": "0",
    "4-6-12": "0",
    "4-7-2": "4",
    "4-7-3": "4",
    "4-7-4": "4",
    "4-7-5": "4",
    "4-7-6": "3",
    "4-7-7": "3",
    "4-7-8": "3",
    "4-7-9": "4",
    "4-7-10": "4",
    "4-7-11": "4",
    "4-7-12": "4",
    "4-8-2": "0",
    "4-8-3": "0",
    "4-8-4": "0",
    "4-8-5": "0",
    "4-8-6": "3",
    "4-8-7": "3",
    "4-8-8": "3",
    "4-8-9": "0",
    "4-8-10": "0",
    "4-8-11": "0",
    "4-8-12": "0",
    "4-9-2": "0",
    "4-9-3": "0",
    "4-9-4": "0",
    "4-9-5": "0",
    "4-9-6": "2",
    "4-9-7": "2",
    "4-9-8": "2",
    "4-9-9": "0",
    "4-9-10": "0",
    "4-9-11": "0",
    "4-9-12": "0",
    "5-0-1": "0",
    "5-0-2": "0",
    "5-0-3": "1c",
    "5-0-4": "2",
    "5-0-5": "2",
    "5-0-6": "2",
    "5-0-7": "2",
    "5-0-8": "2",
    "5-0-9": "2",
    "5-0-10": "2",
    "5-0-11": "1c",
    "5-0-12": "0",
    "5-0-13": "0",
    "5-1-1": "0",
    "5-1-2": "0",
    "5-1-3": "3",
    "5-1-4": "3",
    "5-1-5": "3",
    "5-1-6": "3",
    "5-1-7": "3",
    "5-1-8": "3",
    "5-1-9": "3",
    "5-1-10": "3",
    "5-1-11": "3",
    "5-1-12": "0",
    "5-1-13": "0",
    "5-2-1": "4",
    "5-2-2": "4",
    "5-2-3": "3",
    "5-2-4": "3",
    "5-2-5": "3",
    "5-2-6": "3",
    "5-2-7": "3",
    "5-2-8": "3",
    "5-2-9": "3",
    "5-2-10": "3",
    "5-2-11": "3",
    "5-2-12": "4",
    "5-2-13": "4",
    "5-3-1": "0",
    "5-3-2": "0",
    "5-3-3": "3",
    "5-3-4": "3",
    "5-3-5": "3",
    "5-3-6": "3",
    "5-3-7": "3",
    "5-3-8": "3",
    "5-3-9": "3",
    "5-3-10": "3",
    "5-3-11": "3",
    "5-3-12": "0",
    "5-3-13": "0",
    "5-4-1": "0",
    "5-4-2": "0",
    "5-4-3": "6",
    "5-4-4": "2",
    "5-4-5": "2",
    "5-4-6": "2",
    "5-4-7": "2",
    "5-4-8": "2",
    "5-4-9": "2",
    "5-4-10": "2",
    "5-4-11": "6",
    "5-4-12": "0",
    "5-4-13": "0",
    "5-5-1": "0",
    "5-5-2": "0",
    "5-5-3": "8",
    "5-5-4": "2",
    "5-5-5": "2",
    "5-5-6": "2",
    "5-5-7": "2",
    "5-5-8": "2",
    "5-5-9": "2",
    "5-5-10": "2",
    "5-5-11": "8",
    "5-5-12": "0",
    "5-5-13": "0",
    "5-6-2": "0",
    "5-6-3": "3",
    "5-6-4": "3",
    "5-6-5": "3",
    "5-6-6": "3",
    "5-6-7": "3",
    "5-6-8": "3",
    "5-6-9": "3",
    "5-6-10": "3",
    "5-6-11": "3",
    "5-6-12": "0",
    "5-7-2": "4",
    "5-7-3": "3",
    "5-7-4": "3",
    "5-7-5": "3",
    "5-7-6": "3",
    "5-7-7": "3",
    "5-7-8": "3",
    "5-7-9": "3",
    "5-7-10": "3",
    "5-7-11": "3",
    "5-7-12": "4",
    "5-8-2": "0",
    "5-8-3": "3",
    "5-8-4": "3",
    "5-8-5": "3",
    "5-8-6": "3",
    "5-8-7": "3",
    "5-8-8": "3",
    "5-8-9": "3",
    "5-8-10": "3",
    "5-8-11": "3",
    "5-8-12": "0",
    "5-9-2": "0",
    "5-9-3": "2",
    "5-9-4": "2",
    "5-9-5": "2",
    "5-9-6": "2",
    "5-9-7": "2",
    "5-9-8": "2",
    "5-9-9": "2",
    "5-9-10": "2",
    "5-9-11": "2",
    "5-9-12": "0",
    "6-0-1": "0",
    "6-0-2": "1",
    "6-0-3": "2",
    "6-0-4": "2",
    "6-0-5": "2",
    "6-0-6": "2",
    "6-0-7": "2",
    "6-0-8": "2",
    "6-0-9": "2",
    "6-0-10": "2",
    "6-0-11": "2",
    "6-0-12": "1",
    "6-0-13": "0",
    "6-1-1": "0",
    "6-1-2": "3",
    "6-1-3": "3",
    "6-1-4": "3",
    "6-1-5": "3",
    "6-1-6": "3",
    "6-1-7": "3",
    "6-1-8": "3",
    "6-1-9": "3",
    "6-1-10": "3",
    "6-1-11": "3",
    "6-1-12": "3",
    "6-1-13": "0",
    "6-2-1": "4",
    "6-2-2": "3",
    "6-2-3": "3",
    "6-2-4": "3",
    "6-2-5": "3",
    "6-2-6": "3",
    "6-2-7": "3",
    "6-2-8": "3",
    "6-2-9": "3",
    "6-2-10": "3",
    "6-2-11": "3",
    "6-2-12": "3",
    "6-2-13": "4",
    "6-3-1": "0",
    "6-3-2": "3",
    "6-3-3": "3",
    "6-3-4": "3",
    "6-3-5": "3",
    "6-3-6": "3",
    "6-3-7": "3",
    "6-3-8": "3",
    "6-3-9": "3",
    "6-3-10": "3",
    "6-3-11": "3",
    "6-3-12": "3",
    "6-3-13": "0",
    "6-4-1": "0",
    "6-4-2": "5",
    "6-4-3": "2",
    "6-4-4": "2",
    "6-4-5": "2",
    "6-4-6": "2",
    "6-4-7": "2",
    "6-4-8": "2",
    "6-4-9": "2",
    "6-4-10": "2",
    "6-4-11": "2",
    "6-4-12": "5",
    "6-4-13": "0",
    "6-5-1": "0",
    "6-5-2": "7",
    "6-5-3": "2",
    "6-5-4": "2",
    "6-5-5": "2",
    "6-5-6": "2",
    "6-5-7": "2",
    "6-5-8": "2",
    "6-5-9": "2",
    "6-5-10": "2",
    "6-5-11": "2",
    "6-5-12": "7",
    "6-5-13": "0",
    "6-6-2": "0",
    "6-6-3": "3",
    "6-6-4": "2",
    "6-6-5": "2",
    "6-6-6": "1d",
    "6-6-7": "1d",
    "6-6-8": "1d",
    "6-6-9": "2",
    "6-6-10": "2",
    "6-6-11": "3",
    "6-6-12": "0",
    "6-7-2": "4",
    "6-7-3": "3",
    "6-7-4": "2",
    "6-7-5": "2",
    "6-7-6": "1d",
    "6-7-7": "1d",
    "6-7-8": "1d",
    "6-7-9": "2",
    "6-7-10": "2",
    "6-7-11": "3",
    "6-7-12": "4",
    "6-8-2": "0",
    "6-8-3": "3",
    "6-8-4": "2",
    "6-8-5": "2",
    "6-8-6": "2",
    "6-8-7": "2",
    "6-8-8": "2",
    "6-8-9": "2",
    "6-8-10": "2",
    "6-8-11": "3",
    "6-8-12": "0",
    "6-9-2": "0",
    "6-9-3": "2",
    "6-9-4": "2",
    "6-9-5": "2",
    "6-9-6": "2",
    "6-9-7": "2",
    "6-9-8": "2",
    "6-9-9": "2",
    "6-9-10": "2",
    "6-9-11": "2",
    "6-9-12": "0",
    "7-0-0": "0",
    "7-0-1": "0",
    "7-0-2": "d",
    "7-0-3": "2",
    "7-0-4": "2",
    "7-0-5": "2",
    "7-0-6": "15",
    "7-0-7": "1e",
    "7-0-8": "16",
    "7-0-9": "2",
    "7-0-10": "2",
    "7-0-11": "2",
    "7-0-12": "d",
    "7-0-13": "0",
    "7-0-14": "0",
    "7-1-0": "0",
    "7-1-1": "0",
    "7-1-2": "3",
    "7-1-3": "3",
    "7-1-4": "3",
    "7-1-5": "3",
    "7-1-6": "3",
    "7-1-7": "3",
    "7-1-8": "3",
    "7-1-9": "3",
    "7-1-10": "3",
    "7-1-11": "3",
    "7-1-12": "3",
    "7-1-13": "0",
    "7-1-14": "0",
    "7-2-0": "4",
    "7-2-1": "4",
    "7-2-2": "3",
    "7-2-3": "3",
    "7-2-4": "3",
    "7-2-5": "3",
    "7-2-6": "3",
    "7-2-7": "3",
    "7-2-8": "3",
    "7-2-9": "3",
    "7-2-10": "3",
    "7-2-11": "3",
    "7-2-12": "3",
    "7-2-13": "4",
    "7-2-14": "4",
    "7-3-0": "0",
    "7-3-1": "0",
    "7-3-2": "3",
    "7-3-3": "3",
    "7-3-4": "3",
    "7-3-5": "3",
    "7-3-6": "3",
    "7-3-7": "3",
    "7-3-8": "3",
    "7-3-9": "3",
    "7-3-10": "3",
    "7-3-11": "3",
    "7-3-12": "3",
    "7-3-13": "0",
    "7-3-14": "0",
    "7-4-0": "0",
    "7-4-1": "0",
    "7-4-2": "e",
    "7-4-3": "2",
    "7-4-4": "2",
    "7-4-5": "2",
    "7-4-6": "2",
    "7-4-7": "2",
    "7-4-8": "2",
    "7-4-9": "2",
    "7-4-10": "2",
    "7-4-11": "2",
    "7-4-12": "e",
    "7-4-13": "0",
    "7-4-14": "0",
    "7-5-0": "0",
    "7-5-1": "0",
    "7-5-2": "f",
    "7-5-3": "2",
    "7-5-4": "2",
    "7-5-5": "2",
    "7-5-6": "2",
    "7-5-7": "2",
    "7-5-8": "2",
    "7-5-9": "2",
    "7-5-10": "2",
    "7-5-11": "2",
    "7-5-12": "f",
    "7-5-13": "0",
    "7-5-14": "0",
    "7-6-2": "0",
    "7-6-3": "3",
    "7-6-4": "2",
    "7-6-5": "3",
    "7-6-6": "3",
    "7-6-7": "3",
    "7-6-8": "3",
    "7-6-9": "3",
    "7-6-10": "2",
    "7-6-11": "3",
    "7-6-12": "0",
    "7-7-2": "4",
    "7-7-3": "3",
    "7-7-4": "2",
    "7-7-5": "3",
    "7-7-6": "3",
    "7-7-7": "3",
    "7-7-8": "3",
    "7-7-9": "3",
    "7-7-10": "2",
    "7-7-11": "3",
    "7-7-12": "4",
    "7-8-2": "0",
    "7-8-3": "3",
    "7-8-4": "2",
    "7-8-5": "3",
    "7-8-6": "3",
    "7-8-7": "3",
    "7-8-8": "3",
    "7-8-9": "3",
    "7-8-10": "2",
    "7-8-11": "3",
    "7-8-12": "0",
    "7-9-2": "0",
    "7-9-3": "2",
    "7-9-4": "2",
    "7-9-5": "2",
    "7-9-6": "2",
    "7-9-7": "2",
    "7-9-8": "2",
    "7-9-9": "2",
    "7-9-10": "2",
    "7-9-11": "2",
    "7-9-12": "0",
    "8-0-0": "0",
    "8-0-1": "1",
    "8-0-2": "2",
    "8-0-3": "2",
    "8-0-4": "2",
    "8-0-5": "1",
    "8-0-6": "2",
    "8-0-7": "2",
    "8-0-8": "2",
    "8-0-9": "1",
    "8-0-10": "2",
    "8-0-11": "2",
    "8-0-12": "2",
    "8-0-13": "1",
    "8-0-14": "0",
    "8-1-0": "0",
    "8-1-1": "3",
    "8-1-2": "3",
    "8-1-3": "3",
    "8-1-4": "3",
    "8-1-5": "3",
    "8-1-6": "3",
    "8-1-7": "3",
    "8-1-8": "3",
    "8-1-9": "3",
    "8-1-10": "3",
    "8-1-11": "3",
    "8-1-12": "3",
    "8-1-13": "3",
    "8-1-14": "0",
    "8-2-0": "4",
    "8-2-1": "3",
    "8-2-2": "3",
    "8-2-3": "3",
    "8-2-4": "3",
    "8-2-5": "3",
    "8-2-6": "3",
    "8-2-7": "3",
    "8-2-8": "3",
    "8-2-9": "3",
    "8-2-10": "3",
    "8-2-11": "3",
    "8-2-12": "3",
    "8-2-13": "3",
    "8-2-14": "4",
    "8-3-0": "0",
    "8-3-1": "3",
    "8-3-2": "3",
    "8-3-3": "3",
    "8-3-4": "3",
    "8-3-5": "3",
    "8-3-6": "3",
    "8-3-7": "3",
    "8-3-8": "3",
    "8-3-9": "3",
    "8-3-10": "3",
    "8-3-11": "3",
    "8-3-12": "3",
    "8-3-13": "3",
    "8-3-14": "0",
    "8-4-0": "0",
    "8-4-1": "5",
    "8-4-2": "2",
    "8-4-3": "2",
    "8-4-4": "2",
    "8-4-5": "2",
    "8-4-6": "2",
    "8-4-7": "2",
    "8-4-8": "2",
    "8-4-9": "2",
    "8-4-10": "2",
    "8-4-11": "2",
    "8-4-12": "2",
    "8-4-13": "5",
    "8-4-14": "0",
    "8-5-0": "0",
    "8-5-1": "7",
    "8-5-2": "2",
    "8-5-3": "2",
    "8-5-4": "2",
    "8-5-5": "2",
    "8-5-6": "2",
    "8-5-7": "2",
    "8-5-8": "2",
    "8-5-9": "2",
    "8-5-10": "2",
    "8-5-11": "2",
    "8-5-12": "2",
    "8-5-13": "7",
    "8-5-14": "0",
    "8-6-2": "0",
    "8-6-3": "3",
    "8-6-4": "1d",
    "8-6-5": "3",
    "8-6-6": "3",
    "8-6-7": "3",
    "8-6-8": "3",
    "8-6-9": "3",
    "8-6-10": "1d",
    "8-6-11": "3",
    "8-6-12": "0",
    "8-7-2": "4",
    "8-7-3": "3",
    "8-7-4": "1d",
    "8-7-5": "3",
    "8-7-6": "3",
    "8-7-7": "3",
    "8-7-8": "3",
    "8-7-9": "3",
    "8-7-10": "1d",
    "8-7-11": "3",
    "8-7-12": "4",
    "8-8-2": "0",
    "8-8-3": "3",
    "8-8-4": "2",
    "8-8-5": "3",
    "8-8-6": "3",
    "8-8-7": "3",
    "8-8-8": "3",
    "8-8-9": "3",
    "8-8-10": "2",
    "8-8-11": "3",
    "8-8-12": "0",
    "8-9-2": "0",
    "8-9-3": "2",
    "8-9-4": "2",
    "8-9-5": "2",
    "8-9-6": "2",
    "8-9-7": "2",
    "8-9-8": "2",
    "8-9-9": "2",
    "8-9-10": "2",
    "8-9-11": "2",
    "8-9-12": "0",
    "9-0-0": "0",
    "9-0-1": "9",
    "9-0-2": "2",
    "9-0-3": "2",
    "9-0-4": "2",
    "9-0-5": "9",
    "9-0-6": "2",
    "9-0-7": "2",
    "9-0-8": "2",
    "9-0-9": "9",
    "9-0-10": "2",
    "9-0-11": "2",
    "9-0-12": "2",
    "9-0-13": "9",
    "9-0-14": "0",
    "9-1-0": "0",
    "9-1-1": "3",
    "9-1-2": "3",
    "9-1-3": "1f",
    "9-1-4": "3",
    "9-1-5": "3",
    "9-1-6": "3",
    "9-1-7": "20",
    "9-1-8": "3",
    "9-1-9": "3",
    "9-1-10": "3",
    "9-1-11": "1f",
    "9-1-12": "3",
    "9-1-13": "3",
    "9-1-14": "0",
    "9-2-0": "4",
    "9-2-1": "3",
    "9-2-2": "3",
    "9-2-3": "3",
    "9-2-4": "3",
    "9-2-5": "3",
    "9-2-6": "3",
    "9-2-7": "3",
    "9-2-8": "3",
    "9-2-9": "3",
    "9-2-10": "3",
    "9-2-11": "3",
    "9-2-12": "3",
    "9-2-13": "3",
    "9-2-14": "4",
    "9-3-0": "0",
    "9-3-1": "3",
    "9-3-2": "3",
    "9-3-3": "3",
    "9-3-4": "3",
    "9-3-5": "3",
    "9-3-6": "3",
    "9-3-7": "3",
    "9-3-8": "3",
    "9-3-9": "3",
    "9-3-10": "3",
    "9-3-11": "3",
    "9-3-12": "3",
    "9-3-13": "3",
    "9-3-14": "0",
    "9-4-0": "0",
    "9-4-1": "b",
    "9-4-2": "2",
    "9-4-3": "2",
    "9-4-4": "2",
    "9-4-5": "2",
    "9-4-6": "2",
    "9-4-7": "2",
    "9-4-8": "2",
    "9-4-9": "2",
    "9-4-10": "2",
    "9-4-11": "2",
    "9-4-12": "2",
    "9-4-13": "b",
    "9-4-14": "0",
    "9-5-0": "0",
    "9-5-1": "c",
    "9-5-2": "2",
    "9-5-3": "2",
    "9-5-4": "2",
    "9-5-5": "2",
    "9-5-6": "2",
    "9-5-7": "2",
    "9-5-8": "2",
    "9-5-9": "2",
    "9-5-10": "2",
    "9-5-11": "2",
    "9-5-12": "2",
    "9-5-13": "c",
    "9-5-14": "0",
    "9-6-2": "0",
    "9-6-3": "3",
    "9-6-4": "1d",
    "9-6-5": "3",
    "9-6-6": "3",
    "9-6-7": "3",
    "9-6-8": "3",
    "9-6-9": "3",
    "9-6-10": "1d",
    "9-6-11": "3",
    "9-6-12": "0",
    "9-7-2": "4",
    "9-7-3": "3",
    "9-7-4": "1d",
    "9-7-5": "3",
    "9-7-6": "3",
    "9-7-7": "3",
    "9-7-8": "3",
    "9-7-9": "3",
    "9-7-10": "1d",
    "9-7-11": "3",
    "9-7-12": "4",
    "9-8-2": "0",
    "9-8-3": "3",
    "9-8-4": "2",
    "9-8-5": "3",
    "9-8-6": "3",
    "9-8-7": "3",
    "9-8-8": "3",
    "9-8-9": "3",
    "9-8-10": "2",
    "9-8-11": "3",
    "9-8-12": "0",
    "9-9-2": "0",
    "9-9-3": "2",
    "9-9-4": "2",
    "9-9-5": "2",
    "9-9-6": "2",
    "9-9-7": "2",
    "9-9-8": "2",
    "9-9-9": "2",
    "9-9-10": "2",
    "9-9-11": "2",
    "9-9-12": "0",
    "10-0-0": "0",
    "10-0-1": "d",
    "10-0-2": "2",
    "10-0-3": "2",
    "10-0-4": "2",
    "10-0-5": "d",
    "10-0-6": "2",
    "10-0-7": "2",
    "10-0-8": "2",
    "10-0-9": "d",
    "10-0-10": "2",
    "10-0-11": "2",
    "10-0-12": "2",
    "10-0-13": "d",
    "10-0-14": "0",
    "10-1-0": "0",
    "10-1-1": "3",
    "10-1-2": "3",
    "10-1-3": "3",
    "10-1-4": "3",
    "10-1-5": "3",
    "10-1-6": "3",
    "10-1-7": "3",
    "10-1-8": "3",
    "10-1-9": "3",
    "10-1-10": "3",
    "10-1-11": "3",
    "10-1-12": "3",
    "10-1-13": "3",
    "10-1-14": "0",
    "10-2-0": "4",
    "10-2-1": "3",
    "10-2-2": "3",
    "10-2-3": "3",
    "10-2-4": "3",
    "10-2-5": "3",
    "10-2-6": "3",
    "10-2-7": "3",
    "10-2-8": "3",
    "10-2-9": "3",
    "10-2-10": "3",
    "10-2-11": "3",
    "10-2-12": "3",
    "10-2-13": "3",
    "10-2-14": "4",
    "10-3-0": "0",
    "10-3-1": "3",
    "10-3-2": "3",
    "10-3-3": "3",
    "10-3-4": "3",
    "10-3-5": "3",
    "10-3-6": "3",
    "10-3-7": "3",
    "10-3-8": "3",
    "10-3-9": "3",
    "10-3-10": "3",
    "10-3-11": "3",
    "10-3-12": "3",
    "10-3-13": "3",
    "10-3-14": "0",
    "10-4-0": "0",
    "10-4-1": "e",
    "10-4-2": "2",
    "10-4-3": "2",
    "10-4-4": "2",
    "10-4-5": "2",
    "10-4-6": "2",
    "10-4-7": "2",
    "10-4-8": "2",
    "10-4-9": "2",
    "10-4-10": "2",
    "10-4-11": "2",
    "10-4-12": "2",
    "10-4-13": "e",
    "10-4-14": "0",
    "10-5-0": "0",
    "10-5-1": "f",
    "10-5-2": "2",
    "10-5-3": "2",
    "10-5-4": "2",
    "10-5-5": "2",
    "10-5-6": "2",
    "10-5-7": "2",
    "10-5-8": "2",
    "10-5-9": "2",
    "10-5-10": "2",
    "10-5-11": "2",
    "10-5-12": "2",
    "10-5-13": "f",
    "10-5-14": "0",
    "10-6-2": "0",
    "10-6-3": "3",
    "10-6-4": "1d",
    "10-6-5": "3",
    "10-6-6": "3",
    "10-6-7": "3",
    "10-6-8": "3",
    "10-6-9": "3",
    "10-6-10": "1d",
    "10-6-11": "3",
    "10-6-12": "0",
    "10-7-2": "4",
    "10-7-3": "3",
    "10-7-4": "1d",
    "10-7-5": "3",
    "10-7-6": "3",
    "10-7-7": "3",
    "10-7-8": "3",
    "10-7-9": "3",
    "10-7-10": "1d",
    "10-7-11": "3",
    "10-7-12": "4",
    "10-8-2": "0",
    "10-8-3": "3",
    "10-8-4": "2",
    "10-8-5": "3",
    "10-8-6": "3",
    "10-8-7": "3",
    "10-8-8": "3",
    "10-8-9": "3",
    "10-8-10": "2",
    "10-8-11": "3",
    "10-8-12": "0",
    "10-9-2": "0",
    "10-9-3": "2",
    "10-9-4": "2",
    "10-9-5": "2",
    "10-9-6": "2",
    "10-9-7": "2",
    "10-9-8": "2",
    "10-9-9": "2",
    "10-9-10": "2",
    "10-9-11": "2",
    "10-9-12": "0",
    "11-0-0": "0",
    "11-0-1": "0",
    "11-0-2": "1",
    "11-0-3": "2",
    "11-0-4": "2",
    "11-0-5": "2",
    "11-0-6": "15",
    "11-0-7": "1e",
    "11-0-8": "16",
    "11-0-9": "2",
    "11-0-10": "2",
    "11-0-11": "2",
    "11-0-12": "1",
    "11-0-13": "0",
    "11-0-14": "0",
    "11-1-0": "0",
    "11-1-1": "0",
    "11-1-2": "3",
    "11-1-3": "3",
    "11-1-4": "3",
    "11-1-5": "3",
    "11-1-6": "3",
    "11-1-7": "3",
    "11-1-8": "3",
    "11-1-9": "3",
    "11-1-10": "3",
    "11-1-11": "3",
    "11-1-12": "3",
    "11-1-13": "0",
    "11-1-14": "0",
    "11-2-0": "4",
    "11-2-1": "4",
    "11-2-2": "3",
    "11-2-3": "3",
    "11-2-4": "3",
    "11-2-5": "3",
    "11-2-6": "3",
    "11-2-7": "3",
    "11-2-8": "3",
    "11-2-9": "3",
    "11-2-10": "3",
    "11-2-11": "3",
    "11-2-12": "3",
    "11-2-13": "4",
    "11-2-14": "4",
    "11-3-0": "0",
    "11-3-1": "0",
    "11-3-2": "3",
    "11-3-3": "3",
    "11-3-4": "3",
    "11-3-5": "3",
    "11-3-6": "3",
    "11-3-7": "3",
    "11-3-8": "3",
    "11-3-9": "3",
    "11-3-10": "3",
    "11-3-11": "3",
    "11-3-12": "3",
    "11-3-13": "0",
    "11-3-14": "0",
    "11-4-0": "0",
    "11-4-1": "0",
    "11-4-2": "5",
    "11-4-3": "2",
    "11-4-4": "2",
    "11-4-5": "2",
    "11-4-6": "2",
    "11-4-7": "2",
    "11-4-8": "2",
    "11-4-9": "2",
    "11-4-10": "2",
    "11-4-11": "2",
    "11-4-12": "5",
    "11-4-13": "0",
    "11-4-14": "0",
    "11-5-0": "0",
    "11-5-1": "0",
    "11-5-2": "7",
    "11-5-3": "2",
    "11-5-4": "2",
    "11-5-5": "2",
    "11-5-6": "2",
    "11-5-7": "2",
    "11-5-8": "2",
    "11-5-9": "2",
    "11-5-10": "2",
    "11-5-11": "2",
    "11-5-12": "7",
    "11-5-13": "0",
    "11-5-14": "0",
    "11-6-2": "0",
    "11-6-3": "3",
    "11-6-4": "2",
    "11-6-5": "3",
    "11-6-6": "3",
    "11-6-7": "3",
    "11-6-8": "3",
    "11-6-9": "3",
    "11-6-10": "2",
    "11-6-11": "3",
    "11-6-12": "0",
    "11-7-2": "4",
    "11-7-3": "3",
    "11-7-4": "2",
    "11-7-5": "3",
    "11-7-6": "3",
    "11-7-7": "3",
    "11-7-8": "3",
    "11-7-9": "3",
    "11-7-10": "2",
    "11-7-11": "3",
    "11-7-12": "4",
    "11-8-2": "0",
    "11-8-3": "3",
    "11-8-4": "2",
    "11-8-5": "3",
    "11-8-6": "3",
    "11-8-7": "3",
    "11-8-8": "3",
    "11-8-9": "3",
    "11-8-10": "2",
    "11-8-11": "3",
    "11-8-12": "0",
    "11-9-2": "0",
    "11-9-3": "2",
    "11-9-4": "2",
    "11-9-5": "2",
    "11-9-6": "2",
    "11-9-7": "2",
    "11-9-8": "2",
    "11-9-9": "2",
    "11-9-10": "2",
    "11-9-11": "2",
    "11-9-12": "0",
    "12-0-1": "0",
    "12-0-2": "d",
    "12-0-3": "2",
    "12-0-4": "2",
    "12-0-5": "2",
    "12-0-6": "2",
    "12-0-7": "2",
    "12-0-8": "2",
    "12-0-9": "2",
    "12-0-10": "2",
    "12-0-11": "2",
    "12-0-12": "d",
    "12-0-13": "0",
    "12-1-1": "0",
    "12-1-2": "3",
    "12-1-3": "3",
    "12-1-4": "3",
    "12-1-5": "3",
    "12-1-6": "3",
    "12-1-7": "21",
    "12-1-8": "3",
    "12-1-9": "3",
    "12-1-10": "3",
    "12-1-11": "3",
    "12-1-12": "3",
    "12-1-13": "0",
    "12-2-1": "4",
    "12-2-2": "3",
    "12-2-3": "3",
    "12-2-4": "3",
    "12-2-5": "3",
    "12-2-6": "3",
    "12-2-7": "21",
    "12-2-8": "3",
    "12-2-9": "3",
    "12-2-10": "3",
    "12-2-11": "3",
    "12-2-12": "3",
    "12-2-13": "4",
    "12-3-1": "0",
    "12-3-2": "3",
    "12-3-3": "3",
    "12-3-4": "3",
    "12-3-5": "3",
    "12-3-6": "3",
    "12-3-7": "21",
    "12-3-8": "3",
    "12-3-9": "3",
    "12-3-10": "3",
    "12-3-11": "3",
    "12-3-12": "3",
    "12-3-13": "0",
    "12-4-1": "0",
    "12-4-2": "e",
    "12-4-3": "2",
    "12-4-4": "2",
    "12-4-5": "2",
    "12-4-6": "2",
    "12-4-7": "2",
    "12-4-8": "2",
    "12-4-9": "2",
    "12-4-10": "2",
    "12-4-11": "2",
    "12-4-12": "e",
    "12-4-13": "0",
    "12-5-1": "0",
    "12-5-2": "f",
    "12-5-3": "2",
    "12-5-4": "2",
    "12-5-5": "2",
    "12-5-6": "2",
    "12-5-7": "2",
    "12-5-8": "2",
    "12-5-9": "2",
    "12-5-10": "2",
    "12-5-11": "2",
    "12-5-12": "f",
    "12-5-13": "0",
    "12-6-2": "0",
    "12-6-3": "3",
    "12-6-4": "3",
    "12-6-5": "3",
    "12-6-6": "3",
    "12-6-7": "3",
    "12-6-8": "3",
    "12-6-9": "3",
    "12-6-10": "3",
    "12-6-11": "3",
    "12-6-12": "0",
    "12-7-2": "4",
    "12-7-3": "3",
    "12-7-4": "3",
    "12-7-5": "3",
    "12-7-6": "3",
    "12-7-7": "3",
    "12-7-8": "3",
    "12-7-9": "3",
    "12-7-10": "3",
    "12-7-11": "3",
    "12-7-12": "4",
    "12-8-2": "0",
    "12-8-3": "3",
    "12-8-4": "2",
    "12-8-5": "3",
    "12-8-6": "3",
    "12-8-7": "3",
    "12-8-8": "3",
    "12-8-9": "3",
    "12-8-10": "2",
    "12-8-11": "3",
    "12-8-12": "0",
    "12-9-2": "0",
    "12-9-3": "2",
    "12-9-4": "2",
    "12-9-5": "2",
    "12-9-6": "2",
    "12-9-7": "2",
    "12-9-8": "2",
    "12-9-9": "2",
    "12-9-10": "2",
    "12-9-11": "2",
    "12-9-12": "0",
    "13-0-1": "0",
    "13-0-2": "0",
    "13-0-3": "1c",
    "13-0-4": "2",
    "13-0-5": "2",
    "13-0-6": "2",
    "13-0-7": "2",
    "13-0-8": "2",
    "13-0-9": "2",
    "13-0-10": "2",
    "13-0-11": "1c",
    "13-0-12": "0",
    "13-0-13": "0",
    "13-1-1": "0",
    "13-1-2": "0",
    "13-1-3": "3",
    "13-1-4": "3",
    "13-1-5": "3",
    "13-1-6": "21",
    "13-1-7": "22",
    "13-1-8": "21",
    "13-1-9": "3",
    "13-1-10": "3",
    "13-1-11": "3",
    "13-1-12": "0",
    "13-1-13": "0",
    "13-2-1": "4",
    "13-2-2": "4",
    "13-2-3": "3",
    "13-2-4": "3",
    "13-2-5": "3",
    "13-2-6": "21",
    "13-2-7": "22",
    "13-2-8": "21",
    "13-2-9": "3",
    "13-2-10": "3",
    "13-2-11": "3",
    "13-2-12": "4",
    "13-2-13": "4",
    "13-3-1": "0",
    "13-3-2": "0",
    "13-3-3": "3",
    "13-3-4": "3",
    "13-3-5": "3",
    "13-3-6": "21",
    "13-3-7": "22",
    "13-3-8": "21",
    "13-3-9": "3",
    "13-3-10": "3",
    "13-3-11": "3",
    "13-3-12": "0",
    "13-3-13": "0",
    "13-4-1": "0",
    "13-4-2": "0",
    "13-4-3": "6",
    "13-4-4": "2",
    "13-4-5": "2",
    "13-4-6": "2",
    "13-4-7": "23",
    "13-4-8": "2",
    "13-4-9": "2",
    "13-4-10": "2",
    "13-4-11": "6",
    "13-4-12": "0",
    "13-4-13": "0",
    "13-5-1": "0",
    "13-5-2": "0",
    "13-5-3": "8",
    "13-5-4": "2",
    "13-5-5": "2",
    "13-5-6": "2",
    "13-5-7": "22",
    "13-5-8": "2",
    "13-5-9": "2",
    "13-5-10": "2",
    "13-5-11": "8",
    "13-5-12": "0",
    "13-5-13": "0",
    "13-6-2": "0",
    "13-6-3": "3",
    "13-6-4": "2",
    "13-6-5": "3",
    "13-6-6": "3",
    "13-6-7": "3",
    "13-6-8": "3",
    "13-6-9": "3",
    "13-6-10": "2",
    "13-6-11": "3",
    "13-6-12": "0",
    "13-7-2": "4",
    "13-7-3": "3",
    "13-7-4": "2",
    "13-7-5": "3",
    "13-7-6": "3",
    "13-7-7": "3",
    "13-7-8": "3",
    "13-7-9": "3",
    "13-7-10": "2",
    "13-7-11": "3",
    "13-7-12": "4",
    "13-8-2": "0",
    "13-8-3": "3",
    "13-8-4": "2",
    "13-8-5": "3",
    "13-8-6": "3",
    "13-8-7": "3",
    "13-8-8": "3",
    "13-8-9": "3",
    "13-8-10": "2",
    "13-8-11": "3",
    "13-8-12": "0",
    "13-9-2": "0",
    "13-9-3": "2",
    "13-9-4": "2",
    "13-9-5": "2",
    "13-9-6": "2",
    "13-9-7": "2",
    "13-9-8": "2",
    "13-9-9": "2",
    "13-9-10": "2",
    "13-9-11": "2",
    "13-9-12": "0",
    "14-0-2": "0",
    "14-0-3": "0",
    "14-0-4": "15",
    "14-0-5": "16",
    "14-0-6": "2",
    "14-0-7": "2",
    "14-0-8": "2",
    "14-0-9": "15",
    "14-0-10": "16",
    "14-0-11": "0",
    "14-0-12": "0",
    "14-1-2": "0",
    "14-1-3": "0",
    "14-1-4": "3",
    "14-1-5": "3",
    "14-1-6": "3",
    "14-1-7": "21",
    "14-1-8": "3",
    "14-1-9": "3",
    "14-1-10": "3",
    "14-1-11": "0",
    "14-1-12": "0",
    "14-2-2": "4",
    "14-2-3": "4",
    "14-2-4": "3",
    "14-2-5": "3",
    "14-2-6": "3",
    "14-2-7": "21",
    "14-2-8": "3",
    "14-2-9": "3",
    "14-2-10": "3",
    "14-2-11": "4",
    "14-2-12": "4",
    "14-3-2": "0",
    "14-3-3": "0",
    "14-3-4": "3",
    "14-3-5": "3",
    "14-3-6": "3",
    "14-3-7": "21",
    "14-3-8": "3",
    "14-3-9": "3",
    "14-3-10": "3",
    "14-3-11": "0",
    "14-3-12": "0",
    "14-4-2": "0",
    "14-4-3": "0",
    "14-4-4": "17",
    "14-4-5": "18",
    "14-4-6": "2",
    "14-4-7": "2",
    "14-4-8": "2",
    "14-4-9": "17",
    "14-4-10": "18",
    "14-4-11": "0",
    "14-4-12": "0",
    "14-5-2": "0",
    "14-5-3": "0",
    "14-5-4": "19",
    "14-5-5": "1a",
    "14-5-6": "2",
    "14-5-7": "2",
    "14-5-8": "2",
    "14-5-9": "19",
    "14-5-10": "1a",
    "14-5-11": "0",
    "14-5-12": "0",
    "14-6-1": "3",
    "14-6-2": "0",
    "14-6-3": "0",
    "14-6-4": "0",
    "14-6-5": "0",
    "14-6-6": "0",
    "14-6-7": "0",
    "14-6-8": "0",
    "14-6-9": "0",
    "14-6-10": "0",
    "14-6-11": "0",
    "14-6-12": "0",
    "14-7-2": "4",
    "14-7-3": "4",
    "14-7-4": "4",
    "14-7-5": "4",
    "14-7-6": "4",
    "14-7-7": "4",
    "14-7-8": "4",
    "14-7-9": "4",
    "14-7-10": "4",
    "14-7-11": "4",
    "14-7-12": "4",
    "14-8-2": "0",
    "14-8-3": "0",
    "14-8-4": "0",
    "14-8-5": "0",
    "14-8-6": "0",
    "14-8-7": "0",
    "14-8-8": "0",
    "14-8-9": "0",
    "14-8-10": "0",
    "14-8-11": "0",
    "14-8-12": "0",
    "14-9-2": "0",
    "14-9-3": "0",
    "14-9-4": "0",
    "14-9-5": "0",
    "14-9-6": "0",
    "14-9-7": "0",
    "14-9-8": "0",
    "14-9-9": "0",
    "14-9-10": "0",
    "14-9-11": "0",
    "14-9-12": "0",
    "15-0-3": "0",
    "15-0-4": "0",
    "15-0-5": "0",
    "15-0-6": "15",
    "15-0-7": "1e",
    "15-0-8": "16",
    "15-0-9": "0",
    "15-0-10": "0",
    "15-0-11": "0",
    "15-1-3": "0",
    "15-1-4": "0",
    "15-1-5": "0",
    "15-1-6": "3",
    "15-1-7": "3",
    "15-1-8": "3",
    "15-1-9": "0",
    "15-1-10": "0",
    "15-1-11": "0",
    "15-2-3": "4",
    "15-2-4": "4",
    "15-2-5": "4",
    "15-2-6": "3",
    "15-2-7": "3",
    "15-2-8": "3",
    "15-2-9": "4",
    "15-2-10": "4",
    "15-2-11": "4",
    "15-3-3": "0",
    "15-3-4": "0",
    "15-3-5": "0",
    "15-3-6": "3",
    "15-3-7": "3",
    "15-3-8": "3",
    "15-3-9": "0",
    "15-3-10": "0",
    "15-3-11": "0",
    "15-4-3": "0",
    "15-4-4": "0",
    "15-4-5": "0",
    "15-4-6": "17",
    "15-4-7": "24",
    "15-4-8": "18",
    "15-4-9": "0",
    "15-4-10": "0",
    "15-4-11": "0",
    "15-5-3": "0",
    "15-5-4": "0",
    "15-5-5": "0",
    "15-5-6": "19",
    "15-5-7": "25",
    "15-5-8": "1a",
    "15-5-9": "0",
    "15-5-10": "0",
    "15-5-11": "0",
    "16-0-5": "0",
    "16-0-6": "0",
    "16-0-7": "0",
    "16-0-8": "0",
    "16-0-9": "0",
    "16-1-5": "0",
    "16-1-6": "0",
    "16-1-7": "0",
    "16-1-8": "0",
    "16-1-9": "0",
    "16-2-5": "4",
    "16-2-6": "4",
    "16-2-7": "4",
    "16-2-8": "4",
    "16-2-9": "4",
    "16-3-5": "0",
    "16-3-6": "0",
    "16-3-7": "0",
    "16-3-8": "0",
    "16-3-9": "0",
    "16-4-5": "0",
    "16-4-6": "0",
    "16-4-7": "0",
    "16-4-8": "0",
    "16-4-9": "0",
    "16-5-5": "0",
    "16-5-6": "0",
    "16-5-7": "0",
    "16-5-8": "0",
    "16-5-9": "0",
    "16-6-9": "3"
  },
  "inventorys": [
    {"pos": "6-6-6", "loot": "futurepack:chests/ld_craft"},
    {"pos": "6-6-7", "loot": "futurepack:chests/ld_craft"},
    {"pos": "6-6-8", "loot": "futurepack:chests/ld_craft"},
    {"pos": "6-7-6", "loot": "futurepack:chests/science_chest"},
    {"pos": "6-7-7", "loot": "futurepack:chests/ld_special"},
    {"pos": "6-7-8", "loot": "futurepack:chests/ld_battery"},
    {"pos": "8-6-4", "loot": "futurepack:chests/ld_craft"},
    {"pos": "8-6-10", "loot": "futurepack:chests/ld_special"},
    {"pos": "8-7-4", "loot": "futurepack:chests/ld_special"},
    {"pos": "8-7-10", "loot": "futurepack:chests/ld_special"},
    {"pos": "9-1-3", "loot": "futurepack:chests/ld_common"},
    {"pos": "9-1-11", "loot": "futurepack:chests/ld_common"},
    {"pos": "9-6-4", "loot": "futurepack:chests/ld_special"},
    {"pos": "9-6-10", "loot": "futurepack:chests/ld_battery"},
    {"pos": "9-7-4", "loot": "futurepack:chests/ld_special"},
    {"pos": "9-7-10", "loot": "futurepack:chests/ld_special"},
    {"pos": "10-6-4", "loot": "futurepack:chests/ld_special"},
    {"pos": "10-6-10", "loot": "futurepack:chests/ld_battery"},
    {"pos": "10-7-4", "loot": "futurepack:chests/ld_special"},
    {"pos": "10-7-10", "loot": "futurepack:chests/ld_special"}
  ],
  "doors": [
    {
      "facing": 4,
      "w": 1,
      "h": 3,
      "d": 3,
      "start": "0,1,6"
    },
    {
      "facing": 4,
      "w": 1,
      "h": 3,
      "d": 3,
      "start": "0,6,6"
    }
  ],
  "stateMap": {
    "0": "futurepack:color_iron_gray:",
    "1": "futurepack:quantanium:down\u003dfalse;east\u003dtrue;glowing\u003dfalse;north\u003dfalse;south\u003dfalse;up\u003dfalse;west\u003dfalse",
    "10": "futurepack:color_gitter_gray:",
    "11": "minecraft:iron_door:facing\u003deast;half\u003dlower;hinge\u003dleft;open\u003dfalse;powered\u003dfalse",
    "12": "futurepack:color_gitter_purple:",
    "13": "minecraft:iron_door:facing\u003deast;half\u003dupper;hinge\u003dleft;open\u003dfalse;powered\u003dfalse",
    "14": "futurepack:color_luftung_gray:",
    "15": "futurepack:quantanium:down\u003dfalse;east\u003dfalse;glowing\u003dfalse;north\u003dfalse;south\u003dtrue;up\u003dfalse;west\u003dfalse",
    "16": "futurepack:quantanium:down\u003dfalse;east\u003dfalse;glowing\u003dfalse;north\u003dtrue;south\u003dfalse;up\u003dfalse;west\u003dfalse",
    "17": "futurepack:quantanium:down\u003dfalse;east\u003dfalse;glowing\u003dfalse;north\u003dfalse;south\u003dtrue;up\u003dtrue;west\u003dfalse",
    "18": "futurepack:quantanium:down\u003dfalse;east\u003dfalse;glowing\u003dfalse;north\u003dtrue;south\u003dfalse;up\u003dtrue;west\u003dfalse",
    "19": "futurepack:quantanium:down\u003dtrue;east\u003dfalse;glowing\u003dfalse;north\u003dfalse;south\u003dtrue;up\u003dfalse;west\u003dfalse",
    "1a": "futurepack:quantanium:down\u003dtrue;east\u003dfalse;glowing\u003dfalse;north\u003dtrue;south\u003dfalse;up\u003dfalse;west\u003dfalse",
    "1b": "minecraft:lever:face\u003dfloor;facing\u003dnorth;powered\u003dfalse",
    "1c": "futurepack:quantanium:down\u003dfalse;east\u003dfalse;glowing\u003dfalse;north\u003dfalse;south\u003dfalse;up\u003dfalse;west\u003dfalse",
    "1d": "futurepack:wardrobe_black_large_2:",
    "1e": "futurepack:quantanium:down\u003dfalse;east\u003dfalse;glowing\u003dfalse;north\u003dtrue;south\u003dtrue;up\u003dfalse;west\u003dfalse",
    "1f": "futurepack:wardrobe_black_normal_2:",
    "2": "futurepack:color_iron_black:",
    "20": "futurepack:tectern:facing\u003dwest",
    "21": "minecraft:light_gray_stained_glass_pane:east\u003dfalse;north\u003dfalse;south\u003dfalse;waterlogged\u003dfalse;west\u003dfalse",
    "22": "minecraft:lava:level\u003d0",
    "23": "minecraft:lava:level\u003d8",
    "24": "futurepack:quantanium:down\u003dfalse;east\u003dfalse;glowing\u003dfalse;north\u003dtrue;south\u003dtrue;up\u003dtrue;west\u003dfalse",
    "25": "futurepack:quantanium:down\u003dtrue;east\u003dfalse;glowing\u003dfalse;north\u003dtrue;south\u003dtrue;up\u003dfalse;west\u003dfalse",
    "3": "minecraft:air:",
    "4": "futurepack:color_iron_purple:",
    "5": "futurepack:quantanium:down\u003dfalse;east\u003dtrue;glowing\u003dfalse;north\u003dfalse;south\u003dfalse;up\u003dtrue;west\u003dfalse",
    "6": "futurepack:quantanium:down\u003dfalse;east\u003dfalse;glowing\u003dfalse;north\u003dfalse;south\u003dfalse;up\u003dtrue;west\u003dfalse",
    "7": "futurepack:quantanium:down\u003dtrue;east\u003dtrue;glowing\u003dfalse;north\u003dfalse;south\u003dfalse;up\u003dfalse;west\u003dfalse",
    "8": "futurepack:quantanium:down\u003dtrue;east\u003dfalse;glowing\u003dfalse;north\u003dfalse;south\u003dfalse;up\u003dfalse;west\u003dfalse",
    "9": "futurepack:quantanium:down\u003dfalse;east\u003dtrue;glowing\u003dfalse;north\u003dfalse;south\u003dfalse;up\u003dfalse;west\u003dtrue",
    "a": "futurepack:ironladder:facing\u003dnorth;waterlogged\u003dfalse",
    "b": "futurepack:quantanium:down\u003dfalse;east\u003dtrue;glowing\u003dfalse;north\u003dfalse;south\u003dfalse;up\u003dtrue;west\u003dtrue",
    "c": "futurepack:quantanium:down\u003dtrue;east\u003dtrue;glowing\u003dfalse;north\u003dfalse;south\u003dfalse;up\u003dfalse;west\u003dtrue",
    "d": "futurepack:quantanium:down\u003dfalse;east\u003dfalse;glowing\u003dfalse;north\u003dfalse;south\u003dfalse;up\u003dfalse;west\u003dtrue",
    "e": "futurepack:quantanium:down\u003dfalse;east\u003dfalse;glowing\u003dfalse;north\u003dfalse;south\u003dfalse;up\u003dtrue;west\u003dtrue",
    "f": "futurepack:quantanium:down\u003dtrue;east\u003dfalse;glowing\u003dfalse;north\u003dfalse;south\u003dfalse;up\u003dfalse;west\u003dtrue"
  }
}