{
  "inventorys": [
    {
      "pos": "3-4-16",
      "loot": "futurepack:chests/ld_special"
    },
    {
      "pos": "5-4-16",
      "loot": "futurepack:chests/ld_special"
    }
  ],
  "doors": [
    {
      "facing": 2,
      "w": 3,
      "h": 3,
      "d": 1,
      "start": "3,3,0"
    }
  ],
  "data": {
    "0-1-10": 0,
    "0-1-11": 0,
    "0-1-12": 0,
    "0-1-13": 0,
    "0-1-14": 0,
    "0-1-15": 0,
    "0-1-16": 0,
    "0-1-17": 0,
    "0-1-3": 0,
    "0-1-4": 0,
    "0-1-5": 0,
    "0-1-6": 0,
    "0-1-7": 0,
    "0-1-8": 0,
    "0-1-9": 0,
    "0-2-1": 0,
    "0-2-10": 0,
    "0-2-11": 0,
    "0-2-12": 0,
    "0-2-13": 0,
    "0-2-14": 0,
    "0-2-15": 0,
    "0-2-16": 0,
    "0-2-17": 0,
    "0-2-2": 0,
    "0-2-3": 0,
    "0-2-4": 0,
    "0-2-5": 0,
    "0-2-6": 0,
    "0-2-7": 0,
    "0-2-8": 0,
    "0-2-9": 0,
    "0-3-0": 0,
    "0-3-1": 0,
    "0-3-10": 0,
    "0-3-11": 0,
    "0-3-12": 0,
    "0-3-13": 0,
    "0-3-14": 0,
    "0-3-15": 0,
    "0-3-16": 0,
    "0-3-17": 0,
    "0-3-2": 0,
    "0-3-3": 0,
    "0-3-4": 0,
    "0-3-5": 0,
    "0-3-6": 0,
    "0-3-7": 0,
    "0-3-8": 0,
    "0-3-9": 0,
    "0-4-0": 1,
    "0-4-1": 1,
    "0-4-10": 1,
    "0-4-11": 1,
    "0-4-12": 1,
    "0-4-13": 1,
    "0-4-14": 1,
    "0-4-15": 1,
    "0-4-16": 1,
    "0-4-17": 1,
    "0-4-2": 1,
    "0-4-3": 1,
    "0-4-4": 1,
    "0-4-5": 1,
    "0-4-6": 1,
    "0-4-7": 1,
    "0-4-8": 1,
    "0-4-9": 1,
    "0-5-0": 0,
    "0-5-1": 0,
    "0-5-10": 0,
    "0-5-11": 0,
    "0-5-12": 0,
    "0-5-13": 0,
    "0-5-14": 0,
    "0-5-15": 0,
    "0-5-16": 0,
    "0-5-17": 0,
    "0-5-2": 0,
    "0-5-3": 0,
    "0-5-4": 0,
    "0-5-5": 0,
    "0-5-6": 0,
    "0-5-7": 0,
    "0-5-8": 0,
    "0-5-9": 0,
    "0-6-0": 0,
    "0-6-1": 0,
    "0-6-10": 0,
    "0-6-11": 0,
    "0-6-12": 0,
    "0-6-13": 0,
    "0-6-14": 0,
    "0-6-15": 0,
    "0-6-16": 0,
    "0-6-17": 0,
    "0-6-2": 0,
    "0-6-3": 0,
    "0-6-4": 0,
    "0-6-5": 0,
    "0-6-6": 0,
    "0-6-7": 0,
    "0-6-8": 0,
    "0-6-9": 0,
    "1-0-10": 0,
    "1-0-11": 0,
    "1-0-12": 0,
    "1-0-13": 0,
    "1-0-14": 0,
    "1-0-15": 0,
    "1-0-16": 0,
    "1-0-3": 0,
    "1-0-4": 0,
    "1-0-5": 0,
    "1-0-6": 0,
    "1-0-7": 0,
    "1-0-8": 0,
    "1-0-9": 0,
    "1-1-10": 2,
    "1-1-11": 2,
    "1-1-12": 2,
    "1-1-13": 2,
    "1-1-14": 2,
    "1-1-15": 2,
    "1-1-16": 2,
    "1-1-17": 0,
    "1-1-2": 0,
    "1-1-3": 2,
    "1-1-4": 2,
    "1-1-5": 2,
    "1-1-6": 2,
    "1-1-7": 2,
    "1-1-8": 2,
    "1-1-9": 2,
    "1-2-0": 0,
    "1-2-1": 3,
    "1-2-10": 4,
    "1-2-11": 4,
    "1-2-12": 4,
    "1-2-13": 4,
    "1-2-14": 4,
    "1-2-15": 4,
    "1-2-16": 4,
    "1-2-17": 0,
    "1-2-2": 3,
    "1-2-3": 4,
    "1-2-4": 4,
    "1-2-5": 4,
    "1-2-6": 4,
    "1-2-7": 4,
    "1-2-8": 4,
    "1-2-9": 4,
    "1-3-0": 0,
    "1-3-1": 4,
    "1-3-10": 4,
    "1-3-11": 4,
    "1-3-12": 4,
    "1-3-13": 4,
    "1-3-14": 4,
    "1-3-15": 4,
    "1-3-16": 4,
    "1-3-17": 0,
    "1-3-2": 4,
    "1-3-3": 4,
    "1-3-4": 4,
    "1-3-5": 4,
    "1-3-6": 4,
    "1-3-7": 4,
    "1-3-8": 4,
    "1-3-9": 4,
    "1-4-0": 1,
    "1-4-1": 4,
    "1-4-10": 4,
    "1-4-11": 4,
    "1-4-12": 4,
    "1-4-13": 4,
    "1-4-14": 4,
    "1-4-15": 4,
    "1-4-16": 4,
    "1-4-17": 1,
    "1-4-2": 4,
    "1-4-3": 4,
    "1-4-4": 4,
    "1-4-5": 4,
    "1-4-6": 4,
    "1-4-7": 4,
    "1-4-8": 4,
    "1-4-9": 4,
    "1-5-0": 0,
    "1-5-1": 4,
    "1-5-10": 4,
    "1-5-11": 4,
    "1-5-12": 4,
    "1-5-13": 4,
    "1-5-14": 4,
    "1-5-15": 4,
    "1-5-16": 4,
    "1-5-17": 0,
    "1-5-2": 4,
    "1-5-3": 4,
    "1-5-4": 4,
    "1-5-5": 4,
    "1-5-6": 4,
    "1-5-7": 4,
    "1-5-8": 4,
    "1-5-9": 4,
    "1-6-0": 0,
    "1-6-1": 3,
    "1-6-10": 0,
    "1-6-11": 0,
    "1-6-12": 0,
    "1-6-13": 0,
    "1-6-14": 0,
    "1-6-15": 0,
    "1-6-16": 0,
    "1-6-17": 0,
    "1-6-2": 3,
    "1-6-3": 0,
    "1-6-4": 0,
    "1-6-5": 0,
    "1-6-6": 0,
    "1-6-7": 0,
    "1-6-8": 0,
    "1-6-9": 0,
    "2-0-10": 0,
    "2-0-11": 0,
    "2-0-12": 0,
    "2-0-13": 0,
    "2-0-14": 0,
    "2-0-3": 0,
    "2-0-4": 0,
    "2-0-5": 0,
    "2-0-6": 0,
    "2-0-7": 0,
    "2-0-8": 0,
    "2-0-9": 0,
    "2-1-10": 2,
    "2-1-11": 2,
    "2-1-12": 2,
    "2-1-13": 2,
    "2-1-14": 2,
    "2-1-15": 0,
    "2-1-16": 0,
    "2-1-17": 0,
    "2-1-2": 0,
    "2-1-3": 2,
    "2-1-4": 2,
    "2-1-5": 2,
    "2-1-6": 2,
    "2-1-7": 2,
    "2-1-8": 2,
    "2-1-9": 2,
    "2-2-0": 0,
    "2-2-1": 3,
    "2-2-10": 4,
    "2-2-11": 4,
    "2-2-12": 4,
    "2-2-13": 4,
    "2-2-14": 4,
    "2-2-15": 0,
    "2-2-16": 0,
    "2-2-17": 0,
    "2-2-2": 0,
    "2-2-3": 4,
    "2-2-4": 4,
    "2-2-5": 4,
    "2-2-6": 4,
    "2-2-7": 4,
    "2-2-8": 4,
    "2-2-9": 4,
    "2-3-0": 0,
    "2-3-1": 4,
    "2-3-10": 4,
    "2-3-11": 4,
    "2-3-12": 4,
    "2-3-13": 4,
    "2-3-14": 4,
    "2-3-15": 4,
    "2-3-16": 4,
    "2-3-17": 0,
    "2-3-2": 4,
    "2-3-3": 4,
    "2-3-4": 4,
    "2-3-5": 4,
    "2-3-6": 4,
    "2-3-7": 4,
    "2-3-8": 4,
    "2-3-9": 4,
    "2-4-0": 1,
    "2-4-1": 4,
    "2-4-10": 4,
    "2-4-11": 4,
    "2-4-12": 4,
    "2-4-13": 4,
    "2-4-14": 4,
    "2-4-15": 4,
    "2-4-16": 4,
    "2-4-17": 1,
    "2-4-2": 4,
    "2-4-3": 4,
    "2-4-4": 4,
    "2-4-5": 4,
    "2-4-6": 4,
    "2-4-7": 4,
    "2-4-8": 4,
    "2-4-9": 4,
    "2-5-0": 0,
    "2-5-1": 4,
    "2-5-10": 4,
    "2-5-11": 4,
    "2-5-12": 4,
    "2-5-13": 4,
    "2-5-14": 4,
    "2-5-15": 4,
    "2-5-16": 4,
    "2-5-17": 0,
    "2-5-2": 4,
    "2-5-3": 4,
    "2-5-4": 4,
    "2-5-5": 4,
    "2-5-6": 4,
    "2-5-7": 4,
    "2-5-8": 4,
    "2-5-9": 4,
    "2-6-0": 0,
    "2-6-1": 3,
    "2-6-10": 0,
    "2-6-11": 0,
    "2-6-12": 0,
    "2-6-13": 0,
    "2-6-14": 0,
    "2-6-15": 0,
    "2-6-16": 0,
    "2-6-17": 0,
    "2-6-2": 0,
    "2-6-3": 0,
    "2-6-4": 0,
    "2-6-5": 0,
    "2-6-6": 0,
    "2-6-7": 0,
    "2-6-8": 0,
    "2-6-9": 0,
    "3-0-10": 0,
    "3-0-11": 0,
    "3-0-12": 0,
    "3-0-13": 0,
    "3-0-14": 0,
    "3-0-3": 0,
    "3-0-4": 0,
    "3-0-5": 0,
    "3-0-6": 0,
    "3-0-7": 0,
    "3-0-8": 0,
    "3-0-9": 0,
    "3-1-10": 2,
    "3-1-11": 2,
    "3-1-12": 2,
    "3-1-13": 2,
    "3-1-14": 2,
    "3-1-15": 0,
    "3-1-17": 0,
    "3-1-2": 0,
    "3-1-3": 2,
    "3-1-4": 2,
    "3-1-5": 2,
    "3-1-6": 2,
    "3-1-7": 2,
    "3-1-8": 0,
    "3-1-9": 2,
    "3-2-0": 3,
    "3-2-1": 3,
    "3-2-10": 4,
    "3-2-11": 4,
    "3-2-12": 4,
    "3-2-13": 4,
    "3-2-14": 4,
    "3-2-15": 0,
    "3-2-17": 0,
    "3-2-2": 3,
    "3-2-3": 4,
    "3-2-4": 4,
    "3-2-5": 4,
    "3-2-6": 4,
    "3-2-7": 4,
    "3-2-8": 0,
    "3-2-9": 4,
    "3-3-0": 4,
    "3-3-1": 4,
    "3-3-10": 4,
    "3-3-11": 4,
    "3-3-12": 4,
    "3-3-13": 4,
    "3-3-14": 4,
    "3-3-15": 4,
    "3-3-16": 1,
    "3-3-17": 0,
    "3-3-2": 4,
    "3-3-3": 4,
    "3-3-4": 4,
    "3-3-5": 4,
    "3-3-6": 4,
    "3-3-7": 4,
    "3-3-8": 4,
    "3-3-9": 4,
    "3-4-0": 4,
    "3-4-1": 4,
    "3-4-10": 4,
    "3-4-11": 4,
    "3-4-12": 4,
    "3-4-13": 4,
    "3-4-14": 4,
    "3-4-15": 4,
    "3-4-16": 5,
    "3-4-17": 1,
    "3-4-2": 4,
    "3-4-3": 4,
    "3-4-4": 4,
    "3-4-5": 4,
    "3-4-6": 4,
    "3-4-7": 4,
    "3-4-8": 4,
    "3-4-9": 4,
    "3-5-0": 4,
    "3-5-1": 4,
    "3-5-10": 4,
    "3-5-11": 4,
    "3-5-12": 4,
    "3-5-13": 4,
    "3-5-14": 4,
    "3-5-15": 4,
    "3-5-16": 4,
    "3-5-17": 0,
    "3-5-2": 4,
    "3-5-3": 4,
    "3-5-4": 4,
    "3-5-5": 4,
    "3-5-6": 4,
    "3-5-7": 4,
    "3-5-8": 4,
    "3-5-9": 4,
    "3-6-0": 3,
    "3-6-1": 3,
    "3-6-10": 0,
    "3-6-11": 0,
    "3-6-12": 0,
    "3-6-13": 0,
    "3-6-14": 0,
    "3-6-15": 0,
    "3-6-16": 0,
    "3-6-17": 0,
    "3-6-2": 3,
    "3-6-3": 3,
    "3-6-4": 3,
    "3-6-5": 3,
    "3-6-6": 0,
    "3-6-7": 0,
    "3-6-8": 0,
    "3-6-9": 0,
    "4-0-10": 0,
    "4-0-11": 0,
    "4-0-12": 0,
    "4-0-13": 0,
    "4-0-14": 0,
    "4-0-3": 0,
    "4-0-4": 0,
    "4-0-5": 0,
    "4-0-6": 0,
    "4-0-7": 0,
    "4-0-8": 0,
    "4-0-9": 0,
    "4-1-10": 2,
    "4-1-11": 2,
    "4-1-12": 2,
    "4-1-13": 2,
    "4-1-14": 2,
    "4-1-15": 0,
    "4-1-17": 0,
    "4-1-2": 0,
    "4-1-3": 0,
    "4-1-4": 2,
    "4-1-5": 2,
    "4-1-6": 0,
    "4-1-7": 2,
    "4-1-8": 2,
    "4-1-9": 2,
    "4-2-0": 6,
    "4-2-1": 6,
    "4-2-10": 4,
    "4-2-11": 4,
    "4-2-12": 4,
    "4-2-13": 4,
    "4-2-14": 4,
    "4-2-15": 0,
    "4-2-16": 0,
    "4-2-17": 0,
    "4-2-2": 6,
    "4-2-3": 6,
    "4-2-4": 7,
    "4-2-5": 4,
    "4-2-6": 0,
    "4-2-7": 4,
    "4-2-8": 4,
    "4-2-9": 4,
    "4-3-0": 4,
    "4-3-1": 4,
    "4-3-10": 4,
    "4-3-11": 4,
    "4-3-12": 4,
    "4-3-13": 4,
    "4-3-14": 4,
    "4-3-15": 4,
    "4-3-16": 4,
    "4-3-17": 0,
    "4-3-2": 4,
    "4-3-3": 4,
    "4-3-4": 4,
    "4-3-5": 4,
    "4-3-6": 0,
    "4-3-7": 4,
    "4-3-8": 4,
    "4-3-9": 4,
    "4-4-0": 4,
    "4-4-1": 4,
    "4-4-10": 4,
    "4-4-11": 4,
    "4-4-12": 4,
    "4-4-13": 4,
    "4-4-14": 4,
    "4-4-15": 4,
    "4-4-16": 4,
    "4-4-17": 1,
    "4-4-2": 4,
    "4-4-3": 4,
    "4-4-4": 4,
    "4-4-5": 4,
    "4-4-6": 4,
    "4-4-7": 4,
    "4-4-8": 4,
    "4-4-9": 4,
    "4-5-0": 4,
    "4-5-1": 4,
    "4-5-10": 4,
    "4-5-11": 4,
    "4-5-12": 4,
    "4-5-13": 4,
    "4-5-14": 4,
    "4-5-15": 4,
    "4-5-16": 4,
    "4-5-17": 0,
    "4-5-2": 4,
    "4-5-3": 4,
    "4-5-4": 4,
    "4-5-5": 4,
    "4-5-6": 4,
    "4-5-7": 4,
    "4-5-8": 4,
    "4-5-9": 4,
    "4-6-0": 6,
    "4-6-1": 6,
    "4-6-10": 0,
    "4-6-11": 0,
    "4-6-12": 0,
    "4-6-13": 0,
    "4-6-14": 0,
    "4-6-15": 0,
    "4-6-16": 0,
    "4-6-17": 0,
    "4-6-2": 6,
    "4-6-3": 6,
    "4-6-4": 6,
    "4-6-5": 3,
    "4-6-6": 0,
    "4-6-7": 0,
    "4-6-8": 0,
    "4-6-9": 0,
    "5-0-10": 0,
    "5-0-11": 0,
    "5-0-12": 0,
    "5-0-13": 0,
    "5-0-14": 0,
    "5-0-3": 0,
    "5-0-4": 0,
    "5-0-5": 0,
    "5-0-6": 0,
    "5-0-7": 0,
    "5-0-8": 0,
    "5-0-9": 0,
    "5-1-10": 2,
    "5-1-11": 0,
    "5-1-12": 2,
    "5-1-13": 2,
    "5-1-14": 2,
    "5-1-15": 0,
    "5-1-17": 0,
    "5-1-2": 0,
    "5-1-3": 2,
    "5-1-4": 2,
    "5-1-5": 2,
    "5-1-6": 2,
    "5-1-7": 2,
    "5-1-8": 2,
    "5-1-9": 2,
    "5-2-0": 3,
    "5-2-1": 3,
    "5-2-10": 4,
    "5-2-11": 0,
    "5-2-12": 4,
    "5-2-13": 4,
    "5-2-14": 4,
    "5-2-15": 0,
    "5-2-16": 0,
    "5-2-17": 0,
    "5-2-2": 3,
    "5-2-3": 4,
    "5-2-4": 4,
    "5-2-5": 4,
    "5-2-6": 4,
    "5-2-7": 4,
    "5-2-8": 4,
    "5-2-9": 4,
    "5-3-0": 4,
    "5-3-1": 4,
    "5-3-10": 4,
    "5-3-11": 4,
    "5-3-12": 4,
    "5-3-13": 4,
    "5-3-14": 4,
    "5-3-15": 4,
    "5-3-16": 1,
    "5-3-17": 0,
    "5-3-2": 4,
    "5-3-3": 4,
    "5-3-4": 4,
    "5-3-5": 4,
    "5-3-6": 4,
    "5-3-7": 4,
    "5-3-8": 4,
    "5-3-9": 4,
    "5-4-0": 4,
    "5-4-1": 4,
    "5-4-10": 4,
    "5-4-11": 4,
    "5-4-12": 4,
    "5-4-13": 4,
    "5-4-14": 4,
    "5-4-15": 4,
    "5-4-16": 5,
    "5-4-17": 1,
    "5-4-2": 4,
    "5-4-3": 4,
    "5-4-4": 4,
    "5-4-5": 4,
    "5-4-6": 4,
    "5-4-7": 4,
    "5-4-8": 4,
    "5-4-9": 4,
    "5-5-0": 4,
    "5-5-1": 4,
    "5-5-10": 4,
    "5-5-11": 4,
    "5-5-12": 4,
    "5-5-13": 4,
    "5-5-14": 4,
    "5-5-15": 4,
    "5-5-16": 4,
    "5-5-17": 0,
    "5-5-2": 4,
    "5-5-3": 4,
    "5-5-4": 4,
    "5-5-5": 4,
    "5-5-6": 4,
    "5-5-7": 4,
    "5-5-8": 4,
    "5-5-9": 4,
    "5-6-0": 3,
    "5-6-1": 3,
    "5-6-10": 0,
    "5-6-11": 0,
    "5-6-12": 0,
    "5-6-13": 0,
    "5-6-14": 0,
    "5-6-15": 0,
    "5-6-16": 0,
    "5-6-17": 0,
    "5-6-2": 3,
    "5-6-3": 3,
    "5-6-4": 3,
    "5-6-5": 3,
    "5-6-6": 0,
    "5-6-7": 0,
    "5-6-8": 0,
    "5-6-9": 0,
    "6-0-10": 0,
    "6-0-11": 0,
    "6-0-12": 0,
    "6-0-13": 0,
    "6-0-14": 0,
    "6-0-3": 0,
    "6-0-4": 0,
    "6-0-5": 0,
    "6-0-6": 0,
    "6-0-7": 0,
    "6-0-8": 0,
    "6-0-9": 0,
    "6-1-10": 2,
    "6-1-11": 2,
    "6-1-12": 2,
    "6-1-13": 2,
    "6-1-14": 2,
    "6-1-15": 0,
    "6-1-16": 0,
    "6-1-17": 0,
    "6-1-2": 0,
    "6-1-3": 2,
    "6-1-4": 2,
    "6-1-5": 2,
    "6-1-6": 2,
    "6-1-7": 2,
    "6-1-8": 2,
    "6-1-9": 2,
    "6-2-0": 0,
    "6-2-1": 3,
    "6-2-10": 4,
    "6-2-11": 4,
    "6-2-12": 4,
    "6-2-13": 4,
    "6-2-14": 4,
    "6-2-15": 0,
    "6-2-16": 0,
    "6-2-17": 0,
    "6-2-2": 0,
    "6-2-3": 4,
    "6-2-4": 4,
    "6-2-5": 4,
    "6-2-6": 4,
    "6-2-7": 4,
    "6-2-8": 4,
    "6-2-9": 4,
    "6-3-0": 0,
    "6-3-1": 4,
    "6-3-10": 4,
    "6-3-11": 4,
    "6-3-12": 4,
    "6-3-13": 4,
    "6-3-14": 4,
    "6-3-15": 4,
    "6-3-16": 4,
    "6-3-17": 0,
    "6-3-2": 4,
    "6-3-3": 4,
    "6-3-4": 4,
    "6-3-5": 4,
    "6-3-6": 4,
    "6-3-7": 4,
    "6-3-8": 4,
    "6-3-9": 4,
    "6-4-0": 1,
    "6-4-1": 4,
    "6-4-10": 4,
    "6-4-11": 4,
    "6-4-12": 4,
    "6-4-13": 4,
    "6-4-14": 4,
    "6-4-15": 4,
    "6-4-16": 4,
    "6-4-17": 1,
    "6-4-2": 4,
    "6-4-3": 4,
    "6-4-4": 4,
    "6-4-5": 4,
    "6-4-6": 4,
    "6-4-7": 4,
    "6-4-8": 4,
    "6-4-9": 4,
    "6-5-0": 0,
    "6-5-1": 4,
    "6-5-10": 4,
    "6-5-11": 4,
    "6-5-12": 4,
    "6-5-13": 4,
    "6-5-14": 4,
    "6-5-15": 4,
    "6-5-16": 4,
    "6-5-17": 0,
    "6-5-2": 4,
    "6-5-3": 4,
    "6-5-4": 4,
    "6-5-5": 4,
    "6-5-6": 4,
    "6-5-7": 4,
    "6-5-8": 4,
    "6-5-9": 4,
    "6-6-0": 0,
    "6-6-1": 3,
    "6-6-10": 0,
    "6-6-11": 0,
    "6-6-12": 0,
    "6-6-13": 0,
    "6-6-14": 0,
    "6-6-15": 0,
    "6-6-16": 0,
    "6-6-17": 0,
    "6-6-2": 0,
    "6-6-3": 0,
    "6-6-4": 0,
    "6-6-5": 0,
    "6-6-6": 0,
    "6-6-7": 0,
    "6-6-8": 0,
    "6-6-9": 0,
    "7-0-10": 0,
    "7-0-11": 0,
    "7-0-12": 0,
    "7-0-13": 0,
    "7-0-14": 0,
    "7-0-15": 0,
    "7-0-16": 0,
    "7-0-3": 0,
    "7-0-4": 0,
    "7-0-5": 0,
    "7-0-6": 0,
    "7-0-7": 0,
    "7-0-8": 0,
    "7-0-9": 0,
    "7-1-10": 2,
    "7-1-11": 2,
    "7-1-12": 2,
    "7-1-13": 2,
    "7-1-14": 2,
    "7-1-15": 2,
    "7-1-16": 2,
    "7-1-17": 0,
    "7-1-2": 0,
    "7-1-3": 2,
    "7-1-4": 2,
    "7-1-5": 2,
    "7-1-6": 2,
    "7-1-7": 2,
    "7-1-8": 2,
    "7-1-9": 2,
    "7-2-0": 0,
    "7-2-1": 3,
    "7-2-10": 4,
    "7-2-11": 4,
    "7-2-12": 4,
    "7-2-13": 4,
    "7-2-14": 4,
    "7-2-15": 4,
    "7-2-16": 4,
    "7-2-17": 0,
    "7-2-2": 3,
    "7-2-3": 4,
    "7-2-4": 4,
    "7-2-5": 4,
    "7-2-6": 4,
    "7-2-7": 4,
    "7-2-8": 4,
    "7-2-9": 4,
    "7-3-0": 0,
    "7-3-1": 4,
    "7-3-10": 4,
    "7-3-11": 4,
    "7-3-12": 4,
    "7-3-13": 4,
    "7-3-14": 4,
    "7-3-15": 4,
    "7-3-16": 4,
    "7-3-17": 0,
    "7-3-2": 4,
    "7-3-3": 4,
    "7-3-4": 4,
    "7-3-5": 4,
    "7-3-6": 4,
    "7-3-7": 4,
    "7-3-8": 4,
    "7-3-9": 4,
    "7-4-0": 1,
    "7-4-1": 4,
    "7-4-10": 4,
    "7-4-11": 4,
    "7-4-12": 4,
    "7-4-13": 4,
    "7-4-14": 4,
    "7-4-15": 4,
    "7-4-16": 4,
    "7-4-17": 1,
    "7-4-2": 4,
    "7-4-3": 4,
    "7-4-4": 4,
    "7-4-5": 4,
    "7-4-6": 4,
    "7-4-7": 4,
    "7-4-8": 4,
    "7-4-9": 4,
    "7-5-0": 0,
    "7-5-1": 4,
    "7-5-10": 4,
    "7-5-11": 4,
    "7-5-12": 4,
    "7-5-13": 4,
    "7-5-14": 4,
    "7-5-15": 4,
    "7-5-16": 4,
    "7-5-17": 0,
    "7-5-2": 4,
    "7-5-3": 4,
    "7-5-4": 4,
    "7-5-5": 4,
    "7-5-6": 4,
    "7-5-7": 4,
    "7-5-8": 4,
    "7-5-9": 4,
    "7-6-0": 0,
    "7-6-1": 3,
    "7-6-10": 0,
    "7-6-11": 0,
    "7-6-12": 0,
    "7-6-13": 0,
    "7-6-14": 0,
    "7-6-15": 0,
    "7-6-16": 0,
    "7-6-17": 0,
    "7-6-2": 3,
    "7-6-3": 0,
    "7-6-4": 0,
    "7-6-5": 0,
    "7-6-6": 0,
    "7-6-7": 0,
    "7-6-8": 0,
    "7-6-9": 0,
    "8-1-10": 0,
    "8-1-11": 0,
    "8-1-12": 0,
    "8-1-13": 0,
    "8-1-14": 0,
    "8-1-15": 0,
    "8-1-16": 0,
    "8-1-17": 0,
    "8-1-3": 0,
    "8-1-4": 0,
    "8-1-5": 0,
    "8-1-6": 0,
    "8-1-7": 0,
    "8-1-8": 0,
    "8-1-9": 0,
    "8-2-1": 0,
    "8-2-10": 0,
    "8-2-11": 0,
    "8-2-12": 0,
    "8-2-13": 0,
    "8-2-14": 0,
    "8-2-15": 0,
    "8-2-16": 0,
    "8-2-17": 0,
    "8-2-2": 0,
    "8-2-3": 0,
    "8-2-4": 0,
    "8-2-5": 0,
    "8-2-6": 0,
    "8-2-7": 0,
    "8-2-8": 0,
    "8-2-9": 0,
    "8-3-0": 0,
    "8-3-1": 0,
    "8-3-10": 0,
    "8-3-11": 0,
    "8-3-12": 0,
    "8-3-13": 0,
    "8-3-14": 0,
    "8-3-15": 0,
    "8-3-16": 0,
    "8-3-17": 0,
    "8-3-2": 0,
    "8-3-3": 0,
    "8-3-4": 0,
    "8-3-5": 0,
    "8-3-6": 0,
    "8-3-7": 0,
    "8-3-8": 0,
    "8-3-9": 0,
    "8-4-0": 1,
    "8-4-1": 1,
    "8-4-10": 1,
    "8-4-11": 1,
    "8-4-12": 1,
    "8-4-13": 1,
    "8-4-14": 1,
    "8-4-15": 1,
    "8-4-16": 1,
    "8-4-17": 1,
    "8-4-2": 1,
    "8-4-3": 1,
    "8-4-4": 1,
    "8-4-5": 1,
    "8-4-6": 1,
    "8-4-7": 1,
    "8-4-8": 1,
    "8-4-9": 1,
    "8-5-0": 0,
    "8-5-1": 0,
    "8-5-10": 0,
    "8-5-11": 0,
    "8-5-12": 0,
    "8-5-13": 0,
    "8-5-14": 0,
    "8-5-15": 0,
    "8-5-16": 0,
    "8-5-17": 0,
    "8-5-2": 0,
    "8-5-3": 0,
    "8-5-4": 0,
    "8-5-5": 0,
    "8-5-6": 0,
    "8-5-7": 0,
    "8-5-8": 0,
    "8-5-9": 0,
    "8-6-0": 0,
    "8-6-1": 0,
    "8-6-10": 0,
    "8-6-11": 0,
    "8-6-12": 0,
    "8-6-13": 0,
    "8-6-14": 0,
    "8-6-15": 0,
    "8-6-16": 0,
    "8-6-17": 0,
    "8-6-2": 0,
    "8-6-3": 0,
    "8-6-4": 0,
    "8-6-5": 0,
    "8-6-6": 0,
    "8-6-7": 0,
    "8-6-8": 0,
    "8-6-9": 0
  },
  "stateMap": {
    "0": "futurepack:color_iron_gray:",
    "1": "futurepack:color_iron_purple:",
    "2": "minecraft:lava:level\u003d0",
    "3": "futurepack:quantanium:down\u003dtrue;east\u003dtrue;north\u003dtrue;south\u003dtrue;up\u003dtrue;west\u003dtrue",
    "4": "minecraft:air:",
    "5": "futurepack:wardrobe_white_large_1:",
    "6": "futurepack:color_iron_black:",
    "7": "futurepack:ironladder:facing\u003dsouth;waterlogged\u003dfalse"
  }
}