{
  "data": {
    "0-0-2": "0",
    "0-0-3": "1",
    "0-0-4": "2",
    "0-0-5": "1",
    "0-0-6": "0",
    "0-0-7": "0",
    "0-0-8": "1",
    "0-0-9": "2",
    "0-0-10": "1",
    "0-0-11": "0",
    "0-1-2": "0",
    "0-1-3": "a",
    "0-1-4": "a",
    "0-1-5": "a",
    "0-1-6": "0",
    "0-1-7": "0",
    "0-1-8": "a",
    "0-1-9": "a",
    "0-1-10": "a",
    "0-1-11": "0",
    "0-2-2": "4",
    "0-2-3": "a",
    "0-2-4": "a",
    "0-2-5": "a",
    "0-2-6": "4",
    "0-2-7": "4",
    "0-2-8": "a",
    "0-2-9": "a",
    "0-2-10": "a",
    "0-2-11": "4",
    "0-3-2": "0",
    "0-3-3": "a",
    "0-3-4": "a",
    "0-3-5": "a",
    "0-3-6": "0",
    "0-3-7": "0",
    "0-3-8": "a",
    "0-3-9": "a",
    "0-3-10": "a",
    "0-3-11": "0",
    "0-4-2": "0",
    "0-4-3": "1",
    "0-4-4": "2",
    "0-4-5": "1",
    "0-4-6": "0",
    "0-4-7": "0",
    "0-4-8": "1",
    "0-4-9": "2",
    "0-4-10": "1",
    "0-4-11": "0",
    "1-0-1": "0",
    "1-0-2": "5",
    "1-0-3": "6",
    "1-0-4": "2",
    "1-0-5": "7",
    "1-0-6": "8",
    "1-0-7": "8",
    "1-0-8": "6",
    "1-0-9": "2",
    "1-0-10": "7",
    "1-0-11": "9",
    "1-0-12": "0",
    "1-1-1": "0",
    "1-1-2": "a",
    "1-1-3": "a",
    "1-1-4": "a",
    "1-1-5": "a",
    "1-1-6": "a",
    "1-1-7": "a",
    "1-1-8": "a",
    "1-1-9": "a",
    "1-1-10": "a",
    "1-1-11": "a",
    "1-1-12": "0",
    "1-2-1": "4",
    "1-2-2": "a",
    "1-2-3": "a",
    "1-2-4": "a",
    "1-2-5": "a",
    "1-2-6": "a",
    "1-2-7": "a",
    "1-2-8": "a",
    "1-2-9": "a",
    "1-2-10": "a",
    "1-2-11": "a",
    "1-2-12": "4",
    "1-3-1": "0",
    "1-3-2": "a",
    "1-3-3": "a",
    "1-3-4": "a",
    "1-3-5": "a",
    "1-3-6": "a",
    "1-3-7": "a",
    "1-3-8": "a",
    "1-3-9": "a",
    "1-3-10": "a",
    "1-3-11": "a",
    "1-3-12": "0",
    "1-4-1": "0",
    "1-4-2": "5",
    "1-4-3": "6",
    "1-4-4": "b",
    "1-4-5": "7",
    "1-4-6": "8",
    "1-4-7": "8",
    "1-4-8": "6",
    "1-4-9": "b",
    "1-4-10": "7",
    "1-4-11": "9",
    "1-4-12": "0",
    "1-5-3": "4",
    "1-5-4": "c",
    "1-5-5": "4",
    "1-5-8": "4",
    "1-5-9": "c",
    "1-5-10": "4",
    "2-0-0": "0",
    "2-0-1": "5",
    "2-0-2": "6",
    "2-0-3": "2",
    "2-0-4": "2",
    "2-0-5": "2",
    "2-0-6": "2",
    "2-0-7": "2",
    "2-0-8": "2",
    "2-0-9": "2",
    "2-0-10": "2",
    "2-0-11": "7",
    "2-0-12": "9",
    "2-0-13": "0",
    "2-1-0": "0",
    "2-1-1": "a",
    "2-1-2": "a",
    "2-1-3": "a",
    "2-1-4": "a",
    "2-1-5": "a",
    "2-1-6": "a",
    "2-1-7": "a",
    "2-1-8": "a",
    "2-1-9": "a",
    "2-1-10": "a",
    "2-1-11": "a",
    "2-1-12": "a",
    "2-1-13": "0",
    "2-2-0": "4",
    "2-2-1": "a",
    "2-2-2": "a",
    "2-2-3": "a",
    "2-2-4": "a",
    "2-2-5": "a",
    "2-2-6": "a",
    "2-2-7": "a",
    "2-2-8": "a",
    "2-2-9": "a",
    "2-2-10": "a",
    "2-2-11": "a",
    "2-2-12": "a",
    "2-2-13": "4",
    "2-3-0": "0",
    "2-3-1": "a",
    "2-3-2": "a",
    "2-3-3": "a",
    "2-3-4": "a",
    "2-3-5": "a",
    "2-3-6": "a",
    "2-3-7": "a",
    "2-3-8": "a",
    "2-3-9": "a",
    "2-3-10": "a",
    "2-3-11": "a",
    "2-3-12": "a",
    "2-3-13": "0",
    "2-4-0": "0",
    "2-4-1": "5",
    "2-4-2": "6",
    "2-4-3": "a",
    "2-4-4": "b",
    "2-4-5": "a",
    "2-4-6": "a",
    "2-4-7": "a",
    "2-4-8": "a",
    "2-4-9": "b",
    "2-4-10": "a",
    "2-4-11": "7",
    "2-4-12": "9",
    "2-4-13": "0",
    "2-5-3": "4",
    "2-5-4": "c",
    "2-5-5": "4",
    "2-5-6": "2",
    "2-5-7": "2",
    "2-5-8": "4",
    "2-5-9": "c",
    "2-5-10": "4",
    "3-0-0": "0",
    "3-0-1": "d",
    "3-0-2": "2",
    "3-0-3": "2",
    "3-0-4": "2",
    "3-0-5": "2",
    "3-0-6": "2",
    "3-0-7": "2",
    "3-0-8": "2",
    "3-0-9": "2",
    "3-0-10": "2",
    "3-0-11": "2",
    "3-0-12": "d",
    "3-0-13": "0",
    "3-1-0": "0",
    "3-1-1": "a",
    "3-1-2": "a",
    "3-1-3": "a",
    "3-1-4": "a",
    "3-1-5": "a",
    "3-1-6": "a",
    "3-1-7": "a",
    "3-1-8": "a",
    "3-1-9": "a",
    "3-1-10": "a",
    "3-1-11": "a",
    "3-1-12": "a",
    "3-1-13": "0",
    "3-2-0": "4",
    "3-2-1": "a",
    "3-2-2": "a",
    "3-2-3": "a",
    "3-2-4": "a",
    "3-2-5": "a",
    "3-2-6": "a",
    "3-2-7": "a",
    "3-2-8": "a",
    "3-2-9": "a",
    "3-2-10": "a",
    "3-2-11": "a",
    "3-2-12": "a",
    "3-2-13": "4",
    "3-3-0": "0",
    "3-3-1": "a",
    "3-3-2": "a",
    "3-3-3": "a",
    "3-3-4": "a",
    "3-3-5": "a",
    "3-3-6": "a",
    "3-3-7": "a",
    "3-3-8": "a",
    "3-3-9": "a",
    "3-3-10": "a",
    "3-3-11": "a",
    "3-3-12": "a",
    "3-3-13": "0",
    "3-4-0": "0",
    "3-4-1": "d",
    "3-4-2": "a",
    "3-4-3": "a",
    "3-4-4": "b",
    "3-4-5": "a",
    "3-4-6": "a",
    "3-4-7": "a",
    "3-4-8": "a",
    "3-4-9": "b",
    "3-4-10": "a",
    "3-4-11": "a",
    "3-4-12": "d",
    "3-4-13": "0",
    "3-5-2": "2",
    "3-5-3": "4",
    "3-5-4": "c",
    "3-5-5": "4",
    "3-5-6": "2",
    "3-5-7": "2",
    "3-5-8": "4",
    "3-5-9": "c",
    "3-5-10": "4",
    "3-5-11": "2",
    "4-0-0": "0",
    "4-0-1": "d",
    "4-0-2": "2",
    "4-0-3": "2",
    "4-0-4": "2",
    "4-0-5": "2",
    "4-0-6": "2",
    "4-0-7": "2",
    "4-0-8": "2",
    "4-0-9": "2",
    "4-0-10": "2",
    "4-0-11": "2",
    "4-0-12": "d",
    "4-0-13": "0",
    "4-1-0": "0",
    "4-1-1": "a",
    "4-1-2": "a",
    "4-1-3": "4",
    "4-1-4": "e",
    "4-1-5": "4",
    "4-1-6": "a",
    "4-1-7": "a",
    "4-1-8": "4",
    "4-1-9": "e",
    "4-1-10": "4",
    "4-1-11": "a",
    "4-1-12": "a",
    "4-1-13": "0",
    "4-2-0": "4",
    "4-2-1": "a",
    "4-2-2": "a",
    "4-2-3": "4",
    "4-2-4": "e",
    "4-2-5": "4",
    "4-2-6": "a",
    "4-2-7": "a",
    "4-2-8": "4",
    "4-2-9": "e",
    "4-2-10": "4",
    "4-2-11": "a",
    "4-2-12": "a",
    "4-2-13": "4",
    "4-3-0": "0",
    "4-3-1": "a",
    "4-3-2": "a",
    "4-3-3": "4",
    "4-3-4": "e",
    "4-3-5": "4",
    "4-3-6": "a",
    "4-3-7": "a",
    "4-3-8": "4",
    "4-3-9": "e",
    "4-3-10": "4",
    "4-3-11": "a",
    "4-3-12": "a",
    "4-3-13": "0",
    "4-4-0": "0",
    "4-4-1": "f",
    "4-4-2": "a",
    "4-4-3": "4",
    "4-4-4": "10",
    "4-4-5": "4",
    "4-4-6": "a",
    "4-4-7": "a",
    "4-4-8": "4",
    "4-4-9": "10",
    "4-4-10": "4",
    "4-4-11": "a",
    "4-4-12": "f",
    "4-4-13": "0",
    "4-5-1": "4",
    "4-5-2": "4",
    "4-5-3": "4",
    "4-5-4": "c",
    "4-5-5": "4",
    "4-5-6": "4",
    "4-5-7": "4",
    "4-5-8": "4",
    "4-5-9": "c",
    "4-5-10": "4",
    "4-5-11": "4",
    "4-5-12": "4",
    "5-0-0": "0",
    "5-0-1": "d",
    "5-0-2": "2",
    "5-0-3": "2",
    "5-0-4": "2",
    "5-0-5": "2",
    "5-0-6": "2",
    "5-0-7": "2",
    "5-0-8": "2",
    "5-0-9": "2",
    "5-0-10": "2",
    "5-0-11": "2",
    "5-0-12": "d",
    "5-0-13": "0",
    "5-1-0": "0",
    "5-1-1": "a",
    "5-1-2": "a",
    "5-1-3": "11",
    "5-1-4": "c",
    "5-1-5": "12",
    "5-1-6": "a",
    "5-1-7": "a",
    "5-1-8": "11",
    "5-1-9": "c",
    "5-1-10": "12",
    "5-1-11": "a",
    "5-1-12": "a",
    "5-1-13": "0",
    "5-2-0": "4",
    "5-2-1": "a",
    "5-2-2": "a",
    "5-2-3": "11",
    "5-2-4": "c",
    "5-2-5": "12",
    "5-2-6": "a",
    "5-2-7": "a",
    "5-2-8": "11",
    "5-2-9": "c",
    "5-2-10": "12",
    "5-2-11": "a",
    "5-2-12": "a",
    "5-2-13": "4",
    "5-3-0": "0",
    "5-3-1": "a",
    "5-3-2": "a",
    "5-3-3": "11",
    "5-3-4": "c",
    "5-3-5": "12",
    "5-3-6": "a",
    "5-3-7": "a",
    "5-3-8": "11",
    "5-3-9": "c",
    "5-3-10": "12",
    "5-3-11": "a",
    "5-3-12": "a",
    "5-3-13": "0",
    "5-4-0": "0",
    "5-4-1": "b",
    "5-4-2": "b",
    "5-4-3": "13",
    "5-4-4": "c",
    "5-4-5": "14",
    "5-4-6": "b",
    "5-4-7": "b",
    "5-4-8": "13",
    "5-4-9": "c",
    "5-4-10": "14",
    "5-4-11": "b",
    "5-4-12": "b",
    "5-4-13": "0",
    "5-5-1": "c",
    "5-5-2": "c",
    "5-5-3": "c",
    "5-5-4": "c",
    "5-5-5": "c",
    "5-5-6": "c",
    "5-5-7": "c",
    "5-5-8": "c",
    "5-5-9": "c",
    "5-5-10": "c",
    "5-5-11": "c",
    "5-5-12": "c",
    "6-0-0": "0",
    "6-0-1": "d",
    "6-0-2": "2",
    "6-0-3": "2",
    "6-0-4": "2",
    "6-0-5": "2",
    "6-0-6": "2",
    "6-0-7": "2",
    "6-0-8": "2",
    "6-0-9": "2",
    "6-0-10": "2",
    "6-0-11": "2",
    "6-0-12": "d",
    "6-0-13": "0",
    "6-1-0": "0",
    "6-1-1": "a",
    "6-1-2": "a",
    "6-1-3": "4",
    "6-1-4": "15",
    "6-1-5": "4",
    "6-1-6": "a",
    "6-1-7": "a",
    "6-1-8": "4",
    "6-1-9": "15",
    "6-1-10": "4",
    "6-1-11": "a",
    "6-1-12": "a",
    "6-1-13": "0",
    "6-2-0": "4",
    "6-2-1": "a",
    "6-2-2": "a",
    "6-2-3": "4",
    "6-2-4": "15",
    "6-2-5": "4",
    "6-2-6": "a",
    "6-2-7": "a",
    "6-2-8": "4",
    "6-2-9": "15",
    "6-2-10": "4",
    "6-2-11": "a",
    "6-2-12": "a",
    "6-2-13": "4",
    "6-3-0": "0",
    "6-3-1": "a",
    "6-3-2": "a",
    "6-3-3": "4",
    "6-3-4": "15",
    "6-3-5": "4",
    "6-3-6": "a",
    "6-3-7": "a",
    "6-3-8": "4",
    "6-3-9": "15",
    "6-3-10": "4",
    "6-3-11": "a",
    "6-3-12": "a",
    "6-3-13": "0",
    "6-4-0": "0",
    "6-4-1": "1",
    "6-4-2": "a",
    "6-4-3": "4",
    "6-4-4": "16",
    "6-4-5": "4",
    "6-4-6": "a",
    "6-4-7": "a",
    "6-4-8": "4",
    "6-4-9": "16",
    "6-4-10": "4",
    "6-4-11": "a",
    "6-4-12": "1",
    "6-4-13": "0",
    "6-5-1": "4",
    "6-5-2": "4",
    "6-5-3": "4",
    "6-5-4": "c",
    "6-5-5": "4",
    "6-5-6": "4",
    "6-5-7": "4",
    "6-5-8": "4",
    "6-5-9": "c",
    "6-5-10": "4",
    "6-5-11": "4",
    "6-5-12": "4",
    "7-0-0": "0",
    "7-0-1": "d",
    "7-0-2": "2",
    "7-0-3": "2",
    "7-0-4": "2",
    "7-0-5": "2",
    "7-0-6": "2",
    "7-0-7": "2",
    "7-0-8": "2",
    "7-0-9": "2",
    "7-0-10": "2",
    "7-0-11": "2",
    "7-0-12": "d",
    "7-0-13": "0",
    "7-1-0": "0",
    "7-1-1": "a",
    "7-1-2": "a",
    "7-1-3": "a",
    "7-1-4": "a",
    "7-1-5": "a",
    "7-1-6": "a",
    "7-1-7": "a",
    "7-1-8": "a",
    "7-1-9": "a",
    "7-1-10": "a",
    "7-1-11": "a",
    "7-1-12": "a",
    "7-1-13": "0",
    "7-2-0": "4",
    "7-2-1": "a",
    "7-2-2": "a",
    "7-2-3": "a",
    "7-2-4": "a",
    "7-2-5": "a",
    "7-2-6": "a",
    "7-2-7": "a",
    "7-2-8": "a",
    "7-2-9": "a",
    "7-2-10": "a",
    "7-2-11": "a",
    "7-2-12": "a",
    "7-2-13": "4",
    "7-3-0": "0",
    "7-3-1": "a",
    "7-3-2": "a",
    "7-3-3": "a",
    "7-3-4": "a",
    "7-3-5": "a",
    "7-3-6": "a",
    "7-3-7": "a",
    "7-3-8": "a",
    "7-3-9": "a",
    "7-3-10": "a",
    "7-3-11": "a",
    "7-3-12": "a",
    "7-3-13": "0",
    "7-4-0": "0",
    "7-4-1": "d",
    "7-4-2": "a",
    "7-4-3": "a",
    "7-4-4": "b",
    "7-4-5": "a",
    "7-4-6": "a",
    "7-4-7": "a",
    "7-4-8": "a",
    "7-4-9": "b",
    "7-4-10": "a",
    "7-4-11": "a",
    "7-4-12": "d",
    "7-4-13": "0",
    "7-5-2": "2",
    "7-5-3": "4",
    "7-5-4": "c",
    "7-5-5": "4",
    "7-5-6": "2",
    "7-5-7": "2",
    "7-5-8": "4",
    "7-5-9": "c",
    "7-5-10": "4",
    "7-5-11": "2",
    "8-0-0": "0",
    "8-0-1": "7",
    "8-0-2": "9",
    "8-0-3": "2",
    "8-0-4": "2",
    "8-0-5": "2",
    "8-0-6": "2",
    "8-0-7": "2",
    "8-0-8": "2",
    "8-0-9": "2",
    "8-0-10": "2",
    "8-0-11": "5",
    "8-0-12": "6",
    "8-0-13": "0",
    "8-1-0": "0",
    "8-1-1": "a",
    "8-1-2": "a",
    "8-1-3": "a",
    "8-1-4": "a",
    "8-1-5": "a",
    "8-1-6": "a",
    "8-1-7": "a",
    "8-1-8": "a",
    "8-1-9": "a",
    "8-1-10": "a",
    "8-1-11": "a",
    "8-1-12": "a",
    "8-1-13": "0",
    "8-2-0": "4",
    "8-2-1": "a",
    "8-2-2": "a",
    "8-2-3": "a",
    "8-2-4": "a",
    "8-2-5": "a",
    "8-2-6": "a",
    "8-2-7": "a",
    "8-2-8": "a",
    "8-2-9": "a",
    "8-2-10": "a",
    "8-2-11": "a",
    "8-2-12": "a",
    "8-2-13": "4",
    "8-3-0": "0",
    "8-3-1": "a",
    "8-3-2": "a",
    "8-3-3": "a",
    "8-3-4": "a",
    "8-3-5": "a",
    "8-3-6": "a",
    "8-3-7": "a",
    "8-3-8": "a",
    "8-3-9": "a",
    "8-3-10": "a",
    "8-3-11": "a",
    "8-3-12": "a",
    "8-3-13": "0",
    "8-4-0": "0",
    "8-4-1": "7",
    "8-4-2": "9",
    "8-4-3": "a",
    "8-4-4": "b",
    "8-4-5": "a",
    "8-4-6": "a",
    "8-4-7": "a",
    "8-4-8": "a",
    "8-4-9": "b",
    "8-4-10": "a",
    "8-4-11": "5",
    "8-4-12": "6",
    "8-4-13": "0",
    "8-5-3": "4",
    "8-5-4": "c",
    "8-5-5": "4",
    "8-5-6": "2",
    "8-5-7": "2",
    "8-5-8": "4",
    "8-5-9": "c",
    "8-5-10": "4",
    "9-0-1": "0",
    "9-0-2": "7",
    "9-0-3": "8",
    "9-0-4": "8",
    "9-0-5": "8",
    "9-0-6": "8",
    "9-0-7": "8",
    "9-0-8": "8",
    "9-0-9": "8",
    "9-0-10": "8",
    "9-0-11": "6",
    "9-0-12": "0",
    "9-1-1": "0",
    "9-1-2": "a",
    "9-1-3": "a",
    "9-1-4": "a",
    "9-1-5": "a",
    "9-1-6": "a",
    "9-1-7": "a",
    "9-1-8": "a",
    "9-1-9": "a",
    "9-1-10": "a",
    "9-1-11": "a",
    "9-1-12": "0",
    "9-2-1": "4",
    "9-2-2": "a",
    "9-2-3": "a",
    "9-2-4": "a",
    "9-2-5": "a",
    "9-2-6": "a",
    "9-2-7": "a",
    "9-2-8": "a",
    "9-2-9": "a",
    "9-2-10": "a",
    "9-2-11": "a",
    "9-2-12": "4",
    "9-3-1": "0",
    "9-3-2": "a",
    "9-3-3": "a",
    "9-3-4": "a",
    "9-3-5": "a",
    "9-3-6": "a",
    "9-3-7": "a",
    "9-3-8": "a",
    "9-3-9": "a",
    "9-3-10": "a",
    "9-3-11": "a",
    "9-3-12": "0",
    "9-4-1": "0",
    "9-4-2": "7",
    "9-4-3": "17",
    "9-4-4": "b",
    "9-4-5": "18",
    "9-4-6": "8",
    "9-4-7": "8",
    "9-4-8": "17",
    "9-4-9": "b",
    "9-4-10": "18",
    "9-4-11": "6",
    "9-4-12": "0",
    "9-5-3": "4",
    "9-5-4": "c",
    "9-5-5": "4",
    "9-5-8": "4",
    "9-5-9": "c",
    "9-5-10": "4",
    "10-0-2": "0",
    "10-0-3": "0",
    "10-0-4": "0",
    "10-0-5": "0",
    "10-0-6": "0",
    "10-0-7": "0",
    "10-0-8": "0",
    "10-0-9": "0",
    "10-0-10": "0",
    "10-0-11": "0",
    "10-1-2": "0",
    "10-1-3": "0",
    "10-1-4": "0",
    "10-1-5": "0",
    "10-1-6": "0",
    "10-1-7": "0",
    "10-1-8": "0",
    "10-1-9": "0",
    "10-1-10": "0",
    "10-1-11": "0",
    "10-2-2": "4",
    "10-2-3": "4",
    "10-2-4": "4",
    "10-2-5": "4",
    "10-2-6": "4",
    "10-2-7": "4",
    "10-2-8": "4",
    "10-2-9": "4",
    "10-2-10": "4",
    "10-2-11": "4",
    "10-3-2": "0",
    "10-3-3": "0",
    "10-3-4": "0",
    "10-3-5": "0",
    "10-3-6": "0",
    "10-3-7": "0",
    "10-3-8": "0",
    "10-3-9": "0",
    "10-3-10": "0",
    "10-3-11": "0",
    "10-4-2": "0",
    "10-4-3": "0",
    "10-4-4": "0",
    "10-4-5": "0",
    "10-4-6": "0",
    "10-4-7": "0",
    "10-4-8": "0",
    "10-4-9": "0",
    "10-4-10": "0",
    "10-4-11": "0"
  },
  "inventorys": [],
  "doors": [
    {
      "facing": 4,
      "w": 1,
      "h": 3,
      "d": 3,
      "start": "0,1,3",
      "type": "water"
    },
    {
      "facing": 4,
      "w": 1,
      "h": 3,
      "d": 3,
      "start": "0,1,8",
      "type": "water"
    }
  ],
  "stateMap": {
    "0": "futurepack:color_iron_gray:",
    "1": "futurepack:quantanium:down\u003dfalse;east\u003dtrue;glowing\u003dfalse;north\u003dfalse;south\u003dfalse;up\u003dfalse;west\u003dfalse",
    "10": "futurepack:color_gitter_stair_black:facing\u003deast;half\u003dtop;shape\u003dstraight;waterlogged\u003dtrue",
    "11": "futurepack:color_gitter_pane_black:east\u003dtrue;north\u003dfalse;south\u003dtrue;waterlogged\u003dtrue;west\u003dtrue",
    "12": "futurepack:color_gitter_pane_black:east\u003dtrue;north\u003dtrue;south\u003dfalse;waterlogged\u003dtrue;west\u003dtrue",
    "13": "futurepack:color_gitter_stair_black:facing\u003dsouth;half\u003dtop;shape\u003dstraight;waterlogged\u003dtrue",
    "14": "futurepack:color_gitter_stair_black:facing\u003dnorth;half\u003dtop;shape\u003dstraight;waterlogged\u003dtrue",
    "15": "futurepack:color_gitter_pane_black:east\u003dfalse;north\u003dtrue;south\u003dtrue;waterlogged\u003dtrue;west\u003dtrue",
    "16": "futurepack:color_gitter_stair_black:facing\u003dwest;half\u003dtop;shape\u003dstraight;waterlogged\u003dtrue",
    "17": "futurepack:quantanium:down\u003dfalse;east\u003dfalse;glowing\u003dfalse;north\u003dtrue;south\u003dfalse;up\u003dfalse;west\u003dfalse",
    "18": "futurepack:quantanium:down\u003dfalse;east\u003dfalse;glowing\u003dfalse;north\u003dfalse;south\u003dtrue;up\u003dfalse;west\u003dfalse",
    "2": "futurepack:color_iron_black:",
    "3": "minecraft:air:",
    "4": "futurepack:color_iron_purple:",
    "5": "futurepack:quantanium:down\u003dfalse;east\u003dtrue;glowing\u003dfalse;north\u003dfalse;south\u003dtrue;up\u003dfalse;west\u003dfalse",
    "6": "futurepack:quantanium:down\u003dfalse;east\u003dfalse;glowing\u003dfalse;north\u003dtrue;south\u003dfalse;up\u003dfalse;west\u003dtrue",
    "7": "futurepack:quantanium:down\u003dfalse;east\u003dfalse;glowing\u003dfalse;north\u003dfalse;south\u003dtrue;up\u003dfalse;west\u003dtrue",
    "8": "futurepack:quantanium:down\u003dfalse;east\u003dfalse;glowing\u003dfalse;north\u003dtrue;south\u003dtrue;up\u003dfalse;west\u003dfalse",
    "9": "futurepack:quantanium:down\u003dfalse;east\u003dtrue;glowing\u003dfalse;north\u003dtrue;south\u003dfalse;up\u003dfalse;west\u003dfalse",
    "a": "minecraft:water:level\u003d0",
    "b": "futurepack:color_gitter_slab_black:type\u003dtop;waterlogged\u003dtrue",
    "c": "futurepack:retium_brick:",
    "d": "futurepack:quantanium:down\u003dfalse;east\u003dtrue;glowing\u003dfalse;north\u003dfalse;south\u003dfalse;up\u003dfalse;west\u003dtrue",
    "e": "futurepack:color_gitter_pane_black:east\u003dtrue;north\u003dtrue;south\u003dtrue;waterlogged\u003dtrue;west\u003dfalse",
    "f": "futurepack:quantanium:down\u003dfalse;east\u003dfalse;glowing\u003dfalse;north\u003dfalse;south\u003dfalse;up\u003dfalse;west\u003dtrue"
  }
}