{
  "data": {
    "0-0-0": "0",
    "0-0-1": "1",
    "0-0-2": "2",
    "0-0-3": "3",
    "0-0-4": "4",
    "0-0-5": "3",
    "0-0-6": "2",
    "0-0-7": "5",
    "0-0-8": "6",
    "0-1-0": "2",
    "0-1-1": "7",
    "0-1-2": "8",
    "0-1-3": "9",
    "0-1-4": "9",
    "0-1-5": "9",
    "0-1-6": "a",
    "0-1-7": "7",
    "0-1-8": "2",
    "0-2-0": "2",
    "0-2-1": "7",
    "0-2-2": "8",
    "0-2-3": "9",
    "0-2-4": "9",
    "0-2-5": "9",
    "0-2-6": "a",
    "0-2-7": "7",
    "0-2-8": "2",
    "0-3-0": "2",
    "0-3-1": "b",
    "0-3-2": "8",
    "0-3-3": "9",
    "0-3-4": "9",
    "0-3-5": "9",
    "0-3-6": "a",
    "0-3-7": "b",
    "0-3-8": "2",
    "0-4-0": "2",
    "0-4-1": "2",
    "0-4-2": "2",
    "0-4-3": "3",
    "0-4-4": "4",
    "0-4-5": "3",
    "0-4-6": "2",
    "0-4-7": "2",
    "0-4-8": "2",
    "1-0-0": "c",
    "1-0-1": "2",
    "1-0-2": "2",
    "1-0-3": "d",
    "1-0-4": "4",
    "1-0-5": "d",
    "1-0-6": "2",
    "1-0-7": "2",
    "1-0-8": "c",
    "1-1-0": "2",
    "1-1-1": "2",
    "1-1-2": "2",
    "1-1-3": "e",
    "1-1-4": "e",
    "1-1-5": "e",
    "1-1-6": "2",
    "1-1-7": "2",
    "1-1-8": "2",
    "1-2-0": "f",
    "1-2-1": "f",
    "1-2-2": "f",
    "1-2-3": "e",
    "1-2-4": "e",
    "1-2-5": "e",
    "1-2-6": "f",
    "1-2-7": "f",
    "1-2-8": "f",
    "1-3-0": "2",
    "1-3-1": "2",
    "1-3-2": "2",
    "1-3-3": "e",
    "1-3-4": "e",
    "1-3-5": "e",
    "1-3-6": "2",
    "1-3-7": "2",
    "1-3-8": "2",
    "1-4-0": "2",
    "1-4-1": "2",
    "1-4-2": "2",
    "1-4-3": "d",
    "1-4-4": "4",
    "1-4-5": "d",
    "1-4-6": "2",
    "1-4-7": "2",
    "1-4-8": "2",
    "2-0-0": "c",
    "2-0-1": "10",
    "2-0-2": "11",
    "2-0-3": "12",
    "2-0-4": "4",
    "2-0-5": "13",
    "2-0-6": "11",
    "2-0-7": "14",
    "2-0-8": "c",
    "2-1-0": "2",
    "2-1-1": "e",
    "2-1-2": "e",
    "2-1-3": "e",
    "2-1-4": "e",
    "2-1-5": "e",
    "2-1-6": "e",
    "2-1-7": "e",
    "2-1-8": "2",
    "2-2-0": "f",
    "2-2-1": "e",
    "2-2-2": "e",
    "2-2-3": "e",
    "2-2-4": "e",
    "2-2-5": "e",
    "2-2-6": "e",
    "2-2-7": "e",
    "2-2-8": "f",
    "2-3-0": "2",
    "2-3-1": "e",
    "2-3-2": "e",
    "2-3-3": "e",
    "2-3-4": "e",
    "2-3-5": "e",
    "2-3-6": "e",
    "2-3-7": "e",
    "2-3-8": "2",
    "2-4-0": "2",
    "2-4-1": "10",
    "2-4-2": "11",
    "2-4-3": "12",
    "2-4-4": "4",
    "2-4-5": "13",
    "2-4-6": "11",
    "2-4-7": "14",
    "2-4-8": "2",
    "3-0-0": "15",
    "3-0-1": "d",
    "3-0-2": "4",
    "3-0-3": "4",
    "3-0-4": "4",
    "3-0-5": "4",
    "3-0-6": "4",
    "3-0-7": "d",
    "3-0-8": "15",
    "3-1-0": "2",
    "3-1-1": "e",
    "3-1-2": "e",
    "3-1-3": "e",
    "3-1-4": "e",
    "3-1-5": "e",
    "3-1-6": "e",
    "3-1-7": "e",
    "3-1-8": "2",
    "3-2-0": "f",
    "3-2-1": "e",
    "3-2-2": "e",
    "3-2-3": "e",
    "3-2-4": "e",
    "3-2-5": "e",
    "3-2-6": "e",
    "3-2-7": "e",
    "3-2-8": "f",
    "3-3-0": "2",
    "3-3-1": "e",
    "3-3-2": "e",
    "3-3-3": "e",
    "3-3-4": "e",
    "3-3-5": "e",
    "3-3-6": "e",
    "3-3-7": "e",
    "3-3-8": "2",
    "3-4-0": "2",
    "3-4-1": "d",
    "3-4-2": "4",
    "3-4-3": "4",
    "3-4-4": "4",
    "3-4-5": "4",
    "3-4-6": "4",
    "3-4-7": "d",
    "3-4-8": "2",
    "4-0-0": "16",
    "4-0-1": "d",
    "4-0-2": "4",
    "4-0-3": "4",
    "4-0-4": "17",
    "4-0-5": "4",
    "4-0-6": "4",
    "4-0-7": "d",
    "4-0-8": "16",
    "4-1-0": "2",
    "4-1-1": "e",
    "4-1-2": "e",
    "4-1-3": "e",
    "4-1-4": "18",
    "4-1-5": "e",
    "4-1-6": "e",
    "4-1-7": "e",
    "4-1-8": "2",
    "4-2-0": "f",
    "4-2-1": "e",
    "4-2-2": "e",
    "4-2-3": "e",
    "4-2-4": "e",
    "4-2-5": "e",
    "4-2-6": "e",
    "4-2-7": "e",
    "4-2-8": "f",
    "4-3-0": "2",
    "4-3-1": "e",
    "4-3-2": "e",
    "4-3-3": "e",
    "4-3-4": "e",
    "4-3-5": "e",
    "4-3-6": "e",
    "4-3-7": "e",
    "4-3-8": "2",
    "4-4-0": "2",
    "4-4-1": "d",
    "4-4-2": "4",
    "4-4-3": "4",
    "4-4-4": "4",
    "4-4-5": "4",
    "4-4-6": "4",
    "4-4-7": "d",
    "4-4-8": "2",
    "5-0-0": "2",
    "5-0-1": "d",
    "5-0-2": "4",
    "5-0-3": "4",
    "5-0-4": "4",
    "5-0-5": "4",
    "5-0-6": "4",
    "5-0-7": "d",
    "5-0-8": "2",
    "5-1-0": "2",
    "5-1-1": "e",
    "5-1-2": "e",
    "5-1-3": "e",
    "5-1-4": "e",
    "5-1-5": "e",
    "5-1-6": "e",
    "5-1-7": "e",
    "5-1-8": "2",
    "5-2-0": "f",
    "5-2-1": "e",
    "5-2-2": "e",
    "5-2-3": "e",
    "5-2-4": "e",
    "5-2-5": "e",
    "5-2-6": "e",
    "5-2-7": "e",
    "5-2-8": "f",
    "5-3-0": "2",
    "5-3-1": "e",
    "5-3-2": "e",
    "5-3-3": "e",
    "5-3-4": "e",
    "5-3-5": "e",
    "5-3-6": "e",
    "5-3-7": "e",
    "5-3-8": "2",
    "5-4-0": "2",
    "5-4-1": "d",
    "5-4-2": "4",
    "5-4-3": "4",
    "5-4-4": "4",
    "5-4-5": "4",
    "5-4-6": "4",
    "5-4-7": "d",
    "5-4-8": "2",
    "6-0-0": "2",
    "6-0-1": "d",
    "6-0-2": "4",
    "6-0-3": "4",
    "6-0-4": "4",
    "6-0-5": "4",
    "6-0-6": "4",
    "6-0-7": "d",
    "6-0-8": "2",
    "6-1-0": "2",
    "6-1-1": "e",
    "6-1-2": "e",
    "6-1-3": "e",
    "6-1-4": "e",
    "6-1-5": "e",
    "6-1-6": "e",
    "6-1-7": "e",
    "6-1-8": "2",
    "6-2-0": "f",
    "6-2-1": "e",
    "6-2-2": "e",
    "6-2-3": "e",
    "6-2-4": "e",
    "6-2-5": "e",
    "6-2-6": "e",
    "6-2-7": "e",
    "6-2-8": "f",
    "6-3-0": "2",
    "6-3-1": "e",
    "6-3-2": "e",
    "6-3-3": "e",
    "6-3-4": "e",
    "6-3-5": "e",
    "6-3-6": "e",
    "6-3-7": "e",
    "6-3-8": "2",
    "6-4-0": "2",
    "6-4-1": "d",
    "6-4-2": "4",
    "6-4-3": "4",
    "6-4-4": "4",
    "6-4-5": "4",
    "6-4-6": "4",
    "6-4-7": "d",
    "6-4-8": "2",
    "7-0-0": "2",
    "7-0-1": "d",
    "7-0-2": "4",
    "7-0-3": "4",
    "7-0-4": "4",
    "7-0-5": "4",
    "7-0-6": "4",
    "7-0-7": "d",
    "7-0-8": "2",
    "7-1-0": "2",
    "7-1-1": "e",
    "7-1-2": "e",
    "7-1-3": "e",
    "7-1-4": "e",
    "7-1-5": "e",
    "7-1-6": "e",
    "7-1-7": "e",
    "7-1-8": "2",
    "7-2-0": "f",
    "7-2-1": "e",
    "7-2-2": "e",
    "7-2-3": "e",
    "7-2-4": "e",
    "7-2-5": "e",
    "7-2-6": "e",
    "7-2-7": "e",
    "7-2-8": "f",
    "7-3-0": "2",
    "7-3-1": "e",
    "7-3-2": "e",
    "7-3-3": "e",
    "7-3-4": "e",
    "7-3-5": "e",
    "7-3-6": "e",
    "7-3-7": "e",
    "7-3-8": "2",
    "7-4-0": "2",
    "7-4-1": "d",
    "7-4-2": "4",
    "7-4-3": "4",
    "7-4-4": "4",
    "7-4-5": "4",
    "7-4-6": "4",
    "7-4-7": "d",
    "7-4-8": "2",
    "8-0-0": "2",
    "8-0-1": "d",
    "8-0-2": "4",
    "8-0-3": "4",
    "8-0-4": "4",
    "8-0-5": "4",
    "8-0-6": "4",
    "8-0-7": "d",
    "8-0-8": "2",
    "8-1-0": "2",
    "8-1-1": "e",
    "8-1-2": "e",
    "8-1-3": "e",
    "8-1-4": "e",
    "8-1-5": "e",
    "8-1-6": "e",
    "8-1-7": "e",
    "8-1-8": "2",
    "8-2-0": "f",
    "8-2-1": "e",
    "8-2-2": "e",
    "8-2-3": "e",
    "8-2-4": "e",
    "8-2-5": "e",
    "8-2-6": "e",
    "8-2-7": "e",
    "8-2-8": "f",
    "8-3-0": "2",
    "8-3-1": "e",
    "8-3-2": "e",
    "8-3-3": "e",
    "8-3-4": "e",
    "8-3-5": "e",
    "8-3-6": "e",
    "8-3-7": "e",
    "8-3-8": "2",
    "8-4-0": "2",
    "8-4-1": "d",
    "8-4-2": "4",
    "8-4-3": "4",
    "8-4-4": "4",
    "8-4-5": "4",
    "8-4-6": "4",
    "8-4-7": "d",
    "8-4-8": "2",
    "9-0-0": "2",
    "9-0-1": "d",
    "9-0-2": "4",
    "9-0-3": "4",
    "9-0-4": "4",
    "9-0-5": "4",
    "9-0-6": "4",
    "9-0-7": "d",
    "9-0-8": "2",
    "9-1-0": "2",
    "9-1-1": "e",
    "9-1-2": "e",
    "9-1-3": "e",
    "9-1-4": "e",
    "9-1-5": "e",
    "9-1-6": "e",
    "9-1-7": "e",
    "9-1-8": "2",
    "9-2-0": "f",
    "9-2-1": "e",
    "9-2-2": "e",
    "9-2-3": "e",
    "9-2-4": "e",
    "9-2-5": "e",
    "9-2-6": "e",
    "9-2-7": "e",
    "9-2-8": "f",
    "9-3-0": "2",
    "9-3-1": "e",
    "9-3-2": "e",
    "9-3-3": "e",
    "9-3-4": "e",
    "9-3-5": "e",
    "9-3-6": "e",
    "9-3-7": "e",
    "9-3-8": "2",
    "9-4-0": "2",
    "9-4-1": "d",
    "9-4-2": "4",
    "9-4-3": "4",
    "9-4-4": "4",
    "9-4-5": "4",
    "9-4-6": "4",
    "9-4-7": "d",
    "9-4-8": "2",
    "10-0-0": "2",
    "10-0-1": "d",
    "10-0-2": "4",
    "10-0-3": "4",
    "10-0-4": "4",
    "10-0-5": "4",
    "10-0-6": "4",
    "10-0-7": "d",
    "10-0-8": "2",
    "10-1-0": "2",
    "10-1-1": "e",
    "10-1-2": "e",
    "10-1-3": "e",
    "10-1-4": "e",
    "10-1-5": "e",
    "10-1-6": "e",
    "10-1-7": "e",
    "10-1-8": "2",
    "10-2-0": "f",
    "10-2-1": "e",
    "10-2-2": "e",
    "10-2-3": "e",
    "10-2-4": "e",
    "10-2-5": "e",
    "10-2-6": "e",
    "10-2-7": "e",
    "10-2-8": "f",
    "10-3-0": "2",
    "10-3-1": "e",
    "10-3-2": "e",
    "10-3-3": "e",
    "10-3-4": "e",
    "10-3-5": "e",
    "10-3-6": "e",
    "10-3-7": "e",
    "10-3-8": "2",
    "10-4-0": "2",
    "10-4-1": "d",
    "10-4-2": "4",
    "10-4-3": "4",
    "10-4-4": "4",
    "10-4-5": "4",
    "10-4-6": "4",
    "10-4-7": "d",
    "10-4-8": "2",
    "11-0-0": "2",
    "11-0-1": "d",
    "11-0-2": "4",
    "11-0-3": "4",
    "11-0-4": "4",
    "11-0-5": "4",
    "11-0-6": "4",
    "11-0-7": "d",
    "11-0-8": "2",
    "11-1-0": "2",
    "11-1-1": "e",
    "11-1-2": "e",
    "11-1-3": "e",
    "11-1-4": "e",
    "11-1-5": "e",
    "11-1-6": "e",
    "11-1-7": "e",
    "11-1-8": "2",
    "11-2-0": "f",
    "11-2-1": "e",
    "11-2-2": "e",
    "11-2-3": "e",
    "11-2-4": "e",
    "11-2-5": "e",
    "11-2-6": "e",
    "11-2-7": "e",
    "11-2-8": "f",
    "11-3-0": "2",
    "11-3-1": "e",
    "11-3-2": "e",
    "11-3-3": "e",
    "11-3-4": "e",
    "11-3-5": "e",
    "11-3-6": "e",
    "11-3-7": "e",
    "11-3-8": "2",
    "11-4-0": "2",
    "11-4-1": "d",
    "11-4-2": "4",
    "11-4-3": "4",
    "11-4-4": "4",
    "11-4-5": "4",
    "11-4-6": "4",
    "11-4-7": "d",
    "11-4-8": "2",
    "12-0-0": "2",
    "12-0-1": "d",
    "12-0-2": "4",
    "12-0-3": "4",
    "12-0-4": "4",
    "12-0-5": "4",
    "12-0-6": "4",
    "12-0-7": "d",
    "12-0-8": "2",
    "12-1-0": "2",
    "12-1-1": "e",
    "12-1-2": "e",
    "12-1-3": "e",
    "12-1-4": "e",
    "12-1-5": "e",
    "12-1-6": "e",
    "12-1-7": "e",
    "12-1-8": "2",
    "12-2-0": "f",
    "12-2-1": "e",
    "12-2-2": "e",
    "12-2-3": "e",
    "12-2-4": "e",
    "12-2-5": "e",
    "12-2-6": "e",
    "12-2-7": "e",
    "12-2-8": "f",
    "12-3-0": "2",
    "12-3-1": "e",
    "12-3-2": "e",
    "12-3-3": "e",
    "12-3-4": "e",
    "12-3-5": "e",
    "12-3-6": "e",
    "12-3-7": "e",
    "12-3-8": "2",
    "12-4-0": "2",
    "12-4-1": "d",
    "12-4-2": "4",
    "12-4-3": "4",
    "12-4-4": "4",
    "12-4-5": "4",
    "12-4-6": "4",
    "12-4-7": "d",
    "12-4-8": "2",
    "13-0-0": "2",
    "13-0-1": "19",
    "13-0-2": "4",
    "13-0-3": "4",
    "13-0-4": "4",
    "13-0-5": "4",
    "13-0-6": "4",
    "13-0-7": "19",
    "13-0-8": "2",
    "13-1-0": "2",
    "13-1-1": "e",
    "13-1-2": "e",
    "13-1-3": "e",
    "13-1-4": "e",
    "13-1-5": "e",
    "13-1-6": "e",
    "13-1-7": "e",
    "13-1-8": "2",
    "13-2-0": "f",
    "13-2-1": "e",
    "13-2-2": "e",
    "13-2-3": "e",
    "13-2-4": "e",
    "13-2-5": "e",
    "13-2-6": "e",
    "13-2-7": "e",
    "13-2-8": "f",
    "13-3-0": "2",
    "13-3-1": "e",
    "13-3-2": "e",
    "13-3-3": "e",
    "13-3-4": "e",
    "13-3-5": "e",
    "13-3-6": "e",
    "13-3-7": "e",
    "13-3-8": "2",
    "13-4-0": "2",
    "13-4-1": "19",
    "13-4-2": "4",
    "13-4-3": "4",
    "13-4-4": "4",
    "13-4-5": "4",
    "13-4-6": "4",
    "13-4-7": "19",
    "13-4-8": "2",
    "14-0-1": "2",
    "14-0-2": "3",
    "14-0-3": "4",
    "14-0-4": "4",
    "14-0-5": "4",
    "14-0-6": "3",
    "14-0-7": "2",
    "14-1-1": "2",
    "14-1-2": "e",
    "14-1-3": "e",
    "14-1-4": "e",
    "14-1-5": "e",
    "14-1-6": "e",
    "14-1-7": "2",
    "14-2-1": "f",
    "14-2-2": "e",
    "14-2-3": "e",
    "14-2-4": "e",
    "14-2-5": "e",
    "14-2-6": "e",
    "14-2-7": "f",
    "14-3-1": "2",
    "14-3-2": "e",
    "14-3-3": "e",
    "14-3-4": "e",
    "14-3-5": "e",
    "14-3-6": "e",
    "14-3-7": "2",
    "14-4-1": "2",
    "14-4-2": "3",
    "14-4-3": "4",
    "14-4-4": "4",
    "14-4-5": "4",
    "14-4-6": "3",
    "14-4-7": "2",
    "15-0-1": "2",
    "15-0-2": "19",
    "15-0-3": "4",
    "15-0-4": "4",
    "15-0-5": "4",
    "15-0-6": "19",
    "15-0-7": "2",
    "15-1-1": "2",
    "15-1-2": "e",
    "15-1-3": "e",
    "15-1-4": "e",
    "15-1-5": "e",
    "15-1-6": "e",
    "15-1-7": "2",
    "15-2-1": "f",
    "15-2-2": "e",
    "15-2-3": "e",
    "15-2-4": "e",
    "15-2-5": "e",
    "15-2-6": "e",
    "15-2-7": "f",
    "15-3-1": "2",
    "15-3-2": "e",
    "15-3-3": "e",
    "15-3-4": "e",
    "15-3-5": "e",
    "15-3-6": "e",
    "15-3-7": "2",
    "15-4-1": "2",
    "15-4-2": "19",
    "15-4-3": "4",
    "15-4-4": "4",
    "15-4-5": "4",
    "15-4-6": "19",
    "15-4-7": "2",
    "16-0-2": "2",
    "16-0-3": "3",
    "16-0-4": "4",
    "16-0-5": "3",
    "16-0-6": "2",
    "16-1-2": "2",
    "16-1-3": "e",
    "16-1-4": "e",
    "16-1-5": "e",
    "16-1-6": "2",
    "16-2-2": "f",
    "16-2-3": "e",
    "16-2-4": "e",
    "16-2-5": "e",
    "16-2-6": "f",
    "16-3-2": "2",
    "16-3-3": "e",
    "16-3-4": "e",
    "16-3-5": "e",
    "16-3-6": "2",
    "16-4-2": "2",
    "16-4-3": "3",
    "16-4-4": "4",
    "16-4-5": "3",
    "16-4-6": "2",
    "17-0-2": "2",
    "17-0-3": "19",
    "17-0-4": "4",
    "17-0-5": "19",
    "17-0-6": "2",
    "17-1-2": "2",
    "17-1-3": "e",
    "17-1-4": "e",
    "17-1-5": "e",
    "17-1-6": "2",
    "17-2-2": "f",
    "17-2-3": "e",
    "17-2-4": "e",
    "17-2-5": "e",
    "17-2-6": "f",
    "17-3-2": "2",
    "17-3-3": "e",
    "17-3-4": "e",
    "17-3-5": "e",
    "17-3-6": "2",
    "17-4-2": "2",
    "17-4-3": "19",
    "17-4-4": "4",
    "17-4-5": "19",
    "17-4-6": "2"
  },
  "inventorys": [],
   "doors": [ 
    {
      "facing": 5,
      "w": 1,
      "h": 3,
      "d": 3,
      "start": "17,1,3"
    },
    {
      "facing": 4,
      "w": 1,
      "h": 3,
      "d": 3,
      "start": "0,1,3"
    }
  ],
  "stateMap": {
    "0": "futurepack:wire_redstone:down\u003dfalse;east\u003dtrue;hologram\u003dfalse;north\u003dfalse;redstone\u003dfalse;south\u003dtrue;state\u003doff;up\u003dfalse;west\u003dfalse",
    "1": "futurepack:wire_redstone:down\u003dfalse;east\u003dfalse;hologram\u003dfalse;north\u003dtrue;redstone\u003dfalse;south\u003dfalse;state\u003doff;up\u003dtrue;west\u003dfalse",
    "10": "futurepack:quantanium:down\u003dfalse;east\u003dtrue;north\u003dfalse;south\u003dtrue;up\u003dfalse;west\u003dfalse",
    "11": "futurepack:quantanium:down\u003dfalse;east\u003dfalse;north\u003dtrue;south\u003dtrue;up\u003dfalse;west\u003dfalse",
    "12": "futurepack:quantanium:down\u003dfalse;east\u003dfalse;north\u003dtrue;south\u003dfalse;up\u003dfalse;west\u003dtrue",
    "13": "futurepack:quantanium:down\u003dfalse;east\u003dfalse;north\u003dfalse;south\u003dtrue;up\u003dfalse;west\u003dtrue",
    "14": "futurepack:quantanium:down\u003dfalse;east\u003dtrue;north\u003dtrue;south\u003dfalse;up\u003dfalse;west\u003dfalse",
    "15": "futurepack:wire_redstone:down\u003dfalse;east\u003dfalse;hologram\u003dfalse;north\u003dfalse;redstone\u003dtrue;south\u003dfalse;state\u003doff;up\u003dfalse;west\u003dtrue",
    "16": "futurepack:wr_receiver:power\u003d0",
    "17": "futurepack:wr_transmitter:power\u003d0",
    "18": "futurepack:dungeon_spawner:facing\u003dup;rot\u003d1",
    "19": "futurepack:quantanium:down\u003dfalse;east\u003dfalse;north\u003dfalse;south\u003dfalse;up\u003dfalse;west\u003dtrue",
    "2": "futurepack:color_iron_gray:",
    "3": "futurepack:quantanium:down\u003dfalse;east\u003dtrue;north\u003dfalse;south\u003dfalse;up\u003dfalse;west\u003dfalse",
    "4": "futurepack:color_iron_black:",
    "5": "futurepack:wire_redstone:down\u003dfalse;east\u003dfalse;hologram\u003dfalse;north\u003dfalse;redstone\u003dfalse;south\u003dtrue;state\u003doff;up\u003dtrue;west\u003dfalse",
    "6": "futurepack:wire_redstone:down\u003dfalse;east\u003dtrue;hologram\u003dfalse;north\u003dtrue;redstone\u003dfalse;south\u003dfalse;state\u003doff;up\u003dfalse;west\u003dfalse",
    "7": "futurepack:wire_redstone:down\u003dtrue;east\u003dfalse;hologram\u003dfalse;north\u003dfalse;redstone\u003dfalse;south\u003dfalse;state\u003doff;up\u003dtrue;west\u003dfalse",
    "8": "futurepack:airlock_door:direction\u003dsouth;extended\u003dtrue",
    "9": "minecraft:barrier:",
    "a": "futurepack:airlock_door:direction\u003dnorth;extended\u003dtrue",
    "b": "futurepack:wire_redstone:down\u003dtrue;east\u003dfalse;hologram\u003dfalse;north\u003dfalse;redstone\u003dfalse;south\u003dfalse;state\u003doff;up\u003dfalse;west\u003dfalse",
    "c": "futurepack:wire_redstone:down\u003dfalse;east\u003dtrue;hologram\u003dfalse;north\u003dfalse;redstone\u003dfalse;south\u003dfalse;state\u003doff;up\u003dfalse;west\u003dtrue",
    "d": "futurepack:quantanium:down\u003dfalse;east\u003dtrue;north\u003dfalse;south\u003dfalse;up\u003dfalse;west\u003dtrue",
    "e": "minecraft:air:",
    "f": "futurepack:color_iron_purple:"
  }
}