{
  "data": {
    "0-0-3": "0",
    "0-0-4": "1",
    "0-0-5": "2",
    "0-0-6": "1",
    "0-0-7": "0",
    "0-1-3": "0",
    "0-1-4": "3",
    "0-1-5": "3",
    "0-1-6": "3",
    "0-1-7": "0",
    "0-2-3": "4",
    "0-2-4": "3",
    "0-2-5": "3",
    "0-2-6": "3",
    "0-2-7": "4",
    "0-3-3": "0",
    "0-3-4": "3",
    "0-3-5": "3",
    "0-3-6": "3",
    "0-3-7": "0",
    "0-4-3": "0",
    "0-4-4": "1",
    "0-4-5": "2",
    "0-4-6": "1",
    "0-4-7": "0",
    "1-0-3": "0",
    "1-0-4": "5",
    "1-0-5": "2",
    "1-0-6": "5",
    "1-0-7": "0",
    "1-1-3": "0",
    "1-1-4": "3",
    "1-1-5": "3",
    "1-1-6": "3",
    "1-1-7": "0",
    "1-2-2": "6",
    "1-2-3": "7",
    "1-2-4": "3",
    "1-2-5": "3",
    "1-2-6": "3",
    "1-2-7": "7",
    "1-2-8": "6",
    "1-3-3": "0",
    "1-3-4": "3",
    "1-3-5": "3",
    "1-3-6": "3",
    "1-3-7": "0",
    "1-4-3": "0",
    "1-4-4": "5",
    "1-4-5": "2",
    "1-4-6": "5",
    "1-4-7": "0",
    "2-0-2": "0",
    "2-0-3": "8",
    "2-0-4": "9",
    "2-0-5": "a",
    "2-0-6": "9",
    "2-0-7": "b",
    "2-0-8": "0",
    "2-1-1": "0",
    "2-1-2": "0",
    "2-1-3": "3",
    "2-1-4": "3",
    "2-1-5": "3",
    "2-1-6": "3",
    "2-1-7": "3",
    "2-1-8": "0",
    "2-1-9": "0",
    "2-2-1": "4",
    "2-2-2": "7",
    "2-2-3": "3",
    "2-2-4": "3",
    "2-2-5": "3",
    "2-2-6": "3",
    "2-2-7": "3",
    "2-2-8": "7",
    "2-2-9": "4",
    "2-3-1": "0",
    "2-3-2": "0",
    "2-3-3": "3",
    "2-3-4": "3",
    "2-3-5": "3",
    "2-3-6": "3",
    "2-3-7": "3",
    "2-3-8": "0",
    "2-3-9": "0",
    "2-4-2": "0",
    "2-4-3": "8",
    "2-4-4": "9",
    "2-4-5": "a",
    "2-4-6": "9",
    "2-4-7": "b",
    "2-4-8": "0",
    "3-0-2": "c",
    "3-0-3": "d",
    "3-0-4": "2",
    "3-0-5": "5",
    "3-0-6": "2",
    "3-0-7": "e",
    "3-0-8": "f",
    "3-1-1": "10",
    "3-1-2": "3",
    "3-1-3": "3",
    "3-1-4": "3",
    "3-1-5": "3",
    "3-1-6": "3",
    "3-1-7": "3",
    "3-1-8": "3",
    "3-1-9": "11",
    "3-2-0": "2",
    "3-2-1": "3",
    "3-2-2": "3",
    "3-2-3": "3",
    "3-2-4": "3",
    "3-2-5": "3",
    "3-2-6": "3",
    "3-2-7": "3",
    "3-2-8": "3",
    "3-2-9": "3",
    "3-2-10": "2",
    "3-3-1": "12",
    "3-3-2": "3",
    "3-3-3": "3",
    "3-3-4": "3",
    "3-3-5": "3",
    "3-3-6": "3",
    "3-3-7": "3",
    "3-3-8": "3",
    "3-3-9": "13",
    "3-4-2": "c",
    "3-4-3": "d",
    "3-4-4": "2",
    "3-4-5": "5",
    "3-4-6": "2",
    "3-4-7": "e",
    "3-4-8": "f",
    "4-0-1": "6",
    "4-0-2": "2",
    "4-0-3": "e",
    "4-0-4": "14",
    "4-0-5": "15",
    "4-0-6": "14",
    "4-0-7": "d",
    "4-0-8": "2",
    "4-0-9": "6",
    "4-1-0": "6",
    "4-1-1": "16",
    "4-1-2": "3",
    "4-1-3": "3",
    "4-1-4": "3",
    "4-1-5": "17",
    "4-1-6": "3",
    "4-1-7": "3",
    "4-1-8": "3",
    "4-1-9": "16",
    "4-1-10": "6",
    "4-2-0": "6",
    "4-2-1": "16",
    "4-2-2": "3",
    "4-2-3": "3",
    "4-2-4": "3",
    "4-2-5": "18",
    "4-2-6": "3",
    "4-2-7": "3",
    "4-2-8": "3",
    "4-2-9": "16",
    "4-2-10": "6",
    "4-3-0": "6",
    "4-3-1": "16",
    "4-3-2": "3",
    "4-3-3": "3",
    "4-3-4": "3",
    "4-3-5": "17",
    "4-3-6": "3",
    "4-3-7": "3",
    "4-3-8": "3",
    "4-3-9": "16",
    "4-3-10": "6",
    "4-4-1": "6",
    "4-4-2": "2",
    "4-4-3": "e",
    "4-4-4": "14",
    "4-4-5": "19",
    "4-4-6": "14",
    "4-4-7": "d",
    "4-4-8": "2",
    "4-4-9": "6",
    "5-0-2": "c",
    "5-0-3": "d",
    "5-0-4": "2",
    "5-0-5": "5",
    "5-0-6": "2",
    "5-0-7": "e",
    "5-0-8": "f",
    "5-1-1": "10",
    "5-1-2": "3",
    "5-1-3": "3",
    "5-1-4": "3",
    "5-1-5": "3",
    "5-1-6": "3",
    "5-1-7": "3",
    "5-1-8": "3",
    "5-1-9": "11",
    "5-2-0": "2",
    "5-2-1": "3",
    "5-2-2": "3",
    "5-2-3": "3",
    "5-2-4": "3",
    "5-2-5": "1a",
    "5-2-6": "3",
    "5-2-7": "3",
    "5-2-8": "3",
    "5-2-9": "3",
    "5-2-10": "2",
    "5-3-1": "12",
    "5-3-2": "3",
    "5-3-3": "3",
    "5-3-4": "3",
    "5-3-5": "3",
    "5-3-6": "3",
    "5-3-7": "3",
    "5-3-8": "3",
    "5-3-9": "13",
    "5-4-2": "c",
    "5-4-3": "d",
    "5-4-4": "2",
    "5-4-5": "5",
    "5-4-6": "2",
    "5-4-7": "e",
    "5-4-8": "f",
    "6-0-2": "0",
    "6-0-3": "1b",
    "6-0-4": "a",
    "6-0-5": "9",
    "6-0-6": "a",
    "6-0-7": "1c",
    "6-0-8": "0",
    "6-1-1": "0",
    "6-1-2": "0",
    "6-1-3": "3",
    "6-1-4": "3",
    "6-1-5": "3",
    "6-1-6": "3",
    "6-1-7": "3",
    "6-1-8": "0",
    "6-1-9": "0",
    "6-2-1": "4",
    "6-2-2": "7",
    "6-2-3": "3",
    "6-2-4": "3",
    "6-2-5": "3",
    "6-2-6": "3",
    "6-2-7": "3",
    "6-2-8": "7",
    "6-2-9": "4",
    "6-3-1": "0",
    "6-3-2": "0",
    "6-3-3": "3",
    "6-3-4": "3",
    "6-3-5": "3",
    "6-3-6": "3",
    "6-3-7": "3",
    "6-3-8": "0",
    "6-3-9": "0",
    "6-4-2": "0",
    "6-4-3": "1b",
    "6-4-4": "a",
    "6-4-5": "9",
    "6-4-6": "a",
    "6-4-7": "1c",
    "6-4-8": "0",
    "7-0-3": "0",
    "7-0-4": "1d",
    "7-0-5": "2",
    "7-0-6": "1d",
    "7-0-7": "0",
    "7-1-3": "0",
    "7-1-4": "3",
    "7-1-5": "3",
    "7-1-6": "3",
    "7-1-7": "0",
    "7-2-2": "6",
    "7-2-3": "7",
    "7-2-4": "3",
    "7-2-5": "3",
    "7-2-6": "3",
    "7-2-7": "7",
    "7-2-8": "6",
    "7-3-3": "0",
    "7-3-4": "3",
    "7-3-5": "3",
    "7-3-6": "3",
    "7-3-7": "0",
    "7-4-3": "0",
    "7-4-4": "1d",
    "7-4-5": "2",
    "7-4-6": "1d",
    "7-4-7": "0",
    "8-0-5": "6",
    "8-1-3": "0",
    "8-1-4": "1e",
    "8-1-5": "16",
    "8-1-6": "1e",
    "8-1-7": "0",
    "8-2-3": "4",
    "8-2-4": "3",
    "8-2-5": "16",
    "8-2-6": "3",
    "8-2-7": "4",
    "8-3-3": "0",
    "8-3-4": "1f",
    "8-3-5": "16",
    "8-3-6": "1f",
    "8-3-7": "0",
    "8-4-5": "6",
    "9-1-5": "6",
    "9-2-4": "2",
    "9-2-5": "6",
    "9-2-6": "2",
    "9-3-5": "6"
  },
  "inventorys": [],
  "doors": [
    {
      "facing": 4,
      "w": 1,
      "h": 3,
      "d": 3,
      "start": "0,1,4"
    }
  ],
  "stateMap": {
    "0": "futurepack:color_iron_gray:",
    "1": "futurepack:quantanium:down\u003dfalse;east\u003dtrue;north\u003dfalse;south\u003dfalse;up\u003dfalse;west\u003dfalse",
    "10": "futurepack:color_iron_stair_black:facing\u003dnorth;half\u003dbottom;shape\u003dstraight;waterlogged\u003dfalse",
    "11": "futurepack:color_iron_stair_black:facing\u003dsouth;half\u003dbottom;shape\u003dstraight;waterlogged\u003dfalse",
    "12": "futurepack:color_iron_stair_black:facing\u003dnorth;half\u003dtop;shape\u003dstraight;waterlogged\u003dfalse",
    "13": "futurepack:color_iron_stair_black:facing\u003dsouth;half\u003dtop;shape\u003dstraight;waterlogged\u003dfalse",
    "14": "futurepack:quantanium:down\u003dfalse;east\u003dfalse;north\u003dtrue;south\u003dtrue;up\u003dfalse;west\u003dfalse",
    "15": "futurepack:quantanium:down\u003dfalse;east\u003dtrue;north\u003dtrue;south\u003dtrue;up\u003dtrue;west\u003dtrue",
    "16": "futurepack:color_gitter_black:",
    "17": "futurepack:quantanium:down\u003dtrue;east\u003dfalse;north\u003dfalse;south\u003dfalse;up\u003dtrue;west\u003dfalse",
    "18": "futurepack:dungeon_core:",
    "19": "futurepack:quantanium:down\u003dtrue;east\u003dtrue;north\u003dtrue;south\u003dtrue;up\u003dfalse;west\u003dtrue",
    "1a": "futurepack:fp_lever:face\u003dwall;facing\u003deast;powered\u003dfalse",
    "1b": "futurepack:quantanium:down\u003dfalse;east\u003dfalse;north\u003dfalse;south\u003dtrue;up\u003dfalse;west\u003dtrue",
    "1c": "futurepack:quantanium:down\u003dfalse;east\u003dfalse;north\u003dtrue;south\u003dfalse;up\u003dfalse;west\u003dtrue",
    "1d": "futurepack:quantanium:down\u003dfalse;east\u003dfalse;north\u003dfalse;south\u003dfalse;up\u003dfalse;west\u003dtrue",
    "1e": "futurepack:color_iron_stair_black:facing\u003deast;half\u003dbottom;shape\u003dstraight;waterlogged\u003dfalse",
    "1f": "futurepack:color_iron_stair_black:facing\u003deast;half\u003dtop;shape\u003dstraight;waterlogged\u003dfalse",
    "2": "futurepack:color_iron_black:",
    "3": "minecraft:air:",
    "4": "futurepack:color_iron_purple:",
    "5": "futurepack:quantanium:down\u003dfalse;east\u003dtrue;north\u003dfalse;south\u003dfalse;up\u003dfalse;west\u003dtrue",
    "6": "futurepack:wakurium_brick:",
    "7": "futurepack:color_gitter_purple:",
    "8": "futurepack:quantanium:down\u003dfalse;east\u003dtrue;north\u003dfalse;south\u003dtrue;up\u003dfalse;west\u003dfalse",
    "9": "futurepack:quantanium:down\u003dfalse;east\u003dfalse;north\u003dtrue;south\u003dtrue;up\u003dfalse;west\u003dtrue",
    "a": "futurepack:quantanium:down\u003dfalse;east\u003dtrue;north\u003dtrue;south\u003dtrue;up\u003dfalse;west\u003dfalse",
    "b": "futurepack:quantanium:down\u003dfalse;east\u003dtrue;north\u003dtrue;south\u003dfalse;up\u003dfalse;west\u003dfalse",
    "c": "futurepack:quantanium:down\u003dfalse;east\u003dfalse;north\u003dfalse;south\u003dtrue;up\u003dfalse;west\u003dfalse",
    "d": "futurepack:quantanium:down\u003dfalse;east\u003dtrue;north\u003dtrue;south\u003dfalse;up\u003dfalse;west\u003dtrue",
    "e": "futurepack:quantanium:down\u003dfalse;east\u003dtrue;north\u003dfalse;south\u003dtrue;up\u003dfalse;west\u003dtrue",
    "f": "futurepack:quantanium:down\u003dfalse;east\u003dfalse;north\u003dtrue;south\u003dfalse;up\u003dfalse;west\u003dfalse"
  }
}