{
	"type": "futurepack:below_bedrock",
	"generator": {
		"type": "minecraft:flat",
		"settings": {
			"layers": [
				{
					"height": 1,
					"block": "minecraft:bedrock"
				},
				{
					"height": 254,
					"block": "minecraft:stone"
				},
				{
					"height": 1,
					"block": "minecraft:bedrock"
				}
			],
			"lakes": 1,
			"features": 1,
			"biome": "minecraft:windswept_hills",
			"structures": {
				"structures": {
					"mineshaft": {
						"spacing": 1,
						"separation": 0,
						"salt": 0
					}
				}
			}
		}
	}
}