{
  "elektrofeld": 
  {
    "category": "block",
    "sounds": [{"name": "futurepack:elektrofeld","stream": false}]
  },
  "optibench":
  {
    "category": "block",
    "sounds": [{"name": "futurepack:optibench","stream": false}]
  },
  "spacejump":
  {
    "category": "master",
    "sounds" : [{"name":"futurepack:jump", "stream":false}]
  },
  "generator":
  {
    "category": "block",
    "sounds" : [{"name":"futurepack:generator", "stream":false}]
  },
  "grenadeshot":
  {
	"category":"player",
	"sounds":[{"name":"futurepack:granatschuss", "stream":false}]
  },
  "loade":
  {
	"category":"player",
	"sounds":[{"name":"futurepack:loade", "stream":false}]
  },
  "lasershot":
  {
	"category":"player",
	"sounds":[{"name":"futurepack:laserschuss1", "stream":true}, {"name":"futurepack:laserschuss2", "stream":false}]
  },
   "shield_hit":
  {
	"category":"player",
	"sounds":[{"name":"futurepack:shield_hit", "stream":false}]
  },
  "record.futurepack":
  {
	"category":"record",
	"sounds":[{"name":"futurepack:soundtrack", "stream":true}]
  },
  "record.menelaus":
  {
	"category":"record",
	"sounds":[{"name":"futurepack:voice_menelaus", "stream":true}]
  },
  "record.tyros":
  {
	"category":"record",
	"sounds":[{"name":"futurepack:voice_tyros", "stream":true}]
  },
  "record.entros":
  {
	"category":"record",
	"sounds":[{"name":"futurepack:voice_entros", "stream":true}]
  },
  "record.unknown":
  {
	"category":"record",
	"sounds":[{"name":"futurepack:unknown", "stream":true}]
  },
   "record.envia":
  {
	"category":"record",
	"sounds":[{"name":"futurepack:voice_envia", "stream":true}]
  },
  "airlock":
  {
	"category":"block",
	"sounds":[{"name":"futurepack:airlock", "stream":false}]
  },
  "part_press": 
  {
	"sounds": [{"name":"futurepack:part_press", "stream":false}]
  },
  "corelaser":
  {
	"category":"block",
    "sounds": [{"name":"futurepack:corelaser", "stream":false}]
  },
  "record.lyrara":
  {
	"category":"record",
	"sounds":[{"name":"futurepack:voice_lyrara", "stream":true}]
  },
  "defibrilator":
  {
	"category":"player",
	"sounds":[{"name":"futurepack:defibrilator", "stream":false}]
  }
}