
{
	"replace": false,
	"values": [
		"#forge:ingots/aluminum",
		"#forge:ingots/bioterium",
		"#forge:ingots/bitripentium",
		"#forge:ingots/copper",
		"#forge:ingots/gadolinium",
		"#forge:ingots/glowtite",
		"#forge:ingots/lithium",
		"#forge:ingots/magnetite",
		
		"#forge:ingots/neodymium",
		"#forge:ingots/neon",
		"#forge:ingots/quantanium",
		"#forge:ingots/rare_earth",
		"#forge:ingots/retium",
		"#forge:ingots/silicon",
		"#forge:ingots/tin",
		"#forge:ingots/wakurium",
		"#forge:ingots/zinc"
	]
}
