{
    "pools": 
    [
        {
            "name":"default",
            "rolls":             
			{
                "min": 2,
                "max": 6
            },
            "entries": 
            [
			    {
                    "type": "minecraft:loot_table",
                    "name": "futurepack:chests/loots/commen_electronic_scrab",
                    "weight": 20
                },
				{
                    "type": "minecraft:loot_table",
                    "name": "futurepack:chests/loots/common_things",
                    "weight": 25
                },
				{
                    "type": "minecraft:loot_table",
                    "name": "futurepack:chests/loots/electronic_fragments",
                    "weight": 7
                },
                {
                    "type": "minecraft:loot_table",
                    "name": "futurepack:chests/loots/common_ingots",
                    "weight": 20
                },
				{
                    "type": "minecraft:loot_table",
                    "name": "futurepack:chests/loots/fp_craft",
                    "weight": 15
                },
				{
                    "type": "minecraft:loot_table",
                    "name": "futurepack:chests/loots/rare_things",
                    "weight": 3
                },
				{
                    "type": "minecraft:item",
                    "name": "futurepack:record_futurepack",
                    "weight": 5,
                    "functions": 
                    [
                        {
                            "function": "set_count",
                            "count": 1
                        }
                    ]
                }
            ]
        }
    ]
}