{
	"feature": "futurepack:crater",
	"placement": [ 
		{
			"type": "minecraft:biome" 
		},
		{
	      "chance": 5,
	      "type": "minecraft:rarity_filter"
	    },
		{
			"type":  "minecraft:heightmap",
			"heightmap": "OCEAN_FLOOR_WG"
		}
	]
}
