{
	"feature": "futurepack:patch_crawler_hive",
	"placement": [ 
		{
			"type": "minecraft:biome" 
		},
		{
	      "chance": 128,
	      "type": "minecraft:rarity_filter"
	    },
	    {
    		"type" : "minecraft:in_square"
  		}, 
		{
			"type":  "minecraft:heightmap",
			"heightmap": "OCEAN_FLOOR_WG"
		}
	]
}
