{
	"feature": "futurepack:tree_menelaus_mushroom",
	"placement": [
		{
			"type": "minecraft:biome"
		},
		{
	      "chance": 3,
	      "type": "minecraft:rarity_filter"
	    },
	    {
         "type" : "minecraft:in_square"
        },
		{
			"type":  "minecraft:heightmap",
			"heightmap": "WORLD_SURFACE_WG"
		}
	]
}
