{
	"feature": "futurepack:trees_tyros",
	"placement": [
		{
			"count": {
				"distribution": [
					{
						"data": 3,
						"weight": 9
					},
					{
						"data": 5,
						"weight": 1
					}
				],
				"type": "minecraft:weighted_list"
			},
			"type": "minecraft:count"
		},
		{
			"type": "minecraft:in_square"
		},
		{
			"max_water_depth": 3,
			"type": "minecraft:surface_water_depth_filter"
		},
		{
			"type": "minecraft:heightmap",
			"heightmap": "OCEAN_FLOOR"
		},
		{
			"type": "minecraft:biome"
		}
	]
}
